<?xml version="1.0" encoding="UTF-8" standalone="no"?>
<graphml xmlns="http://graphml.graphdrawing.org/xmlns" xmlns:java="http://www.yworks.com/xml/yfiles-common/1.0/java" xmlns:sys="http://www.yworks.com/xml/yfiles-common/markup/primitives/2.0" xmlns:x="http://www.yworks.com/xml/yfiles-common/markup/2.0" xmlns:xsi="http://www.w3.org/2001/XMLSchema-instance" xmlns:y="http://www.yworks.com/xml/graphml" xmlns:yed="http://www.yworks.com/xml/yed/3" xsi:schemaLocation="http://graphml.graphdrawing.org/xmlns http://www.yworks.com/xml/schema/graphml/1.1/ygraphml.xsd">
  <!--Created by yEd 3.21.1-->
  <key attr.name="Beschreibung" attr.type="string" for="graph" id="d0"/>
  <key for="port" id="d1" yfiles.type="portgraphics"/>
  <key for="port" id="d2" yfiles.type="portgeometry"/>
  <key for="port" id="d3" yfiles.type="portuserdata"/>
  <key attr.name="url" attr.type="string" for="node" id="d4"/>
  <key attr.name="description" attr.type="string" for="node" id="d5"/>
  <key for="node" id="d6" yfiles.type="nodegraphics"/>
  <key for="graphml" id="d7" yfiles.type="resources"/>
  <key attr.name="url" attr.type="string" for="edge" id="d8"/>
  <key attr.name="description" attr.type="string" for="edge" id="d9"/>
  <key for="edge" id="d10" yfiles.type="edgegraphics"/>
  <graph edgedefault="directed" id="G">
    <data key="d0" xml:space="preserve"/>
    <node id="n0" yfiles.foldertype="folder">
      <data key="d4" xml:space="preserve"/>
      <data key="d5"/>
      <data key="d6">
        <y:ProxyAutoBoundsNode>
          <y:Realizers active="1">
            <y:GroupNode>
              <y:Geometry height="668.8716669942347" width="490.8192913385826" x="-888.6598425196858" y="98.3007874015749"/>
              <y:Fill color="#CAECFF84" transparent="false"/>
              <y:BorderStyle color="#666699" type="dotted" width="1.0"/>
              <y:NodeLabel alignment="right" autoSizePolicy="node_width" backgroundColor="#99CCFF" borderDistance="0.0" fontFamily="Dialog" fontSize="15" fontStyle="plain" hasLineColor="false" height="21.4609375" horizontalTextPosition="center" iconTextGap="4" modelName="internal" modelPosition="t" textColor="#000000" verticalTextPosition="bottom" visible="true" width="490.8192913385826" x="0.0" xml:space="preserve" y="0.0">Main Database</y:NodeLabel>
              <y:Shape type="roundrectangle"/>
              <y:State closed="false" closedHeight="50.0" closedWidth="50.0" innerGraphDisplayEnabled="false"/>
              <y:Insets bottom="15" bottomF="15.0" left="15" leftF="15.0" right="15" rightF="15.0" top="15" topF="15.0"/>
              <y:BorderInsets bottom="32" bottomF="31.820453986220514" left="23" leftF="22.5" right="0" rightF="0.0" top="43" topF="43.081889763779486"/>
            </y:GroupNode>
            <y:GroupNode>
              <y:Geometry height="50.0" width="50.0" x="-888.6598425196858" y="98.3007874015749"/>
              <y:Fill color="#CAECFF84" transparent="false"/>
              <y:BorderStyle color="#666699" type="dotted" width="1.0"/>
              <y:NodeLabel alignment="right" autoSizePolicy="node_width" backgroundColor="#99CCFF" borderDistance="0.0" fontFamily="Dialog" fontSize="15" fontStyle="plain" hasLineColor="false" height="21.4609375" horizontalTextPosition="center" iconTextGap="4" modelName="internal" modelPosition="t" textColor="#000000" verticalTextPosition="bottom" visible="true" width="50.0" x="0.0" xml:space="preserve" y="0.0">2</y:NodeLabel>
              <y:Shape type="roundrectangle"/>
              <y:State closed="true" closedHeight="50.0" closedWidth="50.0" innerGraphDisplayEnabled="false"/>
              <y:Insets bottom="15" bottomF="15.0" left="15" leftF="15.0" right="15" rightF="15.0" top="15" topF="15.0"/>
              <y:BorderInsets bottom="0" bottomF="0.0" left="0" leftF="0.0" right="0" rightF="0.0" top="0" topF="0.0"/>
            </y:GroupNode>
          </y:Realizers>
        </y:ProxyAutoBoundsNode>
      </data>
      <graph edgedefault="directed" id="n0:">
        <node id="n0::n0">
          <data key="d6">
            <y:GenericNode configuration="com.yworks.entityRelationship.big_entity">
              <y:Geometry height="122.47169811320754" width="154.75905511811027" x="-2.379527559055134" y="263.7641509433962"/>
              <y:Fill color="#E8EEF7" color2="#B7C9E3" transparent="false"/>
              <y:BorderStyle color="#000000" type="line" width="1.0"/>
              <y:NodeLabel alignment="center" autoSizePolicy="content" backgroundColor="#B7C9E3" configuration="com.yworks.entityRelationship.label.name" fontFamily="Dialog" fontSize="12" fontStyle="plain" hasLineColor="false" height="17.96875" horizontalTextPosition="center" iconTextGap="4" modelName="internal" modelPosition="t" textColor="#000000" verticalTextPosition="bottom" visible="true" width="74.564453125" x="40.097300996555134" xml:space="preserve" y="4.0">Interviewee</y:NodeLabel>
              <y:NodeLabel alignment="left" autoSizePolicy="content" configuration="com.yworks.entityRelationship.label.attributes" fontFamily="Dialog" fontSize="12" fontStyle="plain" hasBackgroundColor="false" hasLineColor="false" height="94.0" horizontalTextPosition="center" iconTextGap="4" modelName="custom" textColor="#000000" verticalTextPosition="top" visible="true" width="150.0" x="2.0" xml:space="preserve" y="29.96875">&lt;html&gt;&lt;ul style="margin:0"&gt;
&lt;li&gt;&lt;b&gt;id:&lt;/b&gt; &lt;i&gt;ID&lt;/i&gt;&lt;/li&gt;
&lt;li&gt;&lt;b&gt;created:&lt;/b&gt; &lt;i&gt;DateTime&lt;/i&gt;&lt;/li&gt;
&lt;li&gt;&lt;b&gt;modified:&lt;/b&gt; &lt;i&gt;DateTime&lt;/i&gt;&lt;/li&gt;
&lt;li&gt;&lt;b&gt;deleted:&lt;/b&gt; &lt;i&gt;Bool&lt;/i&gt;&lt;/li&gt;
&lt;li&gt;&lt;b&gt;role database:&lt;/b&gt; &lt;i&gt;String&lt;/i&gt;&lt;/li&gt;
&lt;li&gt;&lt;b&gt;role:&lt;/b&gt; &lt;i&gt;String&lt;/i&gt;&lt;/li&gt;
&lt;/ul&gt;&lt;/html&gt;<y:LabelModel><y:ErdAttributesNodeLabelModel/></y:LabelModel><y:ModelParameter><y:ErdAttributesNodeLabelModelParameter/></y:ModelParameter></y:NodeLabel>
              <y:StyleProperties>
                <y:Property class="java.lang.Boolean" name="y.view.ShadowNodePainter.SHADOW_PAINTING" value="true"/>
              </y:StyleProperties>
            </y:GenericNode>
          </data>
        </node>
        <node id="n0::n1">
          <data key="d6">
            <y:GenericNode configuration="com.yworks.entityRelationship.big_entity">
              <y:Geometry height="156.0" width="141.87952755905508" x="4.060236220472461" y="47.0"/>
              <y:Fill color="#E8EEF7" color2="#B7C9E3" transparent="false"/>
              <y:BorderStyle color="#000000" type="line" width="1.0"/>
              <y:NodeLabel alignment="center" autoSizePolicy="content" backgroundColor="#B7C9E3" configuration="com.yworks.entityRelationship.label.name" fontFamily="Dialog" fontSize="12" fontStyle="plain" hasLineColor="false" height="17.96875" horizontalTextPosition="center" iconTextGap="4" modelName="internal" modelPosition="t" textColor="#000000" verticalTextPosition="bottom" visible="true" width="24.953125" x="58.46320127952754" xml:space="preserve" y="4.0">File</y:NodeLabel>
              <y:NodeLabel alignment="left" autoSizePolicy="content" configuration="com.yworks.entityRelationship.label.attributes" fontFamily="Dialog" fontSize="12" fontStyle="plain" hasBackgroundColor="false" hasLineColor="false" height="124.0" horizontalTextPosition="center" iconTextGap="4" modelName="custom" textColor="#000000" verticalTextPosition="top" visible="true" width="133.0" x="2.0" xml:space="preserve" y="29.96875">&lt;html&gt;&lt;ul style="margin:0"&gt;
&lt;li&gt;&lt;b&gt;id:&lt;/b&gt; &lt;i&gt;ID&lt;/i&gt;&lt;/li&gt;
&lt;li&gt;&lt;b&gt;created:&lt;/b&gt; &lt;i&gt;DateTime&lt;/i&gt;&lt;/li&gt;
&lt;li&gt;&lt;b&gt;modified:&lt;/b&gt; &lt;i&gt;DateTime&lt;/i&gt;&lt;/li&gt;
&lt;li&gt;&lt;b&gt;deleted:&lt;/b&gt; &lt;i&gt;Bool&lt;/i&gt;&lt;/li&gt;
&lt;li&gt;&lt;b&gt;name:&lt;/b&gt; &lt;i&gt;String&lt;/i&gt;&lt;/li&gt;
&lt;li&gt;&lt;b&gt;kind:&lt;/b&gt; &lt;i&gt;String&lt;/i&gt;&lt;/li&gt;
&lt;li&gt;&lt;b&gt;path:&lt;/b&gt; &lt;i&gt;String&lt;/i&gt;&lt;/li&gt;
&lt;li&gt;&lt;b&gt;storage key:&lt;/b&gt; &lt;i&gt;Key&lt;/i&gt;&lt;/li&gt;
&lt;/ul&gt;&lt;/html&gt;<y:LabelModel><y:ErdAttributesNodeLabelModel/></y:LabelModel><y:ModelParameter><y:ErdAttributesNodeLabelModelParameter/></y:ModelParameter></y:NodeLabel>
              <y:StyleProperties>
                <y:Property class="java.lang.Boolean" name="y.view.ShadowNodePainter.SHADOW_PAINTING" value="true"/>
              </y:StyleProperties>
            </y:GenericNode>
          </data>
        </node>
        <node id="n0::n2">
          <data key="d6">
            <y:GenericNode configuration="com.yworks.entityRelationship.big_entity">
              <y:Geometry height="79.45492662473794" width="141.87952755905508" x="329.06023622047246" y="-14.727463312368968"/>
              <y:Fill color="#E8EEF7" color2="#B7C9E3" transparent="false"/>
              <y:BorderStyle color="#000000" type="line" width="1.0"/>
              <y:NodeLabel alignment="center" autoSizePolicy="content" backgroundColor="#B7C9E3" configuration="com.yworks.entityRelationship.label.name" fontFamily="Dialog" fontSize="12" fontStyle="plain" hasLineColor="false" height="17.96875" horizontalTextPosition="center" iconTextGap="4" modelName="internal" modelPosition="t" textColor="#000000" verticalTextPosition="bottom" visible="true" width="103.703125" x="19.08820127952754" xml:space="preserve" y="4.0">Attribute History</y:NodeLabel>
              <y:NodeLabel alignment="left" autoSizePolicy="content" configuration="com.yworks.entityRelationship.label.attributes" fontFamily="Dialog" fontSize="12" fontStyle="plain" hasBackgroundColor="false" hasLineColor="false" height="49.0" horizontalTextPosition="center" iconTextGap="4" modelName="custom" textColor="#000000" verticalTextPosition="top" visible="true" width="133.0" x="2.0" xml:space="preserve" y="29.96875">&lt;html&gt;&lt;ul style="margin:0"&gt;
&lt;li&gt;&lt;b&gt;id:&lt;/b&gt; &lt;i&gt;ID&lt;/i&gt;&lt;/li&gt;
&lt;li&gt;&lt;b&gt;changed:&lt;/b&gt; &lt;i&gt;DateTime&lt;/i&gt;&lt;/li&gt;
&lt;li&gt;&lt;b&gt;old value:&lt;/b&gt; &lt;i&gt;any&lt;/i&gt;&lt;/li&gt;
&lt;/ul&gt;&lt;/html&gt;<y:LabelModel><y:ErdAttributesNodeLabelModel/></y:LabelModel><y:ModelParameter><y:ErdAttributesNodeLabelModelParameter/></y:ModelParameter></y:NodeLabel>
              <y:StyleProperties>
                <y:Property class="java.lang.Boolean" name="y.view.ShadowNodePainter.SHADOW_PAINTING" value="true"/>
              </y:StyleProperties>
            </y:GenericNode>
          </data>
        </node>
        <node id="n0::n3">
          <data key="d6">
            <y:GenericNode configuration="com.yworks.entityRelationship.big_entity">
              <y:Geometry height="94.0" width="141.87952755905508" x="329.06023622047246" y="153.0"/>
              <y:Fill color="#E8EEF7" color2="#B7C9E3" transparent="false"/>
              <y:BorderStyle color="#000000" type="line" width="1.0"/>
              <y:NodeLabel alignment="center" autoSizePolicy="content" backgroundColor="#B7C9E3" configuration="com.yworks.entityRelationship.label.name" fontFamily="Dialog" fontSize="12" fontStyle="plain" hasLineColor="false" height="17.96875" horizontalTextPosition="center" iconTextGap="4" modelName="internal" modelPosition="t" textColor="#000000" verticalTextPosition="bottom" visible="true" width="71.458984375" x="35.21027159202754" xml:space="preserve" y="4.0">File History</y:NodeLabel>
              <y:NodeLabel alignment="left" autoSizePolicy="content" configuration="com.yworks.entityRelationship.label.attributes" fontFamily="Dialog" fontSize="12" fontStyle="plain" hasBackgroundColor="false" hasLineColor="false" height="64.0" horizontalTextPosition="center" iconTextGap="4" modelName="custom" textColor="#000000" verticalTextPosition="top" visible="true" width="133.0" x="2.0" xml:space="preserve" y="29.96875">&lt;html&gt;&lt;ul style="margin:0"&gt;
&lt;li&gt;&lt;b&gt;id:&lt;/b&gt; &lt;i&gt;ID&lt;/i&gt;&lt;/li&gt;
&lt;li&gt;&lt;b&gt;changed:&lt;/b&gt; &lt;i&gt;DateTime&lt;/i&gt;&lt;/li&gt;
&lt;li&gt;&lt;b&gt;path&lt;/b&gt; &lt;i&gt;String&lt;/i&gt;&lt;/li&gt;
&lt;li&gt;&lt;b&gt;storage key&lt;/b&gt; &lt;i&gt;Key&lt;/i&gt;&lt;/li&gt;
&lt;/ul&gt;&lt;/html&gt;<y:LabelModel><y:ErdAttributesNodeLabelModel/></y:LabelModel><y:ModelParameter><y:ErdAttributesNodeLabelModelParameter/></y:ModelParameter></y:NodeLabel>
              <y:StyleProperties>
                <y:Property class="java.lang.Boolean" name="y.view.ShadowNodePainter.SHADOW_PAINTING" value="true"/>
              </y:StyleProperties>
            </y:GenericNode>
          </data>
        </node>
        <node id="n0::n4">
          <data key="d5"/>
          <data key="d6">
            <y:GenericNode configuration="com.yworks.entityRelationship.big_entity">
              <y:Geometry height="129.01677148846954" width="141.87952755905508" x="4.060236220472461" y="460.4916142557652"/>
              <y:Fill color="#E8EEF7" color2="#B7C9E3" transparent="false"/>
              <y:BorderStyle color="#000000" type="line" width="1.0"/>
              <y:NodeLabel alignment="center" autoSizePolicy="content" backgroundColor="#B7C9E3" configuration="com.yworks.entityRelationship.label.name" fontFamily="Dialog" fontSize="12" fontStyle="plain" hasLineColor="false" height="17.96875" horizontalTextPosition="center" iconTextGap="4" modelName="internal" modelPosition="t" textColor="#000000" verticalTextPosition="bottom" visible="true" width="57.197265625" x="42.34113096702754" xml:space="preserve" y="4.0">Attribute</y:NodeLabel>
              <y:NodeLabel alignment="left" autoSizePolicy="content" configuration="com.yworks.entityRelationship.label.attributes" fontFamily="Dialog" fontSize="12" fontStyle="plain" hasBackgroundColor="false" hasLineColor="false" height="94.0" horizontalTextPosition="center" iconTextGap="4" modelName="custom" textColor="#000000" verticalTextPosition="top" visible="true" width="133.0" x="2.0" xml:space="preserve" y="29.96875">&lt;html&gt;&lt;ul style="margin:0"&gt;
&lt;li&gt;&lt;b&gt;id:&lt;/b&gt; &lt;i&gt;ID&lt;/i&gt;&lt;/li&gt;
&lt;li&gt;&lt;b&gt;created:&lt;/b&gt; &lt;i&gt;DateTime&lt;/i&gt;&lt;/li&gt;
&lt;li&gt;&lt;b&gt;modified:&lt;/b&gt; &lt;i&gt;DateTime&lt;/i&gt;&lt;/li&gt;
&lt;li&gt;&lt;b&gt;deleted:&lt;/b&gt; &lt;i&gt;Bool&lt;/i&gt;&lt;/li&gt;
&lt;li&gt;&lt;b&gt;key:&lt;/b&gt; &lt;i&gt;String&lt;/i&gt;&lt;/li&gt;
&lt;li&gt;&lt;b&gt;value:&lt;/b&gt; &lt;i&gt;any&lt;/i&gt;&lt;/li&gt;
&lt;/ul&gt;&lt;/html&gt;<y:LabelModel><y:ErdAttributesNodeLabelModel/></y:LabelModel><y:ModelParameter><y:ErdAttributesNodeLabelModelParameter/></y:ModelParameter></y:NodeLabel>
              <y:StyleProperties>
                <y:Property class="java.lang.Boolean" name="y.view.ShadowNodePainter.SHADOW_PAINTING" value="true"/>
              </y:StyleProperties>
            </y:GenericNode>
          </data>
        </node>
        <edge id="n0::e0" source="n0::n0" target="n0::n0">
          <data key="d9"/>
          <data key="d10">
            <y:PolyLineEdge>
              <y:Path sx="25.0" sy="61.23584905660377" tx="77.37952755905513" ty="-0.0">
                <y:Point x="100.0" y="425.0"/>
                <y:Point x="200.0" y="425.0"/>
                <y:Point x="200.0" y="325.0"/>
              </y:Path>
              <y:LineStyle color="#000000" type="line" width="1.0"/>
              <y:Arrows source="crows_foot_many_optional" target="crows_foot_many_optional"/>
              <y:EdgeLabel alignment="center" configuration="AutoFlippingLabel" distance="2.0" fontFamily="Dialog" fontSize="12" fontStyle="plain" hasBackgroundColor="false" hasLineColor="false" height="17.96875" horizontalTextPosition="center" iconTextGap="4" modelName="custom" preferredPlacement="anywhere" ratio="0.5" textColor="#000000" verticalTextPosition="bottom" visible="true" width="74.798828125" x="12.6005859375" xml:space="preserve" y="-0.22021484375">relationship<y:LabelModel><y:SmartEdgeLabelModel autoRotationEnabled="false" defaultAngle="0.0" defaultDistance="10.0"/></y:LabelModel><y:ModelParameter><y:SmartEdgeLabelModelParameter angle="0.0" distance="30.0" distanceToCenter="true" position="left" ratio="0.5" segment="1"/></y:ModelParameter><y:PreferredPlacementDescriptor angle="0.0" angleOffsetOnRightSide="0" angleReference="absolute" angleRotationOnRightSide="co" distance="-1.0" frozen="true" placement="anywhere" side="anywhere" sideReference="relative_to_edge_flow"/></y:EdgeLabel>
              <y:BendStyle smoothed="false"/>
            </y:PolyLineEdge>
          </data>
        </edge>
        <edge id="n0::e1" source="n0::n1" target="n0::n1">
          <data key="d10">
            <y:PolyLineEdge>
              <y:Path sx="70.93976377952754" sy="-0.0" tx="0.0" ty="-78.0">
                <y:Point x="175.0" y="125.0"/>
                <y:Point x="175.0" y="0.0"/>
                <y:Point x="75.0" y="0.0"/>
              </y:Path>
              <y:LineStyle color="#000000" type="line" width="1.0"/>
              <y:Arrows source="crows_foot_many_mandatory" target="crows_foot_many_optional"/>
              <y:EdgeLabel alignment="center" configuration="AutoFlippingLabel" distance="2.0" fontFamily="Dialog" fontSize="12" fontStyle="plain" hasBackgroundColor="false" hasLineColor="false" height="17.96875" horizontalTextPosition="center" iconTextGap="4" modelName="custom" preferredPlacement="anywhere" ratio="0.5" textColor="#000000" verticalTextPosition="bottom" visible="true" width="89.001953125" x="14.55926513671875" xml:space="preserve" y="-71.484375">is parent from<y:LabelModel><y:SmartEdgeLabelModel autoRotationEnabled="false" defaultAngle="0.0" defaultDistance="10.0"/></y:LabelModel><y:ModelParameter><y:SmartEdgeLabelModelParameter angle="0.0" distance="30.0" distanceToCenter="true" position="right" ratio="0.5" segment="1"/></y:ModelParameter><y:PreferredPlacementDescriptor angle="0.0" angleOffsetOnRightSide="0" angleReference="absolute" angleRotationOnRightSide="co" distance="-1.0" frozen="true" placement="anywhere" side="anywhere" sideReference="relative_to_edge_flow"/></y:EdgeLabel>
              <y:BendStyle smoothed="false"/>
            </y:PolyLineEdge>
          </data>
        </edge>
        <edge id="n0::e2" source="n0::n1" target="n0::n0">
          <data key="d10">
            <y:PolyLineEdge>
              <y:Path sx="0.0" sy="78.0" tx="0.0" ty="-61.2358490566038"/>
              <y:LineStyle color="#000000" type="line" width="1.0"/>
              <y:Arrows source="crows_foot_many_optional" target="crows_foot_many_mandatory"/>
              <y:BendStyle smoothed="false"/>
            </y:PolyLineEdge>
          </data>
        </edge>
        <edge id="n0::e3" source="n0::n4" target="n0::n0">
          <data key="d9"/>
          <data key="d10">
            <y:PolyLineEdge>
              <y:Path sx="0.0" sy="-64.50838574423477" tx="0.0" ty="61.23584905660377"/>
              <y:LineStyle color="#000000" type="line" width="1.0"/>
              <y:Arrows source="crows_foot_many_optional" target="crows_foot_one_mandatory"/>
              <y:BendStyle smoothed="false"/>
            </y:PolyLineEdge>
          </data>
        </edge>
      </graph>
    </node>
    <node id="n1" yfiles.foldertype="group">
      <data key="d4" xml:space="preserve"/>
      <data key="d5"/>
      <data key="d6">
        <y:ProxyAutoBoundsNode>
          <y:Realizers active="0">
            <y:GroupNode>
              <y:Geometry height="537.0005568400353" width="402.40851377952754" x="-367.84055118110314" y="98.3007874015749"/>
              <y:Fill color="#CAECFF84" transparent="false"/>
              <y:BorderStyle color="#666699" type="dotted" width="1.0"/>
              <y:NodeLabel alignment="right" autoSizePolicy="node_width" backgroundColor="#99CCFF" borderDistance="0.0" fontFamily="Dialog" fontSize="15" fontStyle="plain" hasLineColor="false" height="21.4609375" horizontalTextPosition="center" iconTextGap="4" modelName="internal" modelPosition="t" textColor="#000000" verticalTextPosition="bottom" visible="true" width="402.40851377952754" x="0.0" xml:space="preserve" y="0.0">Pseudonym Database</y:NodeLabel>
              <y:Shape type="roundrectangle"/>
              <y:State closed="false" closedHeight="50.0" closedWidth="50.0" innerGraphDisplayEnabled="false"/>
              <y:Insets bottom="15" bottomF="15.0" left="15" leftF="15.0" right="15" rightF="15.0" top="15" topF="15.0"/>
              <y:BorderInsets bottom="0" bottomF="0.0" left="4" leftF="4.089222440944866" right="0" rightF="0.0" top="0" topF="0.0"/>
            </y:GroupNode>
            <y:GroupNode>
              <y:Geometry height="50.0" width="50.0" x="-367.8405511811031" y="98.3007874015749"/>
              <y:Fill color="#CAECFF84" transparent="false"/>
              <y:BorderStyle color="#666699" type="dotted" width="1.0"/>
              <y:NodeLabel alignment="right" autoSizePolicy="node_width" backgroundColor="#99CCFF" borderDistance="0.0" fontFamily="Dialog" fontSize="15" fontStyle="plain" hasLineColor="false" height="21.4609375" horizontalTextPosition="center" iconTextGap="4" modelName="internal" modelPosition="t" textColor="#000000" verticalTextPosition="bottom" visible="true" width="50.0" x="0.0" xml:space="preserve" y="0.0">2</y:NodeLabel>
              <y:Shape type="roundrectangle"/>
              <y:State closed="true" closedHeight="50.0" closedWidth="50.0" innerGraphDisplayEnabled="false"/>
              <y:Insets bottom="15" bottomF="15.0" left="15" leftF="15.0" right="15" rightF="15.0" top="15" topF="15.0"/>
              <y:BorderInsets bottom="0" bottomF="0.0" left="0" leftF="0.0" right="0" rightF="0.0" top="0" topF="0.0"/>
            </y:GroupNode>
          </y:Realizers>
        </y:ProxyAutoBoundsNode>
      </data>
      <graph edgedefault="directed" id="n1:">
        <node id="n1::n0">
          <data key="d6">
            <y:GenericNode configuration="com.yworks.entityRelationship.big_entity">
              <y:Geometry height="142.06246719160106" width="141.87952755905513" x="-347.3115649606307" y="134.7617249015749"/>
              <y:Fill color="#E8EEF7" color2="#B7C9E3" transparent="false"/>
              <y:BorderStyle color="#000000" type="line" width="1.0"/>
              <y:NodeLabel alignment="center" autoSizePolicy="content" backgroundColor="#B7C9E3" configuration="com.yworks.entityRelationship.label.name" fontFamily="Dialog" fontSize="12" fontStyle="plain" hasLineColor="false" height="17.96875" horizontalTextPosition="center" iconTextGap="4" modelName="internal" modelPosition="t" textColor="#000000" verticalTextPosition="bottom" visible="true" width="59.798828125" x="41.04034971702757" xml:space="preserve" y="4.0">Interview</y:NodeLabel>
              <y:NodeLabel alignment="left" autoSizePolicy="content" configuration="com.yworks.entityRelationship.label.attributes" fontFamily="Dialog" fontSize="12" fontStyle="plain" hasBackgroundColor="false" hasLineColor="false" height="109.0" horizontalTextPosition="center" iconTextGap="4" modelName="custom" textColor="#000000" verticalTextPosition="top" visible="true" width="133.0" x="2.0" xml:space="preserve" y="29.96875">&lt;html&gt;&lt;ul style="margin:0"&gt;
&lt;li&gt;&lt;b&gt;id:&lt;/b&gt; &lt;i&gt;ID&lt;/i&gt;&lt;/li&gt;
&lt;li&gt;&lt;b&gt;created:&lt;/b&gt; &lt;i&gt;DateTime&lt;/i&gt;&lt;/li&gt;
&lt;li&gt;&lt;b&gt;modified:&lt;/b&gt; &lt;i&gt;DateTime&lt;/i&gt;&lt;/li&gt;
&lt;li&gt;&lt;b&gt;deleted:&lt;/b&gt; &lt;i&gt;Bool&lt;/i&gt;&lt;/li&gt;
&lt;li&gt;&lt;b&gt;time:&lt;/b&gt; &lt;i&gt;DateTime&lt;/i&gt;&lt;/li&gt;
&lt;li&gt;&lt;b&gt;location:&lt;/b&gt; &lt;i&gt;String&lt;/i&gt;&lt;/li&gt;
&lt;li&gt;&lt;b&gt;interviewer:&lt;/b&gt; &lt;i&gt;String&lt;/i&gt;&lt;/li&gt;
&lt;/ul&gt;&lt;/html&gt;<y:LabelModel><y:ErdAttributesNodeLabelModel/></y:LabelModel><y:ModelParameter><y:ErdAttributesNodeLabelModelParameter/></y:ModelParameter></y:NodeLabel>
              <y:StyleProperties>
                <y:Property class="java.lang.Boolean" name="y.view.ShadowNodePainter.SHADOW_PAINTING" value="true"/>
              </y:StyleProperties>
            </y:GenericNode>
          </data>
        </node>
        <node id="n1::n1">
          <data key="d6">
            <y:GenericNode configuration="com.yworks.entityRelationship.big_entity">
              <y:Geometry height="129.0929133858267" width="144.75905511811027" x="-348.75132874015827" y="316.24650180446207"/>
              <y:Fill color="#E8EEF7" color2="#B7C9E3" transparent="false"/>
              <y:BorderStyle color="#000000" type="line" width="1.0"/>
              <y:NodeLabel alignment="center" autoSizePolicy="content" backgroundColor="#B7C9E3" configuration="com.yworks.entityRelationship.label.name" fontFamily="Dialog" fontSize="12" fontStyle="plain" hasLineColor="false" height="17.96875" horizontalTextPosition="center" iconTextGap="4" modelName="internal" modelPosition="t" textColor="#000000" verticalTextPosition="bottom" visible="true" width="74.564453125" x="35.097300996555134" xml:space="preserve" y="4.0">Interviewee</y:NodeLabel>
              <y:NodeLabel alignment="left" autoSizePolicy="content" configuration="com.yworks.entityRelationship.label.attributes" fontFamily="Dialog" fontSize="12" fontStyle="plain" hasBackgroundColor="false" hasLineColor="false" height="94.0" horizontalTextPosition="center" iconTextGap="4" modelName="custom" textColor="#000000" verticalTextPosition="top" visible="true" width="133.0" x="2.0" xml:space="preserve" y="29.96875">&lt;html&gt;&lt;ul style="margin:0"&gt;
&lt;li&gt;&lt;b&gt;id:&lt;/b&gt; &lt;i&gt;ID&lt;/i&gt;&lt;/li&gt;
&lt;li&gt;&lt;b&gt;created:&lt;/b&gt; &lt;i&gt;DateTime&lt;/i&gt;&lt;/li&gt;
&lt;li&gt;&lt;b&gt;modified:&lt;/b&gt; &lt;i&gt;DateTime&lt;/i&gt;&lt;/li&gt;
&lt;li&gt;&lt;b&gt;deleted:&lt;/b&gt; &lt;i&gt;Bool&lt;/i&gt;&lt;/li&gt;
&lt;li&gt;&lt;b&gt;name:&lt;/b&gt; &lt;i&gt;String&lt;/i&gt;&lt;/li&gt;
&lt;li&gt;&lt;b&gt;contact:&lt;/b&gt; &lt;i&gt;String&lt;/i&gt;&lt;/li&gt;
&lt;/ul&gt;&lt;/html&gt;<y:LabelModel><y:ErdAttributesNodeLabelModel/></y:LabelModel><y:ModelParameter><y:ErdAttributesNodeLabelModelParameter/></y:ModelParameter></y:NodeLabel>
              <y:StyleProperties>
                <y:Property class="java.lang.Boolean" name="y.view.ShadowNodePainter.SHADOW_PAINTING" value="true"/>
              </y:StyleProperties>
            </y:GenericNode>
          </data>
        </node>
        <node id="n1::n2">
          <data key="d5"/>
          <data key="d6">
            <y:GenericNode configuration="com.yworks.entityRelationship.big_entity">
              <y:Geometry height="129.01677148846954" width="141.87952755905508" x="-347.3115649606307" y="491.2845727531407"/>
              <y:Fill color="#E8EEF7" color2="#B7C9E3" transparent="false"/>
              <y:BorderStyle color="#000000" type="line" width="1.0"/>
              <y:NodeLabel alignment="center" autoSizePolicy="content" backgroundColor="#B7C9E3" configuration="com.yworks.entityRelationship.label.name" fontFamily="Dialog" fontSize="12" fontStyle="plain" hasLineColor="false" height="17.96875" horizontalTextPosition="center" iconTextGap="4" modelName="internal" modelPosition="t" textColor="#000000" verticalTextPosition="bottom" visible="true" width="57.197265625" x="42.34113096702754" xml:space="preserve" y="4.0">Attribute</y:NodeLabel>
              <y:NodeLabel alignment="left" autoSizePolicy="content" configuration="com.yworks.entityRelationship.label.attributes" fontFamily="Dialog" fontSize="12" fontStyle="plain" hasBackgroundColor="false" hasLineColor="false" height="94.0" horizontalTextPosition="center" iconTextGap="4" modelName="custom" textColor="#000000" verticalTextPosition="top" visible="true" width="133.0" x="2.0" xml:space="preserve" y="29.968750000000057">&lt;html&gt;&lt;ul style="margin:0"&gt;
&lt;li&gt;&lt;b&gt;id:&lt;/b&gt; &lt;i&gt;ID&lt;/i&gt;&lt;/li&gt;
&lt;li&gt;&lt;b&gt;created:&lt;/b&gt; &lt;i&gt;DateTime&lt;/i&gt;&lt;/li&gt;
&lt;li&gt;&lt;b&gt;modified:&lt;/b&gt; &lt;i&gt;DateTime&lt;/i&gt;&lt;/li&gt;
&lt;li&gt;&lt;b&gt;deleted:&lt;/b&gt; &lt;i&gt;Bool&lt;/i&gt;&lt;/li&gt;
&lt;li&gt;&lt;b&gt;key:&lt;/b&gt; &lt;i&gt;String&lt;/i&gt;&lt;/li&gt;
&lt;li&gt;&lt;b&gt;value:&lt;/b&gt; &lt;i&gt;any&lt;/i&gt;&lt;/li&gt;
&lt;/ul&gt;&lt;/html&gt;<y:LabelModel><y:ErdAttributesNodeLabelModel/></y:LabelModel><y:ModelParameter><y:ErdAttributesNodeLabelModelParameter/></y:ModelParameter></y:NodeLabel>
              <y:StyleProperties>
                <y:Property class="java.lang.Boolean" name="y.view.ShadowNodePainter.SHADOW_PAINTING" value="true"/>
              </y:StyleProperties>
            </y:GenericNode>
          </data>
        </node>
        <node id="n1::n3">
          <data key="d6">
            <y:GenericNode configuration="com.yworks.entityRelationship.big_entity">
              <y:Geometry height="79.45492662473794" width="141.87952755905508" x="-122.31156496063068" y="141.06549518500645"/>
              <y:Fill color="#E8EEF7" color2="#B7C9E3" transparent="false"/>
              <y:BorderStyle color="#000000" type="line" width="1.0"/>
              <y:NodeLabel alignment="center" autoSizePolicy="content" backgroundColor="#B7C9E3" configuration="com.yworks.entityRelationship.label.name" fontFamily="Dialog" fontSize="12" fontStyle="plain" hasLineColor="false" height="17.96875" horizontalTextPosition="center" iconTextGap="4" modelName="internal" modelPosition="t" textColor="#000000" verticalTextPosition="bottom" visible="true" width="103.703125" x="19.08820127952754" xml:space="preserve" y="4.0">Attribute History</y:NodeLabel>
              <y:NodeLabel alignment="left" autoSizePolicy="content" configuration="com.yworks.entityRelationship.label.attributes" fontFamily="Dialog" fontSize="12" fontStyle="plain" hasBackgroundColor="false" hasLineColor="false" height="49.0" horizontalTextPosition="center" iconTextGap="4" modelName="custom" textColor="#000000" verticalTextPosition="top" visible="true" width="133.0" x="2.0" xml:space="preserve" y="29.96875">&lt;html&gt;&lt;ul style="margin:0"&gt;
&lt;li&gt;&lt;b&gt;id:&lt;/b&gt; &lt;i&gt;ID&lt;/i&gt;&lt;/li&gt;
&lt;li&gt;&lt;b&gt;changed:&lt;/b&gt; &lt;i&gt;DateTime&lt;/i&gt;&lt;/li&gt;
&lt;li&gt;&lt;b&gt;old value:&lt;/b&gt; &lt;i&gt;any&lt;/i&gt;&lt;/li&gt;
&lt;/ul&gt;&lt;/html&gt;<y:LabelModel><y:ErdAttributesNodeLabelModel/></y:LabelModel><y:ModelParameter><y:ErdAttributesNodeLabelModelParameter/></y:ModelParameter></y:NodeLabel>
              <y:StyleProperties>
                <y:Property class="java.lang.Boolean" name="y.view.ShadowNodePainter.SHADOW_PAINTING" value="true"/>
              </y:StyleProperties>
            </y:GenericNode>
          </data>
        </node>
      </graph>
    </node>
    <node id="n2" yfiles.foldertype="group">
      <data key="d4" xml:space="preserve"/>
      <data key="d5"/>
      <data key="d6">
        <y:ProxyAutoBoundsNode>
          <y:Realizers active="0">
            <y:GroupNode>
              <y:Geometry height="161.4609375" width="195.0" x="-1106.1598425196858" y="98.3007874015749"/>
              <y:Fill color="#CAECFF84" transparent="false"/>
              <y:BorderStyle color="#666699" type="dotted" width="1.0"/>
              <y:NodeLabel alignment="right" autoSizePolicy="node_width" backgroundColor="#99CCFF" borderDistance="0.0" fontFamily="Dialog" fontSize="15" fontStyle="plain" hasLineColor="false" height="21.4609375" horizontalTextPosition="center" iconTextGap="4" modelName="internal" modelPosition="t" textColor="#000000" verticalTextPosition="bottom" visible="true" width="195.0" x="0.0" xml:space="preserve" y="0.0">Encryption Database</y:NodeLabel>
              <y:Shape type="roundrectangle"/>
              <y:State closed="false" closedHeight="50.0" closedWidth="50.0" innerGraphDisplayEnabled="false"/>
              <y:Insets bottom="15" bottomF="15.0" left="15" leftF="15.0" right="15" rightF="15.0" top="15" topF="15.0"/>
              <y:BorderInsets bottom="0" bottomF="0.0" left="0" leftF="0.0" right="0" rightF="0.0" top="0" topF="0.0"/>
            </y:GroupNode>
            <y:GroupNode>
              <y:Geometry height="50.0" width="50.0" x="-1431.375" y="238.76172490157492"/>
              <y:Fill color="#CAECFF84" transparent="false"/>
              <y:BorderStyle color="#666699" type="dotted" width="1.0"/>
              <y:NodeLabel alignment="right" autoSizePolicy="node_width" backgroundColor="#99CCFF" borderDistance="0.0" fontFamily="Dialog" fontSize="15" fontStyle="plain" hasLineColor="false" height="21.4609375" horizontalTextPosition="center" iconTextGap="4" modelName="internal" modelPosition="t" textColor="#000000" verticalTextPosition="bottom" visible="true" width="50.0" x="0.0" xml:space="preserve" y="-2.8421709430404007E-14">2</y:NodeLabel>
              <y:Shape type="roundrectangle"/>
              <y:State closed="true" closedHeight="50.0" closedWidth="50.0" innerGraphDisplayEnabled="false"/>
              <y:Insets bottom="15" bottomF="15.0" left="15" leftF="15.0" right="15" rightF="15.0" top="15" topF="15.0"/>
              <y:BorderInsets bottom="0" bottomF="0.0" left="0" leftF="0.0" right="0" rightF="0.0" top="0" topF="0.0"/>
            </y:GroupNode>
          </y:Realizers>
        </y:ProxyAutoBoundsNode>
      </data>
      <graph edgedefault="directed" id="n2:">
        <node id="n2::n0">
          <data key="d5"/>
          <data key="d6">
            <y:GenericNode configuration="com.yworks.entityRelationship.big_entity">
              <y:Geometry height="110.0" width="165.0" x="-1091.1598425196858" y="134.7617249015749"/>
              <y:Fill color="#E8EEF7" color2="#B7C9E3" transparent="false"/>
              <y:BorderStyle color="#000000" type="line" width="1.0"/>
              <y:NodeLabel alignment="center" autoSizePolicy="content" backgroundColor="#B7C9E3" configuration="com.yworks.entityRelationship.label.name" fontFamily="Dialog" fontSize="12" fontStyle="plain" hasLineColor="false" height="17.96875" horizontalTextPosition="center" iconTextGap="4" modelName="internal" modelPosition="t" textColor="#000000" verticalTextPosition="bottom" visible="true" width="61.2578125" x="51.87109375" xml:space="preserve" y="4.0">Database</y:NodeLabel>
              <y:NodeLabel alignment="left" autoSizePolicy="content" configuration="com.yworks.entityRelationship.label.attributes" fontFamily="Dialog" fontSize="12" fontStyle="plain" hasBackgroundColor="false" hasLineColor="false" height="79.0" horizontalTextPosition="center" iconTextGap="4" modelName="custom" textColor="#000000" verticalTextPosition="top" visible="true" width="156.0" x="2.0" xml:space="preserve" y="29.96875">&lt;html&gt;&lt;ul style="margin:0"&gt;
&lt;li&gt;&lt;b&gt;user:&lt;/b&gt; &lt;i&gt;String&lt;/i&gt;&lt;/li&gt;
&lt;li&gt;&lt;b&gt;database:&lt;/b&gt; &lt;i&gt;String&lt;/i&gt;&lt;/li&gt;
&lt;li&gt;&lt;b&gt;password hash:&lt;/b&gt; &lt;i&gt;Bytes&lt;/i&gt;&lt;/li&gt;
&lt;li&gt;&lt;b&gt;2fa hash:&lt;/b&gt; &lt;i&gt;Bytes&lt;/i&gt;&lt;/li&gt;
&lt;li&gt;&lt;b&gt;encrypted key:&lt;/b&gt; &lt;i&gt;Bytes&lt;/i&gt;&lt;/li&gt;
&lt;/ul&gt;&lt;/html&gt;<y:LabelModel><y:ErdAttributesNodeLabelModel/></y:LabelModel><y:ModelParameter><y:ErdAttributesNodeLabelModelParameter/></y:ModelParameter></y:NodeLabel>
              <y:StyleProperties>
                <y:Property class="java.lang.Boolean" name="y.view.ShadowNodePainter.SHADOW_PAINTING" value="true"/>
              </y:StyleProperties>
            </y:GenericNode>
          </data>
        </node>
      </graph>
    </node>
    <node id="n3" yfiles.foldertype="group">
      <data key="d4" xml:space="preserve"/>
      <data key="d5"/>
      <data key="d6">
        <y:ProxyAutoBoundsNode>
          <y:Realizers active="0">
            <y:GroupNode>
              <y:Geometry height="317.9609375" width="203.0" x="64.5679625984244" y="98.3007874015749"/>
              <y:Fill color="#CAECFF84" transparent="false"/>
              <y:BorderStyle color="#666699" type="dotted" width="1.0"/>
              <y:NodeLabel alignment="right" autoSizePolicy="node_width" backgroundColor="#99CCFF" borderDistance="0.0" fontFamily="Dialog" fontSize="15" fontStyle="plain" hasLineColor="false" height="21.4609375" horizontalTextPosition="center" iconTextGap="4" modelName="internal" modelPosition="t" textColor="#000000" verticalTextPosition="bottom" visible="true" width="203.0" x="0.0" xml:space="preserve" y="0.0">Schema Database</y:NodeLabel>
              <y:Shape type="roundrectangle"/>
              <y:State closed="false" closedHeight="50.0" closedWidth="50.0" innerGraphDisplayEnabled="false"/>
              <y:Insets bottom="15" bottomF="15.0" left="15" leftF="15.0" right="15" rightF="15.0" top="15" topF="15.0"/>
              <y:BorderInsets bottom="37" bottomF="37.0" left="0" leftF="0.0" right="38" rightF="38.0" top="0" topF="0.0"/>
            </y:GroupNode>
            <y:GroupNode>
              <y:Geometry height="50.0" width="50.0" x="64.5679625984244" y="98.3007874015749"/>
              <y:Fill color="#CAECFF84" transparent="false"/>
              <y:BorderStyle color="#666699" type="dotted" width="1.0"/>
              <y:NodeLabel alignment="right" autoSizePolicy="node_width" backgroundColor="#99CCFF" borderDistance="0.0" fontFamily="Dialog" fontSize="15" fontStyle="plain" hasLineColor="false" height="21.4609375" horizontalTextPosition="center" iconTextGap="4" modelName="internal" modelPosition="t" textColor="#000000" verticalTextPosition="bottom" visible="true" width="50.0" x="0.0" xml:space="preserve" y="0.0">2</y:NodeLabel>
              <y:Shape type="roundrectangle"/>
              <y:State closed="true" closedHeight="50.0" closedWidth="50.0" innerGraphDisplayEnabled="false"/>
              <y:Insets bottom="15" bottomF="15.0" left="15" leftF="15.0" right="15" rightF="15.0" top="15" topF="15.0"/>
              <y:BorderInsets bottom="0" bottomF="0.0" left="0" leftF="0.0" right="0" rightF="0.0" top="0" topF="0.0"/>
            </y:GroupNode>
          </y:Realizers>
        </y:ProxyAutoBoundsNode>
      </data>
      <graph edgedefault="directed" id="n3:">
        <node id="n3::n0">
          <data key="d5"/>
          <data key="d6">
            <y:GenericNode configuration="com.yworks.entityRelationship.big_entity">
              <y:Geometry height="71.0" width="105.0" x="94.5679625984244" y="293.2617249015749"/>
              <y:Fill color="#E8EEF7" color2="#B7C9E3" transparent="false"/>
              <y:BorderStyle color="#000000" type="line" width="1.0"/>
              <y:NodeLabel alignment="center" autoSizePolicy="content" backgroundColor="#B7C9E3" configuration="com.yworks.entityRelationship.label.name" fontFamily="Dialog" fontSize="12" fontStyle="plain" hasLineColor="false" height="17.96875" horizontalTextPosition="center" iconTextGap="4" modelName="internal" modelPosition="t" textColor="#000000" verticalTextPosition="bottom" visible="true" width="30.396484375" x="37.3017578125" xml:space="preserve" y="4.0">Role</y:NodeLabel>
              <y:NodeLabel alignment="left" autoSizePolicy="content" configuration="com.yworks.entityRelationship.label.attributes" fontFamily="Dialog" fontSize="12" fontStyle="plain" hasBackgroundColor="false" hasLineColor="false" height="34.0" horizontalTextPosition="center" iconTextGap="4" modelName="custom" textColor="#000000" verticalTextPosition="top" visible="true" width="100.0" x="2.0" xml:space="preserve" y="29.96875">&lt;html&gt;&lt;ul style="margin:0"&gt;
&lt;li&gt;&lt;b&gt;name:&lt;/b&gt; &lt;i&gt;String&lt;/i&gt;&lt;/li&gt;
&lt;li&gt;&lt;b&gt;abstract:&lt;/b&gt; &lt;i&gt;Bool&lt;/i&gt;&lt;/li&gt;
&lt;/ul&gt;&lt;/html&gt;<y:LabelModel><y:ErdAttributesNodeLabelModel/></y:LabelModel><y:ModelParameter><y:ErdAttributesNodeLabelModelParameter/></y:ModelParameter></y:NodeLabel>
              <y:StyleProperties>
                <y:Property class="java.lang.Boolean" name="y.view.ShadowNodePainter.SHADOW_PAINTING" value="true"/>
              </y:StyleProperties>
            </y:GenericNode>
          </data>
        </node>
        <node id="n3::n1">
          <data key="d5"/>
          <data key="d6">
            <y:GenericNode configuration="com.yworks.entityRelationship.big_entity">
              <y:Geometry height="96.0" width="135.0" x="79.5679625984244" y="134.7617249015749"/>
              <y:Fill color="#E8EEF7" color2="#B7C9E3" transparent="false"/>
              <y:BorderStyle color="#000000" type="line" width="1.0"/>
              <y:NodeLabel alignment="center" autoSizePolicy="content" backgroundColor="#B7C9E3" configuration="com.yworks.entityRelationship.label.name" fontFamily="Dialog" fontSize="12" fontStyle="plain" hasLineColor="false" height="17.96875" horizontalTextPosition="center" iconTextGap="4" modelName="internal" modelPosition="t" textColor="#000000" verticalTextPosition="bottom" visible="true" width="57.197265625" x="38.9013671875" xml:space="preserve" y="4.0">Attribute</y:NodeLabel>
              <y:NodeLabel alignment="left" autoSizePolicy="content" configuration="com.yworks.entityRelationship.label.attributes" fontFamily="Dialog" fontSize="12" fontStyle="plain" hasBackgroundColor="false" hasLineColor="false" height="64.0" horizontalTextPosition="center" iconTextGap="4" modelName="custom" textColor="#000000" verticalTextPosition="top" visible="true" width="124.0" x="2.0" xml:space="preserve" y="29.96875">&lt;html&gt;&lt;ul style="margin:0"&gt;
&lt;li&gt;&lt;b&gt;name:&lt;/b&gt; &lt;i&gt;String&lt;/i&gt;&lt;/li&gt;
&lt;li&gt;&lt;b&gt;value type:&lt;/b&gt; &lt;i&gt;String&lt;/i&gt;&lt;/li&gt;
&lt;li&gt;&lt;b&gt;protected:&lt;/b&gt; &lt;i&gt;Bool&lt;/i&gt;&lt;/li&gt;
&lt;li&gt;&lt;b&gt;history:&lt;/b&gt; &lt;i&gt;Bool&lt;/i&gt;&lt;/li&gt;
&lt;/ul&gt;&lt;/html&gt;<y:LabelModel><y:ErdAttributesNodeLabelModel/></y:LabelModel><y:ModelParameter><y:ErdAttributesNodeLabelModelParameter/></y:ModelParameter></y:NodeLabel>
              <y:StyleProperties>
                <y:Property class="java.lang.Boolean" name="y.view.ShadowNodePainter.SHADOW_PAINTING" value="true"/>
              </y:StyleProperties>
            </y:GenericNode>
          </data>
        </node>
      </graph>
    </node>
    <edge id="n1::e0" source="n1::n0" target="n1::n1">
      <data key="d10">
        <y:PolyLineEdge>
          <y:Path sx="0.0" sy="71.03123359580053" tx="0.0" ty="-64.54645669291335"/>
          <y:LineStyle color="#000000" type="line" width="1.0"/>
          <y:Arrows source="none" target="crows_foot_many_mandatory"/>
          <y:EdgeLabel alignment="center" configuration="AutoFlippingLabel" distance="2.0" fontFamily="Dialog" fontSize="12" fontStyle="plain" hasBackgroundColor="false" hasLineColor="false" height="17.96875" horizontalTextPosition="center" iconTextGap="4" modelName="custom" preferredPlacement="anywhere" ratio="0.5" textColor="#000000" verticalTextPosition="bottom" visible="true" width="25.2109375" x="-42.60547427680626" xml:space="preserve" y="10.726783716397108">has<y:LabelModel><y:SmartEdgeLabelModel autoRotationEnabled="false" defaultAngle="0.0" defaultDistance="10.0"/></y:LabelModel><y:ModelParameter><y:SmartEdgeLabelModelParameter angle="0.0" distance="30.0" distanceToCenter="true" position="right" ratio="0.5" segment="0"/></y:ModelParameter><y:PreferredPlacementDescriptor angle="0.0" angleOffsetOnRightSide="0" angleReference="absolute" angleRotationOnRightSide="co" distance="-1.0" frozen="true" placement="anywhere" side="anywhere" sideReference="relative_to_edge_flow"/></y:EdgeLabel>
          <y:BendStyle smoothed="false"/>
        </y:PolyLineEdge>
      </data>
    </edge>
    <edge id="n1::e1" source="n1::n2" target="n1::n1">
      <data key="d9"/>
      <data key="d10">
        <y:PolyLineEdge>
          <y:Path sx="0.0" sy="-64.50838574423477" tx="0.0" ty="64.54645669291335"/>
          <y:LineStyle color="#000000" type="line" width="1.0"/>
          <y:Arrows source="crows_foot_many_optional" target="crows_foot_one_mandatory"/>
          <y:BendStyle smoothed="false"/>
        </y:PolyLineEdge>
      </data>
    </edge>
    <edge id="n3::e0" source="n3::n0" target="n3::n0">
      <data key="d9"/>
      <data key="d10">
        <y:PolyLineEdge>
          <y:Path sx="0.0" sy="35.5" tx="52.5" ty="-0.0">
            <y:Point x="147.0679625984244" y="403.7617249015749"/>
            <y:Point x="247.0679625984244" y="403.7617249015749"/>
            <y:Point x="247.0679625984244" y="328.7617249015749"/>
          </y:Path>
          <y:LineStyle color="#000000" type="line" width="1.0"/>
          <y:Arrows source="crows_foot_many_optional" target="crows_foot_one_optional"/>
          <y:EdgeLabel alignment="center" configuration="AutoFlippingLabel" distance="2.0" fontFamily="Dialog" fontSize="12" fontStyle="plain" hasBackgroundColor="false" hasLineColor="false" height="17.96875" horizontalTextPosition="center" iconTextGap="4" modelName="custom" preferredPlacement="anywhere" ratio="0.5" textColor="#000000" verticalTextPosition="bottom" visible="true" width="43.59765625" x="-51.798828173059974" xml:space="preserve" y="17.757818651574894">parent<y:LabelModel><y:SmartEdgeLabelModel autoRotationEnabled="false" defaultAngle="0.0" defaultDistance="10.0"/></y:LabelModel><y:ModelParameter><y:SmartEdgeLabelModelParameter angle="0.0" distance="30.0" distanceToCenter="true" position="right" ratio="0.5" segment="0"/></y:ModelParameter><y:PreferredPlacementDescriptor angle="0.0" angleOffsetOnRightSide="0" angleReference="absolute" angleRotationOnRightSide="co" distance="-1.0" frozen="true" placement="anywhere" side="anywhere" sideReference="relative_to_edge_flow"/></y:EdgeLabel>
          <y:BendStyle smoothed="false"/>
        </y:PolyLineEdge>
      </data>
    </edge>
    <edge id="n3::e1" source="n3::n1" target="n3::n0">
      <data key="d9"/>
      <data key="d10">
        <y:PolyLineEdge>
          <y:Path sx="0.0" sy="48.0" tx="0.0" ty="-35.5"/>
          <y:LineStyle color="#000000" type="line" width="1.0"/>
          <y:Arrows source="crows_foot_many_optional" target="crows_foot_one_mandatory"/>
          <y:BendStyle smoothed="false"/>
        </y:PolyLineEdge>
      </data>
    </edge>
  </graph>
  <data key="d7">
    <y:Resources/>
  </data>
</graphml>
