<?xml version="1.0" encoding="UTF-8" standalone="no"?>
<graphml xmlns="http://graphml.graphdrawing.org/xmlns" xmlns:java="http://www.yworks.com/xml/yfiles-common/1.0/java" xmlns:sys="http://www.yworks.com/xml/yfiles-common/markup/primitives/2.0" xmlns:x="http://www.yworks.com/xml/yfiles-common/markup/2.0" xmlns:xsi="http://www.w3.org/2001/XMLSchema-instance" xmlns:y="http://www.yworks.com/xml/graphml" xmlns:yed="http://www.yworks.com/xml/yed/3" xsi:schemaLocation="http://graphml.graphdrawing.org/xmlns http://www.yworks.com/xml/schema/graphml/1.1/ygraphml.xsd">
  <!--Created by yEd 3.21.1-->
  <key attr.name="Beschreibung" attr.type="string" for="graph" id="d0"/>
  <key for="port" id="d1" yfiles.type="portgraphics"/>
  <key for="port" id="d2" yfiles.type="portgeometry"/>
  <key for="port" id="d3" yfiles.type="portuserdata"/>
  <key attr.name="url" attr.type="string" for="node" id="d4"/>
  <key attr.name="description" attr.type="string" for="node" id="d5"/>
  <key for="node" id="d6" yfiles.type="nodegraphics"/>
  <key for="graphml" id="d7" yfiles.type="resources"/>
  <key attr.name="url" attr.type="string" for="edge" id="d8"/>
  <key attr.name="description" attr.type="string" for="edge" id="d9"/>
  <key for="edge" id="d10" yfiles.type="edgegraphics"/>
  <graph edgedefault="directed" id="G">
    <data key="d0" xml:space="preserve"/>
    <node id="n0">
      <data key="d6">
        <y:GenericNode configuration="com.yworks.entityRelationship.big_entity">
          <y:Geometry height="129.0929133858267" width="141.87952755905513" x="279.06023622047246" y="635.4535433070866"/>
          <y:Fill color="#E8EEF7" color2="#B7C9E3" transparent="false"/>
          <y:BorderStyle color="#000000" type="line" width="1.0"/>
          <y:NodeLabel alignment="center" autoSizePolicy="content" backgroundColor="#B7C9E3" configuration="com.yworks.entityRelationship.label.name" fontFamily="Dialog" fontSize="12" fontStyle="plain" hasLineColor="false" height="17.96875" horizontalTextPosition="center" iconTextGap="4" modelName="internal" modelPosition="t" textColor="#000000" verticalTextPosition="bottom" visible="true" width="59.798828125" x="41.04034971702754" xml:space="preserve" y="4.0">Interview</y:NodeLabel>
          <y:NodeLabel alignment="left" autoSizePolicy="content" configuration="com.yworks.entityRelationship.label.attributes" fontFamily="Dialog" fontSize="12" fontStyle="plain" hasBackgroundColor="false" hasLineColor="false" height="94.0" horizontalTextPosition="center" iconTextGap="4" modelName="custom" textColor="#000000" verticalTextPosition="top" visible="true" width="133.0" x="2.0" xml:space="preserve" y="29.96875">&lt;html&gt;&lt;ul style="margin:0"&gt;
&lt;li&gt;&lt;b&gt;created:&lt;/b&gt; &lt;i&gt;DateTime&lt;/i&gt;&lt;/li&gt;
&lt;li&gt;&lt;b&gt;modified:&lt;/b&gt; &lt;i&gt;DateTime&lt;/i&gt;&lt;/li&gt;
&lt;li&gt;&lt;b&gt;deleted:&lt;/b&gt; &lt;i&gt;Bool&lt;/i&gt;&lt;/li&gt;
&lt;li&gt;&lt;b&gt;location:&lt;/b&gt; &lt;i&gt;String&lt;/i&gt;&lt;/li&gt;
&lt;li&gt;&lt;b&gt;time:&lt;/b&gt; &lt;i&gt;DateTime&lt;/i&gt;&lt;/li&gt;
&lt;li&gt;&lt;b&gt;interviewer:&lt;/b&gt; &lt;i&gt;String&lt;/i&gt;&lt;/li&gt;
&lt;/ul&gt;&lt;/html&gt;<y:LabelModel><y:ErdAttributesNodeLabelModel/></y:LabelModel><y:ModelParameter><y:ErdAttributesNodeLabelModelParameter/></y:ModelParameter></y:NodeLabel>
          <y:StyleProperties>
            <y:Property class="java.lang.Boolean" name="y.view.ShadowNodePainter.SHADOW_PAINTING" value="true"/>
          </y:StyleProperties>
        </y:GenericNode>
      </data>
    </node>
    <node id="n1">
      <data key="d6">
        <y:GenericNode configuration="com.yworks.entityRelationship.big_entity">
          <y:Geometry height="110.0" width="144.75905511811027" x="277.62047244094487" y="470.0"/>
          <y:Fill color="#E8EEF7" color2="#B7C9E3" transparent="false"/>
          <y:BorderStyle color="#000000" type="line" width="1.0"/>
          <y:NodeLabel alignment="center" autoSizePolicy="content" backgroundColor="#B7C9E3" configuration="com.yworks.entityRelationship.label.name" fontFamily="Dialog" fontSize="12" fontStyle="plain" hasLineColor="false" height="17.96875" horizontalTextPosition="center" iconTextGap="4" modelName="internal" modelPosition="t" textColor="#000000" verticalTextPosition="bottom" visible="true" width="74.564453125" x="35.097300996555134" xml:space="preserve" y="4.0">Interviewee</y:NodeLabel>
          <y:NodeLabel alignment="left" autoSizePolicy="content" configuration="com.yworks.entityRelationship.label.attributes" fontFamily="Dialog" fontSize="12" fontStyle="plain" hasBackgroundColor="false" hasLineColor="false" height="79.0" horizontalTextPosition="center" iconTextGap="4" modelName="custom" textColor="#000000" verticalTextPosition="top" visible="true" width="133.0" x="2.0" xml:space="preserve" y="29.96875">&lt;html&gt;&lt;ul style="margin:0"&gt;
&lt;li&gt;&lt;b&gt;created:&lt;/b&gt; &lt;i&gt;DateTime&lt;/i&gt;&lt;/li&gt;
&lt;li&gt;&lt;b&gt;modified:&lt;/b&gt; &lt;i&gt;DateTime&lt;/i&gt;&lt;/li&gt;
&lt;li&gt;&lt;b&gt;deleted:&lt;/b&gt; &lt;i&gt;Bool&lt;/i&gt;&lt;/li&gt;
&lt;li&gt;&lt;b&gt;name:&lt;/b&gt; &lt;i&gt;String&lt;/i&gt;&lt;/li&gt;
&lt;li&gt;&lt;b&gt;contact:&lt;/b&gt; &lt;i&gt;String&lt;/i&gt;&lt;/li&gt;
&lt;/ul&gt;&lt;/html&gt;<y:LabelModel><y:ErdAttributesNodeLabelModel/></y:LabelModel><y:ModelParameter><y:ErdAttributesNodeLabelModelParameter/></y:ModelParameter></y:NodeLabel>
          <y:StyleProperties>
            <y:Property class="java.lang.Boolean" name="y.view.ShadowNodePainter.SHADOW_PAINTING" value="true"/>
          </y:StyleProperties>
        </y:GenericNode>
      </data>
    </node>
    <node id="n2">
      <data key="d6">
        <y:GenericNode configuration="com.yworks.entityRelationship.big_entity">
          <y:Geometry height="94.0" width="198.0" x="251.0" y="103.0"/>
          <y:Fill color="#E8EEF7" color2="#B7C9E3" transparent="false"/>
          <y:BorderStyle color="#000000" type="line" width="1.0"/>
          <y:NodeLabel alignment="center" autoSizePolicy="content" backgroundColor="#B7C9E3" configuration="com.yworks.entityRelationship.label.name" fontFamily="Dialog" fontSize="12" fontStyle="plain" hasLineColor="false" height="17.96875" horizontalTextPosition="center" iconTextGap="4" modelName="internal" modelPosition="t" textColor="#000000" verticalTextPosition="bottom" visible="true" width="67.779296875" x="65.1103515625" xml:space="preserve" y="4.0">Specialists</y:NodeLabel>
          <y:NodeLabel alignment="left" autoSizePolicy="content" configuration="com.yworks.entityRelationship.label.attributes" fontFamily="Dialog" fontSize="12" fontStyle="plain" hasBackgroundColor="false" hasLineColor="false" height="64.0" horizontalTextPosition="center" iconTextGap="4" modelName="custom" textColor="#000000" verticalTextPosition="top" visible="true" width="195.0" x="2.0" xml:space="preserve" y="29.96875">&lt;html&gt;&lt;ul style="margin:0"&gt;
&lt;li&gt;&lt;b&gt;occupation:&lt;/b&gt; &lt;i&gt;String&lt;/i&gt;&lt;/li&gt;
&lt;li&gt;&lt;b&gt;personal experience:&lt;/b&gt; &lt;i&gt;String&lt;/i&gt;&lt;/li&gt;
&lt;li&gt;&lt;b&gt;expert view:&lt;/b&gt; &lt;i&gt;String&lt;/i&gt;&lt;/li&gt;
&lt;li&gt;&lt;b&gt;location:&lt;/b&gt; &lt;i&gt;String&lt;/i&gt;&lt;/li&gt;
&lt;/ul&gt;&lt;/html&gt;<y:LabelModel><y:ErdAttributesNodeLabelModel/></y:LabelModel><y:ModelParameter><y:ErdAttributesNodeLabelModelParameter/></y:ModelParameter></y:NodeLabel>
          <y:StyleProperties>
            <y:Property class="java.lang.Boolean" name="y.view.ShadowNodePainter.SHADOW_PAINTING" value="true"/>
          </y:StyleProperties>
        </y:GenericNode>
      </data>
    </node>
    <node id="n3">
      <data key="d6">
        <y:GenericNode configuration="com.yworks.entityRelationship.big_entity">
          <y:Geometry height="52.0" width="212.0" x="244.0" y="-1.0"/>
          <y:Fill color="#E8EEF7" color2="#B7C9E3" transparent="false"/>
          <y:BorderStyle color="#000000" type="line" width="1.0"/>
          <y:NodeLabel alignment="center" autoSizePolicy="content" backgroundColor="#B7C9E3" configuration="com.yworks.entityRelationship.label.name" fontFamily="Dialog" fontSize="12" fontStyle="plain" hasLineColor="false" height="31.9375" horizontalTextPosition="center" iconTextGap="4" modelName="internal" modelPosition="t" textColor="#000000" verticalTextPosition="bottom" visible="true" width="197.470703125" x="7.2646484375" xml:space="preserve" y="4.0">Academics, Experts, Consulters,
Clinitians, Doctors, Nurses</y:NodeLabel>
          <y:NodeLabel alignment="left" autoSizePolicy="content" configuration="com.yworks.entityRelationship.label.attributes" fontFamily="Dialog" fontSize="12" fontStyle="plain" hasBackgroundColor="false" hasLineColor="false" height="4.0" horizontalTextPosition="center" iconTextGap="4" modelName="custom" textColor="#000000" verticalTextPosition="top" visible="true" width="4.0" x="2.0" xml:space="preserve" y="43.9375">&lt;html&gt;&lt;ul style="margin:0"&gt;

&lt;/ul&gt;&lt;/html&gt;<y:LabelModel><y:ErdAttributesNodeLabelModel/></y:LabelModel><y:ModelParameter><y:ErdAttributesNodeLabelModelParameter/></y:ModelParameter></y:NodeLabel>
          <y:StyleProperties>
            <y:Property class="java.lang.Boolean" name="y.view.ShadowNodePainter.SHADOW_PAINTING" value="true"/>
          </y:StyleProperties>
        </y:GenericNode>
      </data>
    </node>
    <node id="n4">
      <data key="d6">
        <y:GenericNode configuration="com.yworks.entityRelationship.big_entity">
          <y:Geometry height="52.0" width="170.0" x="40.0" y="124.0"/>
          <y:Fill color="#E8EEF7" color2="#B7C9E3" transparent="false"/>
          <y:BorderStyle color="#000000" type="line" width="1.0"/>
          <y:NodeLabel alignment="center" autoSizePolicy="content" backgroundColor="#B7C9E3" configuration="com.yworks.entityRelationship.label.name" fontFamily="Dialog" fontSize="12" fontStyle="plain" hasLineColor="false" height="17.96875" horizontalTextPosition="center" iconTextGap="4" modelName="internal" modelPosition="t" textColor="#000000" verticalTextPosition="bottom" visible="true" width="156.4140625" x="6.79296875" xml:space="preserve" y="4.0">Chaplains, Relgious actor</y:NodeLabel>
          <y:NodeLabel alignment="left" autoSizePolicy="content" configuration="com.yworks.entityRelationship.label.attributes" fontFamily="Dialog" fontSize="12" fontStyle="plain" hasBackgroundColor="false" hasLineColor="false" height="19.0" horizontalTextPosition="center" iconTextGap="4" modelName="custom" textColor="#000000" verticalTextPosition="top" visible="true" width="160.0" x="2.0" xml:space="preserve" y="29.96875">&lt;html&gt;&lt;ul style="margin:0"&gt;
&lt;li&gt;&lt;b&gt;relgious beliefs:&lt;/b&gt; &lt;i&gt;String&lt;/i&gt;&lt;/li&gt;
&lt;/ul&gt;&lt;/html&gt;<y:LabelModel><y:ErdAttributesNodeLabelModel/></y:LabelModel><y:ModelParameter><y:ErdAttributesNodeLabelModelParameter/></y:ModelParameter></y:NodeLabel>
          <y:StyleProperties>
            <y:Property class="java.lang.Boolean" name="y.view.ShadowNodePainter.SHADOW_PAINTING" value="true"/>
          </y:StyleProperties>
        </y:GenericNode>
      </data>
    </node>
    <node id="n5">
      <data key="d6">
        <y:GenericNode configuration="com.yworks.entityRelationship.big_entity">
          <y:Geometry height="110.0" width="242.0" x="-21.0" y="470.0"/>
          <y:Fill color="#E8EEF7" color2="#B7C9E3" transparent="false"/>
          <y:BorderStyle color="#000000" type="line" width="1.0"/>
          <y:NodeLabel alignment="center" autoSizePolicy="content" backgroundColor="#B7C9E3" configuration="com.yworks.entityRelationship.label.name" fontFamily="Dialog" fontSize="12" fontStyle="plain" hasLineColor="false" height="17.96875" horizontalTextPosition="center" iconTextGap="4" modelName="internal" modelPosition="t" textColor="#000000" verticalTextPosition="bottom" visible="true" width="43.71484375" x="99.142578125" xml:space="preserve" y="4.0">Family</y:NodeLabel>
          <y:NodeLabel alignment="left" autoSizePolicy="content" configuration="com.yworks.entityRelationship.label.attributes" fontFamily="Dialog" fontSize="12" fontStyle="plain" hasBackgroundColor="false" hasLineColor="false" height="79.0" horizontalTextPosition="center" iconTextGap="4" modelName="custom" textColor="#000000" verticalTextPosition="top" visible="true" width="239.0" x="2.0" xml:space="preserve" y="29.96875">&lt;html&gt;&lt;ul style="margin:0"&gt;
&lt;li&gt;&lt;b&gt;religion:&lt;/b&gt; &lt;i&gt;String&lt;/i&gt;&lt;/li&gt;
&lt;lI&gt;&lt;b&gt;personal experience:&lt;/b&gt; &lt;i&gt;String&lt;/i&gt;&lt;/li&gt;
&lt;li&gt;&lt;b&gt;location:&lt;/b&gt; &lt;i&gt;String&lt;/i&gt;&lt;/li&gt;
&lt;li&gt;&lt;b&gt;personal view (religion):&lt;/b&gt; &lt;i&gt;String&lt;/i&gt;&lt;/li&gt;
&lt;li&gt;&lt;b&gt;personal view (world view):&lt;/b&gt; &lt;i&gt;String&lt;/i&gt;&lt;/li&gt;
&lt;/ul&gt;&lt;/html&gt;<y:LabelModel><y:ErdAttributesNodeLabelModel/></y:LabelModel><y:ModelParameter><y:ErdAttributesNodeLabelModelParameter/></y:ModelParameter></y:NodeLabel>
          <y:StyleProperties>
            <y:Property class="java.lang.Boolean" name="y.view.ShadowNodePainter.SHADOW_PAINTING" value="true"/>
          </y:StyleProperties>
        </y:GenericNode>
      </data>
    </node>
    <node id="n6">
      <data key="d6">
        <y:GenericNode configuration="com.yworks.entityRelationship.big_entity">
          <y:Geometry height="156.0" width="221.0" x="-10.5" y="247.0"/>
          <y:Fill color="#E8EEF7" color2="#B7C9E3" transparent="false"/>
          <y:BorderStyle color="#000000" type="line" width="1.0"/>
          <y:NodeLabel alignment="center" autoSizePolicy="content" backgroundColor="#B7C9E3" configuration="com.yworks.entityRelationship.label.name" fontFamily="Dialog" fontSize="12" fontStyle="plain" hasLineColor="false" height="17.96875" horizontalTextPosition="center" iconTextGap="4" modelName="internal" modelPosition="t" textColor="#000000" verticalTextPosition="bottom" visible="true" width="46.322265625" x="87.3388671875" xml:space="preserve" y="4.0">Patient</y:NodeLabel>
          <y:NodeLabel alignment="left" autoSizePolicy="content" configuration="com.yworks.entityRelationship.label.attributes" fontFamily="Dialog" fontSize="12" fontStyle="plain" hasBackgroundColor="false" hasLineColor="false" height="124.0" horizontalTextPosition="center" iconTextGap="4" modelName="custom" textColor="#000000" verticalTextPosition="top" visible="true" width="216.0" x="2.0" xml:space="preserve" y="29.96875">&lt;html&gt;&lt;ul style="margin:0"&gt;
&lt;li&gt;&lt;b&gt;gender:&lt;/b&gt; &lt;i&gt;String&lt;/i&gt;&lt;/li&gt;
&lt;li&gt;&lt;b&gt;age:&lt;/b&gt; &lt;i&gt;Integer&lt;/i&gt;&lt;/li&gt;
&lt;li&gt;&lt;b&gt;religion:&lt;/b&gt; &lt;i&gt;String&lt;/i&gt;&lt;/li&gt;
&lt;li&gt;&lt;b&gt;religious beliefs:&lt;/b&gt; &lt;i&gt;String&lt;/i&gt;&lt;/li&gt;
&lt;li&gt;&lt;b&gt;personal experience:&lt;/b&gt; &lt;i&gt;String&lt;/i&gt;&lt;/li&gt;
&lt;li&gt;&lt;b&gt;health condition:&lt;/b&gt; &lt;i&gt;String&lt;/i&gt;&lt;/li&gt;
&lt;li&gt;&lt;b&gt;form of transplantation:&lt;/b&gt; &lt;i&gt;String&lt;/i&gt;&lt;/li&gt;
&lt;li&gt;&lt;b&gt;location:&lt;/b&gt; &lt;i&gt;String&lt;/i&gt;&lt;/li&gt;
&lt;/ul&gt;&lt;/html&gt;<y:LabelModel><y:ErdAttributesNodeLabelModel/></y:LabelModel><y:ModelParameter><y:ErdAttributesNodeLabelModelParameter/></y:ModelParameter></y:NodeLabel>
          <y:StyleProperties>
            <y:Property class="java.lang.Boolean" name="y.view.ShadowNodePainter.SHADOW_PAINTING" value="true"/>
          </y:StyleProperties>
        </y:GenericNode>
      </data>
    </node>
    <node id="n7">
      <data key="d6">
        <y:GenericNode configuration="com.yworks.entityRelationship.big_entity">
          <y:Geometry height="129.0929133858267" width="141.87952755905508" x="489.6444881889764" y="460.45354330708665"/>
          <y:Fill color="#E8EEF7" color2="#B7C9E3" transparent="false"/>
          <y:BorderStyle color="#000000" type="line" width="1.0"/>
          <y:NodeLabel alignment="center" autoSizePolicy="content" backgroundColor="#B7C9E3" configuration="com.yworks.entityRelationship.label.name" fontFamily="Dialog" fontSize="12" fontStyle="plain" hasLineColor="false" height="17.96875" horizontalTextPosition="center" iconTextGap="4" modelName="internal" modelPosition="t" textColor="#000000" verticalTextPosition="bottom" visible="true" width="24.953125" x="58.46320127952754" xml:space="preserve" y="4.0">File</y:NodeLabel>
          <y:NodeLabel alignment="left" autoSizePolicy="content" configuration="com.yworks.entityRelationship.label.attributes" fontFamily="Dialog" fontSize="12" fontStyle="plain" hasBackgroundColor="false" hasLineColor="false" height="94.0" horizontalTextPosition="center" iconTextGap="4" modelName="custom" textColor="#000000" verticalTextPosition="top" visible="true" width="133.0" x="2.0" xml:space="preserve" y="29.96875">&lt;html&gt;&lt;ul style="margin:0"&gt;
&lt;li&gt;&lt;b&gt;created:&lt;/b&gt; &lt;i&gt;DateTime&lt;/i&gt;&lt;/li&gt;
&lt;li&gt;&lt;b&gt;modified:&lt;/b&gt; &lt;i&gt;DateTime&lt;/i&gt;&lt;/li&gt;
&lt;li&gt;&lt;b&gt;deleted:&lt;/b&gt; &lt;i&gt;Bool&lt;/i&gt;&lt;/li&gt;
&lt;li&gt;&lt;b&gt;name:&lt;/b&gt; &lt;i&gt;String&lt;/i&gt;&lt;/li&gt;
&lt;li&gt;&lt;b&gt;kind:&lt;/b&gt; &lt;i&gt;String&lt;/i&gt;&lt;/li&gt;
&lt;li&gt;&lt;b&gt;path:&lt;/b&gt; &lt;i&gt;String&lt;/i&gt;&lt;/li&gt;
&lt;/ul&gt;&lt;/html&gt;<y:LabelModel><y:ErdAttributesNodeLabelModel/></y:LabelModel><y:ModelParameter><y:ErdAttributesNodeLabelModelParameter/></y:ModelParameter></y:NodeLabel>
          <y:StyleProperties>
            <y:Property class="java.lang.Boolean" name="y.view.ShadowNodePainter.SHADOW_PAINTING" value="true"/>
          </y:StyleProperties>
        </y:GenericNode>
      </data>
    </node>
    <node id="n8">
      <data key="d5"/>
      <data key="d6">
        <y:GenericNode configuration="com.yworks.entityRelationship.big_entity">
          <y:Geometry height="94.0" width="141.87952755905508" x="508.34685039370083" y="103.0"/>
          <y:Fill color="#E8EEF7" color2="#B7C9E3" transparent="false"/>
          <y:BorderStyle color="#000000" type="line" width="1.0"/>
          <y:NodeLabel alignment="center" autoSizePolicy="content" backgroundColor="#B7C9E3" configuration="com.yworks.entityRelationship.label.name" fontFamily="Dialog" fontSize="12" fontStyle="plain" hasLineColor="false" height="17.96875" horizontalTextPosition="center" iconTextGap="4" modelName="internal" modelPosition="t" textColor="#000000" verticalTextPosition="bottom" visible="true" width="81.82421875" x="30.02765440452754" xml:space="preserve" y="4.0">Node History</y:NodeLabel>
          <y:NodeLabel alignment="left" autoSizePolicy="content" configuration="com.yworks.entityRelationship.label.attributes" fontFamily="Dialog" fontSize="12" fontStyle="plain" hasBackgroundColor="false" hasLineColor="false" height="64.0" horizontalTextPosition="center" iconTextGap="4" modelName="custom" textColor="#000000" verticalTextPosition="top" visible="true" width="133.0" x="2.0" xml:space="preserve" y="29.96875">&lt;html&gt;&lt;ul style="margin:0"&gt;
&lt;li&gt;&lt;b&gt;table:&lt;/b&gt; &lt;i&gt;String&lt;/i&gt;&lt;/li&gt;
&lt;li&gt;&lt;b&gt;field:&lt;/b&gt; &lt;i&gt;String&lt;/i&gt;&lt;/li&gt;
&lt;li&gt;&lt;b&gt;changed:&lt;/b&gt; &lt;i&gt;DateTime&lt;/i&gt;&lt;/li&gt;
&lt;li&gt;&lt;b&gt;old value:&lt;/b&gt; &lt;i&gt;any&lt;/i&gt;&lt;/li&gt;
&lt;/ul&gt;&lt;/html&gt;<y:LabelModel><y:ErdAttributesNodeLabelModel/></y:LabelModel><y:ModelParameter><y:ErdAttributesNodeLabelModelParameter/></y:ModelParameter></y:NodeLabel>
          <y:StyleProperties>
            <y:Property class="java.lang.Boolean" name="y.view.ShadowNodePainter.SHADOW_PAINTING" value="true"/>
          </y:StyleProperties>
        </y:GenericNode>
      </data>
    </node>
    <node id="n9">
      <data key="d5"/>
      <data key="d6">
        <y:GenericNode configuration="com.yworks.entityRelationship.big_entity">
          <y:Geometry height="94.0" width="141.87952755905508" x="508.34685039370083" y="278.0"/>
          <y:Fill color="#E8EEF7" color2="#B7C9E3" transparent="false"/>
          <y:BorderStyle color="#000000" type="line" width="1.0"/>
          <y:NodeLabel alignment="center" autoSizePolicy="content" backgroundColor="#B7C9E3" configuration="com.yworks.entityRelationship.label.name" fontFamily="Dialog" fontSize="12" fontStyle="plain" hasLineColor="false" height="17.96875" horizontalTextPosition="center" iconTextGap="4" modelName="internal" modelPosition="t" textColor="#000000" verticalTextPosition="bottom" visible="true" width="75.080078125" x="33.39972471702754" xml:space="preserve" y="4.0">Link History</y:NodeLabel>
          <y:NodeLabel alignment="left" autoSizePolicy="content" configuration="com.yworks.entityRelationship.label.attributes" fontFamily="Dialog" fontSize="12" fontStyle="plain" hasBackgroundColor="false" hasLineColor="false" height="64.0" horizontalTextPosition="center" iconTextGap="4" modelName="custom" textColor="#000000" verticalTextPosition="top" visible="true" width="133.0" x="2.0" xml:space="preserve" y="29.96875">&lt;html&gt;&lt;ul style="margin:0"&gt;
&lt;li&gt;&lt;b&gt;from table:&lt;/b&gt; &lt;i&gt;String&lt;/i&gt;&lt;/li&gt;
&lt;li&gt;&lt;b&gt;to table:&lt;/b&gt; &lt;i&gt;String&lt;/i&gt;&lt;/li&gt;
&lt;li&gt;&lt;b&gt;changed:&lt;/b&gt; &lt;i&gt;DateTime&lt;/i&gt;&lt;/li&gt;
&lt;li&gt;&lt;b&gt;removed&lt;/b&gt; &lt;i&gt;Bool&lt;/i&gt;&lt;/li&gt;
&lt;/ul&gt;&lt;/html&gt;<y:LabelModel><y:ErdAttributesNodeLabelModel/></y:LabelModel><y:ModelParameter><y:ErdAttributesNodeLabelModelParameter/></y:ModelParameter></y:NodeLabel>
          <y:StyleProperties>
            <y:Property class="java.lang.Boolean" name="y.view.ShadowNodePainter.SHADOW_PAINTING" value="true"/>
          </y:StyleProperties>
        </y:GenericNode>
      </data>
    </node>
    <edge id="e0" source="n3" target="n2">
      <data key="d10">
        <y:PolyLineEdge>
          <y:Path sx="0.0" sy="26.0" tx="0.0" ty="-47.0"/>
          <y:LineStyle color="#000000" type="line" width="1.0"/>
          <y:Arrows source="none" target="standard"/>
          <y:BendStyle smoothed="false"/>
        </y:PolyLineEdge>
      </data>
    </edge>
    <edge id="e1" source="n4" target="n2">
      <data key="d10">
        <y:PolyLineEdge>
          <y:Path sx="85.0" sy="-0.0" tx="-99.0" ty="-0.0"/>
          <y:LineStyle color="#000000" type="line" width="1.0"/>
          <y:Arrows source="none" target="standard"/>
          <y:BendStyle smoothed="false"/>
        </y:PolyLineEdge>
      </data>
    </edge>
    <edge id="e2" source="n2" target="n1">
      <data key="d10">
        <y:PolyLineEdge>
          <y:Path sx="0.0" sy="47.0" tx="0.0" ty="-55.0"/>
          <y:LineStyle color="#000000" type="line" width="1.0"/>
          <y:Arrows source="none" target="standard"/>
          <y:BendStyle smoothed="false"/>
        </y:PolyLineEdge>
      </data>
    </edge>
    <edge id="e3" source="n5" target="n1">
      <data key="d10">
        <y:PolyLineEdge>
          <y:Path sx="121.0" sy="-0.0" tx="-72.37952755905513" ty="-0.0"/>
          <y:LineStyle color="#000000" type="line" width="1.0"/>
          <y:Arrows source="none" target="standard"/>
          <y:BendStyle smoothed="false"/>
        </y:PolyLineEdge>
      </data>
    </edge>
    <edge id="e4" source="n6" target="n1">
      <data key="d10">
        <y:PolyLineEdge>
          <y:Path sx="110.5" sy="-0.0" tx="-25.0" ty="-55.0">
            <y:Point x="325.0" y="325.0"/>
          </y:Path>
          <y:LineStyle color="#000000" type="line" width="1.0"/>
          <y:Arrows source="none" target="standard"/>
          <y:BendStyle smoothed="false"/>
        </y:PolyLineEdge>
      </data>
    </edge>
    <edge id="e5" source="n0" target="n1">
      <data key="d10">
        <y:PolyLineEdge>
          <y:Path sx="0.0" sy="-64.54645669291335" tx="0.0" ty="55.0"/>
          <y:LineStyle color="#000000" type="line" width="1.0"/>
          <y:Arrows source="none" target="crows_foot_many_mandatory"/>
          <y:EdgeLabel alignment="center" configuration="AutoFlippingLabel" distance="2.0" fontFamily="Dialog" fontSize="12" fontStyle="plain" hasBackgroundColor="false" hasLineColor="false" height="17.96875" horizontalTextPosition="center" iconTextGap="4" modelName="custom" preferredPlacement="anywhere" ratio="0.5" textColor="#000000" verticalTextPosition="bottom" visible="true" width="25.2109375" x="17.39453125" xml:space="preserve" y="-36.684055983175426">has<y:LabelModel><y:SmartEdgeLabelModel autoRotationEnabled="false" defaultAngle="0.0" defaultDistance="10.0"/></y:LabelModel><y:ModelParameter><y:SmartEdgeLabelModelParameter angle="0.0" distance="30.0" distanceToCenter="true" position="right" ratio="0.5" segment="0"/></y:ModelParameter><y:PreferredPlacementDescriptor angle="0.0" angleOffsetOnRightSide="0" angleReference="absolute" angleRotationOnRightSide="co" distance="-1.0" frozen="true" placement="anywhere" side="anywhere" sideReference="relative_to_edge_flow"/></y:EdgeLabel>
          <y:BendStyle smoothed="false"/>
        </y:PolyLineEdge>
      </data>
    </edge>
    <edge id="e6" source="n6" target="n5">
      <data key="d10">
        <y:PolyLineEdge>
          <y:Path sx="0.0" sy="78.0" tx="0.0" ty="-55.0"/>
          <y:LineStyle color="#000000" type="line" width="1.0"/>
          <y:Arrows source="crows_foot_many_optional" target="crows_foot_many_optional"/>
          <y:EdgeLabel alignment="center" configuration="AutoFlippingLabel" distance="2.0" fontFamily="Dialog" fontSize="12" fontStyle="plain" hasBackgroundColor="false" hasLineColor="false" height="17.96875" horizontalTextPosition="center" iconTextGap="4" modelName="custom" preferredPlacement="anywhere" ratio="0.5" textColor="#000000" verticalTextPosition="bottom" visible="true" width="137.177734375" x="13.4111328125" xml:space="preserve" y="25.515625">relationship to patient<y:LabelModel><y:SmartEdgeLabelModel autoRotationEnabled="false" defaultAngle="0.0" defaultDistance="10.0"/></y:LabelModel><y:ModelParameter><y:SmartEdgeLabelModelParameter angle="6.283185307179586" distance="82.0" distanceToCenter="true" position="left" ratio="0.5256204963971177" segment="-1"/></y:ModelParameter><y:PreferredPlacementDescriptor angle="0.0" angleOffsetOnRightSide="0" angleReference="absolute" angleRotationOnRightSide="co" distance="-1.0" frozen="true" placement="anywhere" side="anywhere" sideReference="relative_to_edge_flow"/></y:EdgeLabel>
          <y:BendStyle smoothed="false"/>
        </y:PolyLineEdge>
      </data>
    </edge>
    <edge id="e7" source="n7" target="n7">
      <data key="d10">
        <y:PolyLineEdge>
          <y:Path sx="0.0" sy="64.54645669291335" tx="70.93976377952754" ty="-0.0">
            <y:Point x="560.584251968504" y="625.0"/>
            <y:Point x="660.584251968504" y="625.0"/>
            <y:Point x="660.584251968504" y="525.0"/>
          </y:Path>
          <y:LineStyle color="#000000" type="line" width="1.0"/>
          <y:Arrows source="crows_foot_many_mandatory" target="crows_foot_many_optional"/>
          <y:EdgeLabel alignment="center" configuration="AutoFlippingLabel" distance="2.0" fontFamily="Dialog" fontSize="12" fontStyle="plain" hasBackgroundColor="false" hasLineColor="false" height="17.96875" horizontalTextPosition="center" iconTextGap="4" modelName="custom" preferredPlacement="anywhere" ratio="0.5" textColor="#000000" verticalTextPosition="bottom" visible="true" width="89.001953125" x="5.499046890378963" xml:space="preserve" y="56.46917724609375">is parent from<y:LabelModel><y:SmartEdgeLabelModel autoRotationEnabled="false" defaultAngle="0.0" defaultDistance="10.0"/></y:LabelModel><y:ModelParameter><y:SmartEdgeLabelModelParameter angle="0.0" distance="30.0" distanceToCenter="true" position="right" ratio="0.5" segment="1"/></y:ModelParameter><y:PreferredPlacementDescriptor angle="0.0" angleOffsetOnRightSide="0" angleReference="absolute" angleRotationOnRightSide="co" distance="-1.0" frozen="true" placement="anywhere" side="anywhere" sideReference="relative_to_edge_flow"/></y:EdgeLabel>
          <y:BendStyle smoothed="false"/>
        </y:PolyLineEdge>
      </data>
    </edge>
    <edge id="e8" source="n7" target="n1">
      <data key="d10">
        <y:PolyLineEdge>
          <y:Path sx="-70.93976377952754" sy="-0.0" tx="72.37952755905513" ty="-0.0"/>
          <y:LineStyle color="#000000" type="line" width="1.0"/>
          <y:Arrows source="crows_foot_many_optional" target="crows_foot_many_mandatory"/>
          <y:BendStyle smoothed="false"/>
        </y:PolyLineEdge>
      </data>
    </edge>
  </graph>
  <data key="d7">
    <y:Resources/>
  </data>
</graphml>
