<?xml version="1.0" encoding="iso-8859-1"?>
<!-- Generator: Adobe Illustrator 18.0.0, SVG Export Plug-In . SVG Version: 6.00 Build 0)  -->
<!DOCTYPE svg PUBLIC "-//W3C//DTD SVG 1.1//EN" "http://www.w3.org/Graphics/SVG/1.1/DTD/svg11.dtd">
<svg version="1.1" id="Capa_1" xmlns="http://www.w3.org/2000/svg" xmlns:xlink="http://www.w3.org/1999/xlink" x="0px" y="0px"
	 viewBox="0 0 60 60" style="enable-background:new 0 0 60 60;" xml:space="preserve">
<g>
	<path d="M55,47.166c-0.43-4.107-3.853-7.333-7.954-7.333c-2.564,0-4.983,1.287-6.479,3.402c-0.292-0.051-0.588-0.076-0.884-0.076
		c-2.32,0-4.381,1.577-5.066,3.813c-1.907,1.131-3.116,3.241-3.116,5.502c0,3.506,2.785,6.358,6.208,6.358h10.774
		c0.058,0,0.114-0.003,0.188-0.007c0.057,0.004,0.114,0.007,0.172,0.007h4.31c3.225,0,5.849-2.687,5.849-5.989
		C59,50.244,57.358,47.971,55,47.166z M53.151,56.833l-4.349-0.003l-0.173-0.005l-10.922,0.008c-2.32,0-4.208-1.955-4.208-4.358
		c0-1.665,0.949-3.21,2.417-3.935l0.435-0.214l0.102-0.475c0.331-1.56,1.689-2.692,3.229-2.692c0.344,0,0.687,0.057,1.019,0.169
		l0.777,0.261l0.409-0.711c1.079-1.878,3.057-3.045,5.158-3.045c3.265,0,5.955,2.747,5.999,6.124l0.011,0.814l0.799,0.154
		C55.677,49.279,57,50.927,57,52.844C57,55.043,55.273,56.833,53.151,56.833z"/>
	<path d="M22.505,18h10.99C35.428,18,37,16.428,37,14.495V13c0-0.553-0.447-1-1-1s-1,0.447-1,1v1.495C35,15.325,34.325,16,33.495,16
		h-10.99C21.675,16,21,15.325,21,14.495V13c0-0.553-0.447-1-1-1s-1,0.447-1,1v1.495C19,16.428,20.572,18,22.505,18z"/>
	<path d="M30,45h-7.495C21.675,45,21,44.325,21,43.495V42c0-0.553-0.447-1-1-1s-1,0.447-1,1v1.495C19,45.428,20.572,47,22.505,47H30
		c0.553,0,1-0.447,1-1S30.553,45,30,45z"/>
	<path d="M26,58H3.832C3.373,58,3,57.627,3,57.168V31h50v7.074c0,0.553,0.447,1,1,1s1-0.447,1-1V2.832C55,1.271,53.729,0,52.168,0
		H3.832C2.271,0,1,1.271,1,2.832v54.336C1,58.729,2.271,60,3.832,60H26c0.553,0,1-0.447,1-1S26.553,58,26,58z M3.832,2h48.336
		C52.627,2,53,2.373,53,2.832V29H3V2.832C3,2.373,3.373,2,3.832,2z"/>
</g>
<g>
</g>
<g>
</g>
<g>
</g>
<g>
</g>
<g>
</g>
<g>
</g>
<g>
</g>
<g>
</g>
<g>
</g>
<g>
</g>
<g>
</g>
<g>
</g>
<g>
</g>
<g>
</g>
<g>
</g>
</svg>
