<?xml version="1.0" encoding="iso-8859-1"?>
<!-- Generator: Adobe Illustrator 18.0.0, SVG Export Plug-In . SVG Version: 6.00 Build 0)  -->
<!DOCTYPE svg PUBLIC "-//W3C//DTD SVG 1.1//EN" "http://www.w3.org/Graphics/SVG/1.1/DTD/svg11.dtd">
<svg version="1.1" id="Capa_1" xmlns="http://www.w3.org/2000/svg" xmlns:xlink="http://www.w3.org/1999/xlink" x="0px" y="0px"
	 viewBox="0 0 60 60" style="enable-background:new 0 0 60 60;" xml:space="preserve">
<g>
	<path d="M47,36c-6.617,0-12,5.383-12,12s5.383,12,12,12s12-5.383,12-12S53.617,36,47,36z M47,58c-5.514,0-10-4.486-10-10
		s4.486-10,10-10s10,4.486,10,10S52.514,58,47,58z"/>
	<path d="M53,47h-5v-5c0-0.553-0.447-1-1-1s-1,0.447-1,1v6c0,0.553,0.447,1,1,1h6c0.553,0,1-0.447,1-1S53.553,47,53,47z"/>
	<path d="M22.505,18h10.99C35.428,18,37,16.428,37,14.495V13c0-0.553-0.447-1-1-1s-1,0.447-1,1v1.495C35,15.325,34.325,16,33.495,16
		h-10.99C21.675,16,21,15.325,21,14.495V13c0-0.553-0.447-1-1-1s-1,0.447-1,1v1.495C19,16.428,20.572,18,22.505,18z"/>
	<path d="M20,41c-0.553,0-1,0.447-1,1v1.495C19,45.428,20.572,47,22.505,47H30c0.553,0,1-0.447,1-1s-0.447-1-1-1h-7.495
		C21.675,45,21,44.325,21,43.495V42C21,41.447,20.553,41,20,41z"/>
	<path d="M33,58H3.832C3.373,58,3,57.627,3,57.168V31h50v2c0,0.553,0.447,1,1,1s1-0.447,1-1V2.832C55,1.271,53.729,0,52.168,0H3.832
		C2.271,0,1,1.271,1,2.832v54.336C1,58.729,2.271,60,3.832,60H33c0.553,0,1-0.447,1-1S33.553,58,33,58z M3.832,2h48.336
		C52.627,2,53,2.373,53,2.832V29H3V2.832C3,2.373,3.373,2,3.832,2z"/>
</g>
<g>
</g>
<g>
</g>
<g>
</g>
<g>
</g>
<g>
</g>
<g>
</g>
<g>
</g>
<g>
</g>
<g>
</g>
<g>
</g>
<g>
</g>
<g>
</g>
<g>
</g>
<g>
</g>
<g>
</g>
</svg>
