<?xml version="1.0" encoding="iso-8859-1"?>
<!-- Generator: Adobe Illustrator 18.0.0, SVG Export Plug-In . SVG Version: 6.00 Build 0)  -->
<!DOCTYPE svg PUBLIC "-//W3C//DTD SVG 1.1//EN" "http://www.w3.org/Graphics/SVG/1.1/DTD/svg11.dtd">
<svg version="1.1" id="Capa_1" xmlns="http://www.w3.org/2000/svg" xmlns:xlink="http://www.w3.org/1999/xlink" x="0px" y="0px"
	 viewBox="0 0 56 56" style="enable-background:new 0 0 56 56;" xml:space="preserve">
<g>
	<path d="M28.5,32v24h24V32H28.5z M50.5,54h-20V34h9v11.586l-4.293-4.293l-1.414,1.414l6.707,6.707l6.707-6.707l-1.414-1.414
		L41.5,45.586V34h9V54z"/>
	<path d="M20.5,38.37l-15,14.999V13h30v14c0,0.553,0.448,1,1,1s1-0.447,1-1V13V0h-34v13v41.443c0,0.631,0.377,1.195,0.96,1.437
		c0.193,0.08,0.396,0.119,0.597,0.119c0.404,0,0.8-0.158,1.098-0.456L20.5,41.198l3.401,3.4c0.391,0.391,1.023,0.391,1.414,0
		s0.391-1.023,0-1.414L20.5,38.37z M5.5,2h30v9h-30V2z"/>
</g>
<g>
</g>
<g>
</g>
<g>
</g>
<g>
</g>
<g>
</g>
<g>
</g>
<g>
</g>
<g>
</g>
<g>
</g>
<g>
</g>
<g>
</g>
<g>
</g>
<g>
</g>
<g>
</g>
<g>
</g>
</svg>
