<?xml version="1.0" encoding="iso-8859-1"?>
<!-- Generator: Adobe Illustrator 18.0.0, SVG Export Plug-In . SVG Version: 6.00 Build 0)  -->
<!DOCTYPE svg PUBLIC "-//W3C//DTD SVG 1.1//EN" "http://www.w3.org/Graphics/SVG/1.1/DTD/svg11.dtd">
<svg version="1.1" id="Capa_1" xmlns="http://www.w3.org/2000/svg" xmlns:xlink="http://www.w3.org/1999/xlink" x="0px" y="0px"
	 viewBox="0 0 56 56" style="enable-background:new 0 0 56 56;" xml:space="preserve">
<g>
	<path d="M40.5,30c-3.764,0-7.317,1.581-9.75,4.338c-0.365,0.415-0.326,1.047,0.088,1.412c0.415,0.365,1.045,0.327,1.412-0.088
		C34.303,33.335,37.311,32,40.5,32c6.065,0,11,4.935,11,11s-4.935,11-11,11c-4.992,0-9.407-3.367-10.741-8H34.5v-2h-8v8h2v-3.663
		C30.593,52.867,35.281,56,40.5,56c7.168,0,13-5.832,13-13S47.668,30,40.5,30z"/>
	<path d="M19.5,38.37l-15,15V13h30v14c0,0.553,0.447,1,1,1s1-0.447,1-1V13V0h-34v13v41.443c0,0.631,0.376,1.194,0.959,1.437
		c0.193,0.08,0.396,0.119,0.598,0.119c0.403,0,0.8-0.157,1.099-0.456L19.5,41.198l3.401,3.4c0.391,0.391,1.023,0.391,1.414,0
		s0.391-1.023,0-1.414L19.5,38.37z M4.5,2h30v9h-30V2z"/>
</g>
<g>
</g>
<g>
</g>
<g>
</g>
<g>
</g>
<g>
</g>
<g>
</g>
<g>
</g>
<g>
</g>
<g>
</g>
<g>
</g>
<g>
</g>
<g>
</g>
<g>
</g>
<g>
</g>
<g>
</g>
</svg>
