<?xml version="1.0" encoding="iso-8859-1"?>
<!-- Generator: Adobe Illustrator 18.0.0, SVG Export Plug-In . SVG Version: 6.00 Build 0)  -->
<!DOCTYPE svg PUBLIC "-//W3C//DTD SVG 1.1//EN" "http://www.w3.org/Graphics/SVG/1.1/DTD/svg11.dtd">
<svg version="1.1" id="Capa_1" xmlns="http://www.w3.org/2000/svg" xmlns:xlink="http://www.w3.org/1999/xlink" x="0px" y="0px"
	 viewBox="0 0 55.999 55.999" style="enable-background:new 0 0 55.999 55.999;" xml:space="preserve">
<g>
	<path d="M48.985,49.293l-6.798-6.798l6.483-3.241l-17.637-6.498l6.498,17.638l3.242-6.484l6.797,6.797
		C47.766,50.902,48.022,51,48.278,51s0.512-0.098,0.707-0.293C49.375,50.316,49.375,49.684,48.985,49.293z M34.409,36.131
		l9.232,3.402l-3.887,1.943l-1.943,3.888L34.409,36.131z"/>
	<path d="M23.721,38.37l-15,15V13h30v12c0,0.553,0.447,1,1,1s1-0.447,1-1V13V0h-34v13v41.443c0,0.631,0.376,1.194,0.959,1.437
		c0.193,0.08,0.396,0.119,0.598,0.119c0.403,0,0.8-0.157,1.099-0.456l14.345-14.345l3.401,3.4c0.391,0.391,1.023,0.391,1.414,0
		s0.391-1.023,0-1.414L23.721,38.37z M8.721,2h30v9h-30V2z"/>
</g>
<g>
</g>
<g>
</g>
<g>
</g>
<g>
</g>
<g>
</g>
<g>
</g>
<g>
</g>
<g>
</g>
<g>
</g>
<g>
</g>
<g>
</g>
<g>
</g>
<g>
</g>
<g>
</g>
<g>
</g>
</svg>
