<?xml version="1.0" encoding="iso-8859-1"?>
<!-- Generator: Adobe Illustrator 18.0.0, SVG Export Plug-In . SVG Version: 6.00 Build 0)  -->
<!DOCTYPE svg PUBLIC "-//W3C//DTD SVG 1.1//EN" "http://www.w3.org/Graphics/SVG/1.1/DTD/svg11.dtd">
<svg version="1.1" id="Capa_1" xmlns="http://www.w3.org/2000/svg" xmlns:xlink="http://www.w3.org/1999/xlink" x="0px" y="0px"
	 viewBox="0 0 57 57" style="enable-background:new 0 0 57 57;" xml:space="preserve">
<g>
	<path d="M46.179,38.429l-5.596,8.04l-3.949-3.241c-0.426-0.352-1.057-0.287-1.407,0.138c-0.351,0.427-0.289,1.058,0.139,1.407
		l4.786,3.929c0.18,0.148,0.404,0.228,0.634,0.228c0.045,0,0.091-0.003,0.137-0.01c0.276-0.038,0.524-0.19,0.684-0.419l6.214-8.929
		c0.315-0.453,0.204-1.076-0.25-1.392C47.117,37.861,46.495,37.975,46.179,38.429z"/>
	<path d="M41,31c-1.396,0-2.739,0.227-4,0.636V13V0H3v13v41.443c0,0.631,0.377,1.195,0.96,1.437c0.193,0.08,0.396,0.119,0.597,0.119
		c0.404,0,0.8-0.158,1.098-0.456L20,41.198L30.692,51.89C33.07,54.989,36.8,57,41,57c7.168,0,13-5.832,13-13S48.168,31,41,31z M5,2
		h30v9H5V2z M28.269,46.639L20,38.37L5,53.369V13h30v19.479c-0.002,0.001-0.004,0.002-0.005,0.003
		c-0.193,0.101-0.379,0.21-0.566,0.321c-0.126,0.074-0.251,0.149-0.374,0.228c-0.175,0.111-0.348,0.223-0.517,0.342
		c-0.135,0.095-0.264,0.196-0.395,0.296c-0.264,0.202-0.52,0.412-0.768,0.633c-0.118,0.105-0.237,0.21-0.352,0.32
		c-0.149,0.142-0.293,0.289-0.435,0.438c-0.098,0.103-0.193,0.21-0.288,0.316c-0.283,0.318-0.549,0.648-0.8,0.992
		c-0.043,0.059-0.089,0.115-0.131,0.175c-0.132,0.188-0.255,0.381-0.377,0.576c-0.062,0.099-0.122,0.198-0.182,0.299
		c-0.118,0.2-0.235,0.4-0.342,0.607c-0.007,0.014-0.014,0.029-0.021,0.044c-0.219,0.424-0.411,0.862-0.583,1.312
		c-0.055,0.144-0.109,0.287-0.159,0.433c-0.063,0.184-0.124,0.369-0.179,0.557c-0.076,0.259-0.142,0.521-0.202,0.785
		c-0.036,0.163-0.069,0.326-0.099,0.491c-0.051,0.276-0.094,0.554-0.128,0.835c-0.014,0.12-0.027,0.24-0.038,0.361
		C28.024,43.225,28,43.61,28,44c0,0.448,0.023,0.892,0.068,1.329c0.012,0.115,0.038,0.228,0.052,0.343
		c0.042,0.321,0.083,0.642,0.147,0.955C28.268,46.631,28.268,46.635,28.269,46.639z M41,55c-3.623,0-6.832-1.768-8.838-4.479
		c-0.151-0.204-0.296-0.411-0.431-0.623c-0.032-0.05-0.062-0.102-0.093-0.153c-0.132-0.214-0.26-0.429-0.377-0.65
		c-0.015-0.029-0.028-0.06-0.043-0.089c-0.182-0.352-0.339-0.714-0.481-1.082c-0.069-0.179-0.139-0.358-0.198-0.542
		c-0.041-0.126-0.075-0.255-0.111-0.383c-0.057-0.2-0.11-0.401-0.156-0.605c-0.028-0.123-0.053-0.246-0.076-0.37
		c-0.042-0.224-0.076-0.451-0.104-0.68c-0.013-0.108-0.029-0.215-0.039-0.323C30.021,44.686,30,44.345,30,44
		c0-0.332,0.021-0.66,0.05-0.985c0.01-0.111,0.023-0.221,0.036-0.331c0.026-0.215,0.06-0.427,0.098-0.639
		c0.023-0.124,0.042-0.248,0.068-0.37c0.059-0.271,0.128-0.539,0.207-0.802c0.052-0.175,0.114-0.346,0.175-0.518
		c0.039-0.109,0.078-0.219,0.12-0.327c0.072-0.185,0.147-0.368,0.229-0.548c0.031-0.068,0.065-0.134,0.097-0.202
		c0.186-0.389,0.393-0.768,0.623-1.132c0.018-0.029,0.034-0.058,0.052-0.086c0.115-0.178,0.237-0.352,0.362-0.523
		c0.051-0.07,0.102-0.138,0.155-0.207c0.126-0.165,0.254-0.328,0.39-0.486c0.034-0.039,0.07-0.076,0.105-0.115
		c0.263-0.298,0.544-0.581,0.839-0.85c0.072-0.066,0.143-0.134,0.218-0.198c0.146-0.126,0.296-0.247,0.448-0.365
		c0.084-0.065,0.17-0.128,0.256-0.191c0.16-0.117,0.321-0.234,0.488-0.343c0.025-0.016,0.052-0.031,0.077-0.047
		c0.378-0.241,0.773-0.459,1.183-0.655c0.093-0.044,0.183-0.092,0.277-0.134l0.212-0.097C38.069,33.304,39.5,33,41,33
		c6.065,0,11,4.935,11,11S47.065,55,41,55z"/>
</g>
<g>
</g>
<g>
</g>
<g>
</g>
<g>
</g>
<g>
</g>
<g>
</g>
<g>
</g>
<g>
</g>
<g>
</g>
<g>
</g>
<g>
</g>
<g>
</g>
<g>
</g>
<g>
</g>
<g>
</g>
</svg>
