<?xml version="1.0" encoding="iso-8859-1"?>
<!-- Generator: Adobe Illustrator 18.0.0, SVG Export Plug-In . SVG Version: 6.00 Build 0)  -->
<!DOCTYPE svg PUBLIC "-//W3C//DTD SVG 1.1//EN" "http://www.w3.org/Graphics/SVG/1.1/DTD/svg11.dtd">
<svg version="1.1" id="Capa_1" xmlns="http://www.w3.org/2000/svg" xmlns:xlink="http://www.w3.org/1999/xlink" x="0px" y="0px"
	 viewBox="0 0 60 60" style="enable-background:new 0 0 60 60;" xml:space="preserve">
<g>
	<path d="M52,33.003V17V3c0-0.553-0.448-1-1-1H1C0.448,2,0,2.447,0,3v14v35c0,0.553,0.448,1,1,1h35.774
		c2.382,3.038,6.075,5,10.226,5c7.168,0,13-5.832,13-13C60,39.603,56.693,34.966,52,33.003z M2,4h48v12H2V4z M35.475,51H2V18h48
		v14.358c-0.021-0.005-0.043-0.006-0.064-0.012c-0.41-0.095-0.828-0.169-1.252-0.225c-0.077-0.01-0.153-0.026-0.229-0.035
		C47.977,32.033,47.492,32,47,32c-7.168,0-13,5.832-13,13c0,0.495,0.034,0.981,0.088,1.462c0.016,0.146,0.045,0.289,0.066,0.434
		c0.05,0.34,0.108,0.677,0.184,1.008c0.036,0.156,0.078,0.309,0.119,0.463c0.089,0.331,0.19,0.656,0.304,0.976
		c0.047,0.131,0.093,0.263,0.144,0.393c0.154,0.391,0.325,0.772,0.515,1.144C35.441,50.919,35.455,50.961,35.475,51z M47,56
		c-3.694,0-6.961-1.836-8.956-4.637c-0.128-0.179-0.247-0.363-0.364-0.548c-0.053-0.085-0.105-0.17-0.156-0.257
		c-0.104-0.176-0.204-0.354-0.298-0.535c-0.059-0.115-0.113-0.232-0.169-0.35c-0.078-0.164-0.158-0.327-0.227-0.495
		c-0.113-0.275-0.217-0.554-0.308-0.839c-0.036-0.111-0.063-0.226-0.095-0.338c-0.059-0.208-0.116-0.418-0.163-0.632
		c-0.027-0.12-0.049-0.241-0.072-0.361c-0.041-0.223-0.076-0.447-0.103-0.674c-0.013-0.107-0.028-0.214-0.038-0.322
		C36.021,45.678,36,45.341,36,45c0-6.065,4.935-11,11-11c0.34,0,0.675,0.021,1.007,0.051c0.177,0.017,0.354,0.044,0.53,0.069
		c0.139,0.02,0.278,0.039,0.415,0.063c0.234,0.043,0.468,0.094,0.7,0.153c0.065,0.016,0.129,0.032,0.194,0.05
		c0.263,0.071,0.526,0.151,0.786,0.242C54.915,36.134,58,40.208,58,45C58,51.065,53.065,56,47,56z"/>
	<path d="M53,44h-5v-5c0-0.553-0.448-1-1-1s-1,0.447-1,1v5h-5c-0.552,0-1,0.447-1,1s0.448,1,1,1h5v5c0,0.553,0.448,1,1,1
		s1-0.447,1-1v-5h5c0.552,0,1-0.447,1-1S53.552,44,53,44z"/>
	<path d="M8,6c-2.206,0-4,1.794-4,4s1.794,4,4,4s4-1.794,4-4S10.206,6,8,6z M8,12c-1.103,0-2-0.897-2-2s0.897-2,2-2s2,0.897,2,2
		S9.103,12,8,12z"/>
	<path d="M17,6c-2.206,0-4,1.794-4,4s1.794,4,4,4s4-1.794,4-4S19.206,6,17,6z M17,12c-1.103,0-2-0.897-2-2s0.897-2,2-2s2,0.897,2,2
		S18.103,12,17,12z"/>
	<path d="M26,6c-2.206,0-4,1.794-4,4s1.794,4,4,4s4-1.794,4-4S28.206,6,26,6z M26,12c-1.103,0-2-0.897-2-2s0.897-2,2-2s2,0.897,2,2
		S27.103,12,26,12z"/>
</g>
<g>
</g>
<g>
</g>
<g>
</g>
<g>
</g>
<g>
</g>
<g>
</g>
<g>
</g>
<g>
</g>
<g>
</g>
<g>
</g>
<g>
</g>
<g>
</g>
<g>
</g>
<g>
</g>
<g>
</g>
</svg>
