<?xml version="1.0" encoding="iso-8859-1"?>
<!-- Generator: Adobe Illustrator 18.0.0, SVG Export Plug-In . SVG Version: 6.00 Build 0)  -->
<!DOCTYPE svg PUBLIC "-//W3C//DTD SVG 1.1//EN" "http://www.w3.org/Graphics/SVG/1.1/DTD/svg11.dtd">
<svg version="1.1" id="Capa_1" xmlns="http://www.w3.org/2000/svg" xmlns:xlink="http://www.w3.org/1999/xlink" x="0px" y="0px"
	 viewBox="0 0 58 58" style="enable-background:new 0 0 58 58;" xml:space="preserve">
<g>
	<path d="M56.199,45.02c-0.547-0.105-1.069,0.24-1.18,0.781C53.903,51.303,49.574,55,44.249,55c-5.028,0-9.446-3.3-10.948-8H38v-2
		h-8v8h2v-3.849C34.169,53.833,38.915,57,44.249,57c6.304,0,11.42-4.341,12.731-10.801C57.09,45.657,56.74,45.13,56.199,45.02z"/>
	<path d="M56,33v4.309C53.75,32.854,49.296,30,44.249,30c-6.109,0-11.541,3.997-13.209,9.721c-0.154,0.53,0.15,1.085,0.681,1.239
		c0.53,0.157,1.085-0.15,1.239-0.681C34.358,35.482,39.105,32,44.249,32c4.565,0,8.562,2.766,10.33,7H50v2h8v-8H56z"/>
	<path d="M8,5C5.794,5,4,6.794,4,9s1.794,4,4,4s4-1.794,4-4S10.206,5,8,5z M8,11c-1.103,0-2-0.897-2-2s0.897-2,2-2s2,0.897,2,2
		S9.103,11,8,11z"/>
	<path d="M17,5c-2.206,0-4,1.794-4,4s1.794,4,4,4s4-1.794,4-4S19.206,5,17,5z M17,11c-1.103,0-2-0.897-2-2s0.897-2,2-2s2,0.897,2,2
		S18.103,11,17,11z"/>
	<path d="M26,5c-2.206,0-4,1.794-4,4s1.794,4,4,4s4-1.794,4-4S28.206,5,26,5z M26,11c-1.103,0-2-0.897-2-2s0.897-2,2-2s2,0.897,2,2
		S27.103,11,26,11z"/>
	<path d="M23,50H2V17h48v8c0,0.553,0.447,1,1,1s1-0.447,1-1v-9V2c0-0.553-0.447-1-1-1H1C0.447,1,0,1.447,0,2v14v35
		c0,0.553,0.447,1,1,1h22c0.553,0,1-0.447,1-1S23.553,50,23,50z M2,3h48v12H2V3z"/>
</g>
<g>
</g>
<g>
</g>
<g>
</g>
<g>
</g>
<g>
</g>
<g>
</g>
<g>
</g>
<g>
</g>
<g>
</g>
<g>
</g>
<g>
</g>
<g>
</g>
<g>
</g>
<g>
</g>
<g>
</g>
</svg>
