<?xml version="1.0" encoding="iso-8859-1"?>
<!-- Generator: Adobe Illustrator 18.0.0, SVG Export Plug-In . SVG Version: 6.00 Build 0)  -->
<!DOCTYPE svg PUBLIC "-//W3C//DTD SVG 1.1//EN" "http://www.w3.org/Graphics/SVG/1.1/DTD/svg11.dtd">
<svg version="1.1" id="Capa_1" xmlns="http://www.w3.org/2000/svg" xmlns:xlink="http://www.w3.org/1999/xlink" x="0px" y="0px"
	 viewBox="0 0 58 58" style="enable-background:new 0 0 58 58;" xml:space="preserve">
<g>
	<path d="M53.5,46.332C53.07,42.225,49.647,39,45.546,39c-2.565,0-4.984,1.286-6.479,3.402c-0.292-0.051-0.588-0.076-0.884-0.076
		c-2.32,0-4.381,1.577-5.066,3.813C31.209,47.27,30,49.38,30,51.642C30,55.147,32.785,58,36.208,58h10.774
		c0.063,0,0.124-0.004,0.172-0.008C47.216,57.996,47.278,58,47.342,58h4.31c3.225,0,5.849-2.687,5.849-5.989
		C57.5,49.411,55.858,47.138,53.5,46.332z M51.651,56L47.3,55.997l-0.186-0.006L36.208,56C33.888,56,32,54.045,32,51.642
		c0-1.666,0.948-3.21,2.417-3.935l0.435-0.214l0.102-0.475c0.331-1.56,1.689-2.692,3.229-2.692c0.344,0,0.687,0.057,1.019,0.169
		l0.777,0.261l0.409-0.711C41.483,42.139,43.411,41,45.546,41c3.265,0,5.955,2.747,5.999,6.123l0.011,0.813l0.799,0.155
		c1.822,0.354,3.146,2.002,3.146,3.919C55.5,54.21,53.773,56,51.651,56z"/>
	<path d="M36.5,32h9V21h-9h-2h-7h-2h-7h-2h-9v9v2v7v2v9h9h2h9v-9h9V32z M36.5,23h7v7h-7V23z M27.5,23h7v7h-7V23z M18.5,23h7v7h-7V23
		z M25.5,39h-7v-7h7V39z M9.5,23h7v7h-7V23z M9.5,32h7v7h-7V32z M16.5,48h-7v-7h7V48z M25.5,48h-7v-7h7V48z M34.5,39h-7v-7h7V39z"/>
	<path d="M26.5,55h-24V16h48v17c0,0.553,0.447,1,1,1s1-0.447,1-1V15V5c0-0.553-0.447-1-1-1h-5V1c0-0.553-0.447-1-1-1h-7
		c-0.553,0-1,0.447-1,1v3h-22V1c0-0.553-0.447-1-1-1h-7c-0.553,0-1,0.447-1,1v3h-5c-0.553,0-1,0.447-1,1v10v41c0,0.553,0.447,1,1,1
		h25c0.553,0,1-0.447,1-1S27.053,55,26.5,55z M39.5,2h5v3v3h-5V5V2z M8.5,2h5v3v3h-5V5V2z M2.5,6h4v3c0,0.553,0.447,1,1,1h7
		c0.553,0,1-0.447,1-1V6h22v3c0,0.553,0.447,1,1,1h7c0.553,0,1-0.447,1-1V6h4v8h-48V6z"/>
</g>
<g>
</g>
<g>
</g>
<g>
</g>
<g>
</g>
<g>
</g>
<g>
</g>
<g>
</g>
<g>
</g>
<g>
</g>
<g>
</g>
<g>
</g>
<g>
</g>
<g>
</g>
<g>
</g>
<g>
</g>
</svg>
