<?xml version="1.0" encoding="iso-8859-1"?>
<!-- Generator: Adobe Illustrator 18.0.0, SVG Export Plug-In . SVG Version: 6.00 Build 0)  -->
<!DOCTYPE svg PUBLIC "-//W3C//DTD SVG 1.1//EN" "http://www.w3.org/Graphics/SVG/1.1/DTD/svg11.dtd">
<svg version="1.1" id="Capa_1" xmlns="http://www.w3.org/2000/svg" xmlns:xlink="http://www.w3.org/1999/xlink" x="0px" y="0px"
	 viewBox="0 0 59.001 59.001" style="enable-background:new 0 0 59.001 59.001;" xml:space="preserve">
<g>
	<path d="M58.693,55.636L46.848,35.33c-0.405-0.695-1.128-1.11-1.933-1.11c-0.805,0-1.527,0.415-1.933,1.11L31.137,55.636
		c-0.409,0.7-0.412,1.539-0.008,2.242c0.404,0.703,1.129,1.123,1.94,1.123h23.691c0.811,0,1.536-0.42,1.939-1.123
		C59.104,57.175,59.102,56.337,58.693,55.636z M56.966,56.882c-0.03,0.055-0.092,0.119-0.205,0.119H33.07
		c-0.114,0-0.175-0.064-0.206-0.119s-0.056-0.14,0.001-0.238L44.71,36.338c0.057-0.098,0.143-0.118,0.205-0.118
		c0.063,0,0.148,0.021,0.206,0.118l11.845,20.306C57.022,56.742,56.998,56.827,56.966,56.882z"/>
	<path d="M45,41.001c-0.552,0-1,0.447-1,1v8c0,0.553,0.448,1,1,1s1-0.447,1-1v-8C46,41.448,45.552,41.001,45,41.001z"/>
	<path d="M44.29,53.291C44.11,53.48,44,53.74,44,54.001c0,0.27,0.11,0.52,0.29,0.71c0.19,0.18,0.45,0.29,0.71,0.29
		c0.26,0,0.52-0.11,0.7-0.29c0.19-0.181,0.3-0.44,0.3-0.71c0-0.271-0.11-0.521-0.29-0.7C45.34,52.921,44.65,52.921,44.29,53.291z"/>
	<path d="M36,32.001h9v-11h-9h-2h-7h-2h-7h-2H7v9v2v7v2v9h9h2h9v-9h9V32.001z M36,23.001h7v7h-7V23.001z M27,23.001h7v7h-7V23.001z
		 M18,23.001h7v7h-7V23.001z M25,39.001h-7v-7h7V39.001z M9,23.001h7v7H9V23.001z M9,32.001h7v7H9V32.001z M16,48.001H9v-7h7V48.001
		z M25,48.001h-7v-7h7V48.001z M34,39.001h-7v-7h7V39.001z"/>
	<path d="M26,55.001H2v-39h48v17c0,0.553,0.447,1,1,1s1-0.447,1-1v-18v-10c0-0.553-0.447-1-1-1h-5v-3c0-0.553-0.448-1-1-1h-7
		c-0.552,0-1,0.447-1,1v3H15v-3c0-0.553-0.448-1-1-1H7c-0.552,0-1,0.447-1,1v3H1c-0.552,0-1,0.447-1,1v10v41c0,0.553,0.448,1,1,1h25
		c0.552,0,1-0.447,1-1S26.552,55.001,26,55.001z M39,2.001h5v3v3h-5v-3V2.001z M8,2.001h5v3v3H8v-3V2.001z M2,6.001h4v3
		c0,0.553,0.448,1,1,1h7c0.552,0,1-0.447,1-1v-3h22v3c0,0.553,0.448,1,1,1h7c0.552,0,1-0.447,1-1v-3h4v8H2V6.001z"/>
</g>
<g>
</g>
<g>
</g>
<g>
</g>
<g>
</g>
<g>
</g>
<g>
</g>
<g>
</g>
<g>
</g>
<g>
</g>
<g>
</g>
<g>
</g>
<g>
</g>
<g>
</g>
<g>
</g>
<g>
</g>
</svg>
