<?xml version="1.0" encoding="iso-8859-1"?>
<!-- Generator: Adobe Illustrator 18.0.0, SVG Export Plug-In . SVG Version: 6.00 Build 0)  -->
<!DOCTYPE svg PUBLIC "-//W3C//DTD SVG 1.1//EN" "http://www.w3.org/Graphics/SVG/1.1/DTD/svg11.dtd">
<svg version="1.1" id="Capa_1" xmlns="http://www.w3.org/2000/svg" xmlns:xlink="http://www.w3.org/1999/xlink" x="0px" y="0px"
	 viewBox="0 0 60 60" style="enable-background:new 0 0 60 60;" xml:space="preserve">
<g>
	<path d="M59.188,44.363l-1.444-0.277c-0.677-0.13-1.21-0.573-1.462-1.216c-0.253-0.642-0.163-1.329,0.245-1.885l0.907-1.236
		c0.292-0.398,0.25-0.95-0.1-1.299l-1.959-1.958c-0.339-0.339-0.872-0.388-1.268-0.121l-1.217,0.824
		c-0.57,0.389-1.262,0.451-1.895,0.175c-0.632-0.275-1.055-0.825-1.16-1.508l-0.233-1.515c-0.075-0.487-0.495-0.848-0.988-0.848
		h-2.77c-0.479,0-0.892,0.341-0.982,0.812l-0.358,1.865c-0.127,0.662-0.558,1.19-1.181,1.448c-0.625,0.261-1.301,0.189-1.86-0.189
		l-1.572-1.064c-0.397-0.267-0.929-0.218-1.268,0.121l-1.959,1.958c-0.35,0.349-0.392,0.9-0.1,1.299l0.907,1.236
		c0.408,0.556,0.498,1.243,0.245,1.885c-0.252,0.643-0.785,1.086-1.462,1.216l-1.444,0.277C34.341,44.454,34,44.866,34,45.346v2.77
		c0,0.493,0.36,0.913,0.848,0.988l1.515,0.233c0.683,0.105,1.232,0.528,1.508,1.16c0.276,0.633,0.212,1.323-0.175,1.895
		l-0.824,1.217c-0.269,0.396-0.218,0.929,0.121,1.268l1.958,1.959c0.348,0.348,0.899,0.391,1.299,0.1l1.236-0.907
		c0.555-0.407,1.244-0.499,1.885-0.245c0.643,0.252,1.086,0.785,1.216,1.462l0.277,1.444c0.091,0.471,0.503,0.812,0.982,0.812h2.77
		c0.493,0,0.913-0.36,0.988-0.848l0.164-1.065c0.105-0.688,0.552-1.256,1.193-1.522c0.644-0.265,1.361-0.179,1.921,0.232
		l0.869,0.638c0.4,0.292,0.951,0.249,1.299-0.1l1.958-1.959c0.339-0.339,0.39-0.871,0.121-1.268l-0.824-1.217
		c-0.387-0.571-0.451-1.262-0.175-1.895c0.275-0.632,0.825-1.055,1.508-1.16l1.515-0.233C59.64,49.028,60,48.608,60,48.115v-2.77
		C60,44.866,59.659,44.454,59.188,44.363z M58,47.258l-0.667,0.103c-1.354,0.208-2.489,1.082-3.036,2.337
		c-0.548,1.256-0.416,2.682,0.352,3.815l0.361,0.533l-0.768,0.768l-0.177-0.13c-1.13-0.827-2.575-1.002-3.869-0.467
		c-1.294,0.536-2.192,1.682-2.405,3.065L47.758,57.5h-1.086l-0.121-0.633c-0.259-1.346-1.175-2.447-2.449-2.947
		c-1.275-0.5-2.695-0.314-3.8,0.494l-0.544,0.399l-0.768-0.768l0.361-0.533c0.768-1.134,0.899-2.56,0.352-3.815
		c-0.547-1.255-1.683-2.129-3.036-2.337L36,47.258v-1.086l0.633-0.121c1.346-0.259,2.447-1.175,2.947-2.449
		c0.5-1.275,0.315-2.695-0.494-3.8l-0.399-0.544l0.768-0.768l0.889,0.602c1.107,0.752,2.51,0.893,3.747,0.381
		c1.237-0.513,2.127-1.604,2.38-2.919l0.202-1.054h1.086l0.103,0.667c0.208,1.354,1.082,2.489,2.337,3.036
		c1.256,0.548,2.682,0.416,3.815-0.352l0.533-0.361l0.768,0.768l-0.399,0.544c-0.81,1.104-0.994,2.524-0.494,3.8
		c0.5,1.274,1.602,2.19,2.947,2.449L58,46.172V47.258z"/>
	<path d="M47,41.5c-2.757,0-5,2.243-5,5s2.243,5,5,5s5-2.243,5-5S49.757,41.5,47,41.5z M47,49.5c-1.654,0-3-1.346-3-3s1.346-3,3-3
		s3,1.346,3,3S48.654,49.5,47,49.5z"/>
	<polygon points="18.058,40.578 18.058,17.5 16.058,17.5 11,20.5 11,22.5 16.058,19.5 16.058,40.578 	"/>
	<path d="M36.058,32.184v-7.345c0-2.042-0.712-3.773-2.134-5.196c-1.423-1.423-3.149-2.134-5.18-2.134s-3.757,0.711-5.179,2.134
		c-1.423,1.423-2.134,3.148-2.134,5.179s0.711,3.757,2.134,5.18c1.422,1.423,3.183,2.134,5.282,2.134s3.871-0.78,5.316-2.341v2.148
		c0,2.157-0.631,3.791-1.893,4.904c-1.262,1.112-2.753,1.669-4.474,1.669h-0.74v1.893h0.603c1.537,0,2.879-0.27,4.026-0.809
		s2.019-1.233,2.615-2.082C35.473,35.866,36.058,34.088,36.058,32.184z M32.599,28.676c-1.044,1.044-2.323,1.565-3.837,1.565
		c-1.515,0-2.8-0.521-3.854-1.565c-1.056-1.044-1.583-2.323-1.583-3.837c0-1.515,0.527-2.799,1.583-3.854
		c1.055-1.055,2.334-1.583,3.837-1.583s2.782,0.511,3.837,1.531c1.056,1.021,1.583,2.306,1.583,3.854S33.643,27.632,32.599,28.676z"
		/>
	<path d="M28,45.5H2v-33h15h2h14h2h14v18c0,0.553,0.447,1,1,1s1-0.447,1-1v-18v-1v-11H35h-2H19h-2H0v11v1v34c0,0.553,0.447,1,1,1h27
		c0.553,0,1-0.447,1-1S28.553,45.5,28,45.5z M35,2.5h14v8H35V2.5z M19,2.5h14v8H19V2.5z M2,2.5h15v8H2V2.5z"/>
</g>
<g>
</g>
<g>
</g>
<g>
</g>
<g>
</g>
<g>
</g>
<g>
</g>
<g>
</g>
<g>
</g>
<g>
</g>
<g>
</g>
<g>
</g>
<g>
</g>
<g>
</g>
<g>
</g>
<g>
</g>
</svg>
