<?xml version="1.0" encoding="iso-8859-1"?>
<!-- Generator: Adobe Illustrator 18.0.0, SVG Export Plug-In . SVG Version: 6.00 Build 0)  -->
<!DOCTYPE svg PUBLIC "-//W3C//DTD SVG 1.1//EN" "http://www.w3.org/Graphics/SVG/1.1/DTD/svg11.dtd">
<svg version="1.1" id="Capa_1" xmlns="http://www.w3.org/2000/svg" xmlns:xlink="http://www.w3.org/1999/xlink" x="0px" y="0px"
	 viewBox="0 0 59 59" style="enable-background:new 0 0 59 59;" xml:space="preserve">
<g>
	<path d="M45,35c-6.617,0-12,5.383-12,12s5.383,12,12,12s12-5.383,12-12S51.617,35,45,35z M45,57c-5.514,0-10-4.486-10-10
		s4.486-10,10-10s10,4.486,10,10S50.514,57,45,57z"/>
	<path d="M51,46h-5v-5c0-0.553-0.447-1-1-1s-1,0.447-1,1v6c0,0.553,0.447,1,1,1h6c0.553,0,1-0.447,1-1S51.553,46,51,46z"/>
	<path d="M27,41.185c-0.827,0-1.637-0.016-2.432-0.044c-0.483-0.018-0.95-0.049-1.422-0.076c-0.296-0.017-0.6-0.028-0.891-0.049
		c-0.626-0.045-1.234-0.103-1.835-0.165c-0.118-0.012-0.242-0.021-0.359-0.034c-0.688-0.075-1.358-0.161-2.012-0.257
		c-0.021-0.003-0.044-0.006-0.066-0.009c-3.382-0.5-6.284-1.261-8.554-2.167c-0.014-0.006-0.03-0.011-0.044-0.017
		c-0.417-0.167-0.807-0.34-1.18-0.516c-0.045-0.021-0.093-0.042-0.138-0.064c-0.334-0.161-0.644-0.327-0.94-0.494
		c-0.072-0.041-0.146-0.081-0.216-0.122c-0.258-0.151-0.493-0.306-0.718-0.461c-0.087-0.061-0.177-0.121-0.259-0.182
		c-0.19-0.141-0.361-0.282-0.524-0.425c-0.09-0.079-0.18-0.157-0.261-0.237c-0.134-0.129-0.252-0.26-0.363-0.391
		c-0.078-0.092-0.153-0.185-0.219-0.277c-0.088-0.123-0.163-0.246-0.23-0.369c-0.054-0.099-0.102-0.198-0.143-0.297
		c-0.049-0.121-0.088-0.242-0.116-0.362C4.041,34.008,4,33.845,4,33.685v-8.207c0.028,0.026,0.063,0.051,0.092,0.077
		c0.219,0.191,0.44,0.382,0.69,0.566c3.767,2.85,11.301,5.063,22.219,5.063c10.873,0,18.386-2.196,22.169-5.028
		c0.302-0.22,0.574-0.447,0.83-0.678c0,0,0,0,0,0l0,3.707c0,0.553,0.447,1,1,1s1-0.447,1-1v-7v-0.5v-12v-0.5
		c0-0.162-0.047-0.309-0.115-0.444C50.695,3.769,40.195,0,27,0C13.805,0,3.304,3.769,2.115,8.74C2.047,8.875,2,9.022,2,9.185v0.5v12
		v0.5v11.5v0.5v12c0,0.161,0.042,0.313,0.115,0.448c1.139,4.833,10.691,7.68,19.81,8.364C21.95,54.999,21.976,55,22.001,55
		c0.519,0,0.957-0.399,0.996-0.925c0.041-0.551-0.371-1.031-0.922-1.072c-11.114-0.834-17.591-4.219-18.043-6.98
		C4.024,45.978,4.014,45.935,4,45.892v-8.414c0.028,0.026,0.063,0.051,0.092,0.077c0.219,0.191,0.44,0.382,0.69,0.566
		c3.767,2.85,11.301,5.063,22.219,5.063c0.553,0,1-0.447,1-1S27.553,41.185,27,41.185z M4.601,13.981
		c0.3,0.236,0.624,0.469,0.975,0.696c0.073,0.047,0.155,0.093,0.231,0.14C6.102,15,6.412,15.18,6.74,15.355
		c0.121,0.065,0.242,0.129,0.368,0.193c0.365,0.186,0.748,0.366,1.151,0.542c0.066,0.029,0.126,0.059,0.192,0.087
		c0.469,0.199,0.967,0.389,1.486,0.572c0.143,0.051,0.293,0.099,0.44,0.149c0.412,0.139,0.838,0.272,1.279,0.401
		c0.159,0.046,0.315,0.094,0.478,0.139c0.585,0.162,1.189,0.316,1.823,0.458c0.087,0.02,0.181,0.037,0.269,0.056
		c0.559,0.122,1.139,0.235,1.735,0.34c0.202,0.036,0.407,0.07,0.613,0.104c0.567,0.093,1.151,0.179,1.75,0.257
		c0.154,0.02,0.302,0.042,0.457,0.062c0.744,0.09,1.513,0.167,2.305,0.233c0.195,0.016,0.398,0.028,0.596,0.042
		c0.633,0.046,1.28,0.084,1.942,0.114c0.241,0.011,0.481,0.022,0.727,0.03c0.863,0.03,1.74,0.05,2.65,0.05s1.788-0.021,2.65-0.05
		c0.245-0.008,0.485-0.02,0.727-0.03c0.662-0.03,1.309-0.068,1.942-0.114c0.198-0.015,0.401-0.026,0.596-0.042
		c0.791-0.065,1.561-0.143,2.305-0.233c0.156-0.019,0.303-0.042,0.457-0.062c0.599-0.078,1.182-0.164,1.75-0.257
		c0.206-0.034,0.411-0.068,0.613-0.104c0.596-0.105,1.176-0.218,1.735-0.34c0.088-0.019,0.182-0.036,0.269-0.056
		c0.634-0.142,1.238-0.296,1.823-0.458c0.163-0.045,0.319-0.092,0.478-0.139c0.441-0.128,0.867-0.262,1.279-0.401
		c0.147-0.05,0.297-0.098,0.44-0.149c0.518-0.184,1.017-0.374,1.486-0.572c0.067-0.028,0.127-0.059,0.192-0.087
		c0.403-0.176,0.786-0.356,1.151-0.542c0.125-0.064,0.247-0.128,0.368-0.193c0.327-0.175,0.638-0.354,0.932-0.538
		c0.076-0.047,0.158-0.093,0.231-0.14c0.351-0.227,0.675-0.459,0.975-0.696c0.075-0.06,0.142-0.12,0.214-0.18
		c0.13-0.108,0.267-0.215,0.387-0.324v8.207c0,0.161-0.041,0.323-0.079,0.485c-0.028,0.121-0.067,0.241-0.116,0.362
		c-0.04,0.099-0.089,0.198-0.143,0.297c-0.067,0.123-0.142,0.246-0.23,0.369c-0.066,0.092-0.141,0.185-0.219,0.277
		c-0.111,0.13-0.229,0.261-0.363,0.391c-0.082,0.08-0.171,0.158-0.261,0.237c-0.163,0.143-0.334,0.284-0.524,0.425
		c-0.082,0.061-0.172,0.121-0.259,0.182c-0.225,0.155-0.46,0.31-0.718,0.461c-0.069,0.041-0.144,0.082-0.216,0.122
		c-0.296,0.167-0.606,0.333-0.94,0.494c-0.045,0.022-0.093,0.043-0.138,0.064c-0.373,0.176-0.763,0.349-1.18,0.516
		c-0.014,0.006-0.03,0.011-0.044,0.017c-2.27,0.906-5.172,1.667-8.554,2.167c-0.021,0.003-0.044,0.005-0.066,0.009
		c-0.653,0.096-1.324,0.182-2.012,0.257c-0.117,0.013-0.241,0.021-0.359,0.034c-0.602,0.062-1.21,0.12-1.835,0.165
		c-0.291,0.021-0.595,0.032-0.891,0.049c-0.471,0.027-0.938,0.059-1.422,0.076c-0.795,0.028-1.605,0.044-2.432,0.044
		s-1.637-0.016-2.432-0.044c-0.483-0.018-0.95-0.049-1.422-0.076c-0.296-0.017-0.6-0.028-0.891-0.049
		c-0.626-0.045-1.234-0.103-1.835-0.165c-0.118-0.012-0.242-0.021-0.359-0.034c-0.688-0.075-1.358-0.161-2.012-0.257
		c-0.021-0.003-0.044-0.006-0.066-0.009c-3.382-0.5-6.284-1.261-8.554-2.167c-0.014-0.006-0.03-0.011-0.044-0.017
		c-0.417-0.167-0.807-0.34-1.18-0.516c-0.045-0.021-0.093-0.042-0.138-0.064c-0.334-0.161-0.644-0.327-0.94-0.494
		c-0.072-0.041-0.146-0.081-0.216-0.122c-0.258-0.151-0.493-0.306-0.718-0.461c-0.087-0.061-0.177-0.121-0.259-0.182
		c-0.19-0.141-0.361-0.282-0.524-0.425c-0.09-0.079-0.18-0.157-0.261-0.237c-0.134-0.129-0.252-0.26-0.363-0.391
		c-0.078-0.092-0.153-0.185-0.219-0.277c-0.088-0.123-0.163-0.246-0.23-0.369c-0.054-0.099-0.102-0.198-0.143-0.297
		c-0.049-0.121-0.088-0.242-0.116-0.362C4.041,22.008,4,21.845,4,21.685v-8.207c0.12,0.109,0.257,0.216,0.387,0.324
		C4.459,13.861,4.526,13.922,4.601,13.981z M27,2c13.555,0,23,4.05,23,7.685c0,3.548-9.445,7.5-23,7.5s-23-3.952-23-7.5
		C4,6.05,13.445,2,27,2z"/>
</g>
<g>
</g>
<g>
</g>
<g>
</g>
<g>
</g>
<g>
</g>
<g>
</g>
<g>
</g>
<g>
</g>
<g>
</g>
<g>
</g>
<g>
</g>
<g>
</g>
<g>
</g>
<g>
</g>
<g>
</g>
</svg>
