<?xml version="1.0" encoding="iso-8859-1"?>
<!-- Generator: Adobe Illustrator 18.0.0, SVG Export Plug-In . SVG Version: 6.00 Build 0)  -->
<!DOCTYPE svg PUBLIC "-//W3C//DTD SVG 1.1//EN" "http://www.w3.org/Graphics/SVG/1.1/DTD/svg11.dtd">
<svg version="1.1" id="Capa_1" xmlns="http://www.w3.org/2000/svg" xmlns:xlink="http://www.w3.org/1999/xlink" x="0px" y="0px"
	 viewBox="0 0 60 60" style="enable-background:new 0 0 60 60;" xml:space="preserve">
<g>
	<path d="M39.722,23c0-0.552-0.447-1-1-1h-25c-0.553,0-1,0.448-1,1s0.447,1,1,1h25C39.274,24,39.722,23.552,39.722,23z"/>
	<path d="M13.722,16h10c0.553,0,1-0.448,1-1s-0.447-1-1-1h-10c-0.553,0-1,0.448-1,1S13.169,16,13.722,16z"/>
	<path d="M32.722,30h-19c-0.553,0-1,0.448-1,1s0.447,1,1,1h19c0.553,0,1-0.448,1-1S33.274,30,32.722,30z"/>
	<path d="M33.722,39c0-0.552-0.447-1-1-1h-19c-0.553,0-1,0.448-1,1s0.447,1,1,1h19C33.274,40,33.722,39.552,33.722,39z"/>
	<path d="M13.722,46c-0.553,0-1,0.448-1,1s0.447,1,1,1h16c0.553,0,1-0.448,1-1s-0.447-1-1-1H13.722z"/>
	<path d="M4.722,2h29v14h14v23h2V14.586L35.136,0H2.722v60h39v-2h-37V2z M35.722,3.414L46.308,14H35.722V3.414z"/>
	<path d="M56.985,56.293l-6.797-6.797l6.483-3.241l-17.637-6.498l6.499,17.637l3.241-6.484l6.797,6.797
		C55.767,57.902,56.022,58,56.278,58s0.512-0.098,0.707-0.293C57.376,57.316,57.376,56.684,56.985,56.293z M42.409,43.131
		l9.232,3.401l-3.887,1.944l-1.944,3.888L42.409,43.131z"/>
</g>
<g>
</g>
<g>
</g>
<g>
</g>
<g>
</g>
<g>
</g>
<g>
</g>
<g>
</g>
<g>
</g>
<g>
</g>
<g>
</g>
<g>
</g>
<g>
</g>
<g>
</g>
<g>
</g>
<g>
</g>
</svg>
