<?xml version="1.0" encoding="iso-8859-1"?>
<!-- Generator: Adobe Illustrator 18.0.0, SVG Export Plug-In . SVG Version: 6.00 Build 0)  -->
<!DOCTYPE svg PUBLIC "-//W3C//DTD SVG 1.1//EN" "http://www.w3.org/Graphics/SVG/1.1/DTD/svg11.dtd">
<svg version="1.1" id="Capa_1" xmlns="http://www.w3.org/2000/svg" xmlns:xlink="http://www.w3.org/1999/xlink" x="0px" y="0px"
	 viewBox="0 0 60 60" style="enable-background:new 0 0 60 60;" xml:space="preserve">
<g>
	<path d="M46,30.5c-3.764,0-7.317,1.581-9.75,4.338c-0.365,0.415-0.326,1.047,0.088,1.412c0.415,0.365,1.045,0.326,1.412-0.088
		C39.803,33.835,42.811,32.5,46,32.5c6.065,0,11,4.935,11,11s-4.935,11-11,11c-4.992,0-9.407-3.367-10.741-8H40v-2h-8v8h2v-3.664
		c2.093,4.531,6.781,7.664,12,7.664c7.168,0,13-5.832,13-13S53.168,30.5,46,30.5z"/>
	<path d="M26.525,10.5l-4.712-6.582l-0.001-0.001L21.515,3.5H0v53h27v-2H2v-49h18.485l5,7h0.012l4.69,6.551
		c0.195,0.272,0.502,0.417,0.813,0.418V19.5h27v12h2v-21H26.525z M31.537,17.5l-3.579-5H58v5H31.537z"/>
</g>
<g>
</g>
<g>
</g>
<g>
</g>
<g>
</g>
<g>
</g>
<g>
</g>
<g>
</g>
<g>
</g>
<g>
</g>
<g>
</g>
<g>
</g>
<g>
</g>
<g>
</g>
<g>
</g>
<g>
</g>
</svg>
