<?xml version="1.0" encoding="iso-8859-1"?>
<!-- Generator: Adobe Illustrator 18.0.0, SVG Export Plug-In . SVG Version: 6.00 Build 0)  -->
<!DOCTYPE svg PUBLIC "-//W3C//DTD SVG 1.1//EN" "http://www.w3.org/Graphics/SVG/1.1/DTD/svg11.dtd">
<svg version="1.1" id="Capa_1" xmlns="http://www.w3.org/2000/svg" xmlns:xlink="http://www.w3.org/1999/xlink" x="0px" y="0px"
	 viewBox="0 0 60 60" style="enable-background:new 0 0 60 60;" xml:space="preserve">
<g>
	<path d="M59.188,41.363l-1.444-0.277c-0.677-0.13-1.21-0.573-1.462-1.216c-0.253-0.642-0.163-1.329,0.245-1.885l0.907-1.236
		c0.292-0.398,0.25-0.95-0.1-1.299l-1.959-1.958c-0.339-0.339-0.872-0.389-1.268-0.121l-1.217,0.824
		c-0.57,0.388-1.262,0.451-1.895,0.175c-0.632-0.275-1.055-0.825-1.16-1.508l-0.233-1.515c-0.075-0.487-0.495-0.848-0.988-0.848
		h-2.77c-0.479,0-0.892,0.341-0.982,0.812l-0.358,1.865c-0.127,0.662-0.558,1.19-1.181,1.448c-0.625,0.261-1.301,0.189-1.86-0.189
		l-1.572-1.064c-0.397-0.268-0.929-0.218-1.268,0.121l-1.959,1.958c-0.35,0.349-0.392,0.9-0.1,1.299l0.907,1.236
		c0.408,0.556,0.498,1.243,0.245,1.885c-0.252,0.643-0.785,1.086-1.462,1.216l-1.444,0.277C34.341,41.454,34,41.866,34,42.346v2.77
		c0,0.493,0.36,0.913,0.848,0.988l1.515,0.233c0.683,0.105,1.232,0.528,1.508,1.16c0.276,0.633,0.212,1.323-0.175,1.895
		l-0.824,1.217c-0.269,0.396-0.218,0.929,0.121,1.268l1.958,1.959c0.348,0.349,0.899,0.391,1.299,0.1l1.236-0.907
		c0.555-0.407,1.244-0.498,1.885-0.245c0.643,0.252,1.086,0.785,1.216,1.462l0.277,1.444c0.091,0.471,0.503,0.812,0.982,0.812h2.77
		c0.493,0,0.913-0.36,0.988-0.848l0.164-1.065c0.105-0.688,0.552-1.256,1.193-1.522c0.644-0.265,1.361-0.179,1.921,0.232
		l0.869,0.638c0.4,0.292,0.951,0.25,1.299-0.1l1.958-1.959c0.339-0.339,0.39-0.871,0.121-1.268l-0.824-1.217
		c-0.387-0.571-0.451-1.262-0.175-1.895c0.275-0.632,0.825-1.055,1.508-1.16l1.515-0.233C59.64,46.028,60,45.608,60,45.115v-2.77
		C60,41.866,59.659,41.454,59.188,41.363z M58,44.258l-0.667,0.103c-1.354,0.208-2.489,1.082-3.036,2.337
		c-0.548,1.256-0.416,2.682,0.352,3.815l0.361,0.533l-0.768,0.768l-0.177-0.13c-1.13-0.827-2.575-1.001-3.869-0.467
		c-1.294,0.536-2.192,1.682-2.405,3.065L47.758,54.5h-1.086l-0.121-0.633c-0.259-1.346-1.175-2.447-2.449-2.947
		c-1.275-0.499-2.695-0.313-3.8,0.494l-0.544,0.399l-0.768-0.768l0.361-0.533c0.768-1.134,0.899-2.56,0.352-3.815
		c-0.547-1.255-1.683-2.129-3.036-2.337L36,44.258v-1.086l0.633-0.121c1.346-0.259,2.447-1.175,2.947-2.449
		c0.5-1.275,0.315-2.695-0.494-3.8l-0.399-0.544l0.768-0.768l0.889,0.602c1.107,0.752,2.51,0.893,3.747,0.381
		c1.237-0.513,2.127-1.604,2.38-2.919l0.202-1.054h1.086l0.103,0.667c0.208,1.354,1.082,2.489,2.337,3.036
		c1.256,0.548,2.682,0.416,3.815-0.352l0.533-0.361l0.768,0.768l-0.399,0.544c-0.81,1.104-0.994,2.524-0.494,3.8
		c0.5,1.274,1.602,2.19,2.947,2.449L58,43.172V44.258z"/>
	<path d="M47,38.5c-2.757,0-5,2.243-5,5s2.243,5,5,5s5-2.243,5-5S49.757,38.5,47,38.5z M47,46.5c-1.654,0-3-1.346-3-3s1.346-3,3-3
		s3,1.346,3,3S48.654,46.5,47,46.5z"/>
	<path d="M26.525,10.5l-4.712-6.582l-0.001-0.001L21.515,3.5H0v53h33v-2H2v-49h18.485l5,7h0.012l4.69,6.551
		c0.195,0.272,0.502,0.417,0.813,0.418V19.5h27v11h2v-20H26.525z M31.537,17.5l-3.579-5H58v5H31.537z"/>
</g>
<g>
</g>
<g>
</g>
<g>
</g>
<g>
</g>
<g>
</g>
<g>
</g>
<g>
</g>
<g>
</g>
<g>
</g>
<g>
</g>
<g>
</g>
<g>
</g>
<g>
</g>
<g>
</g>
<g>
</g>
</svg>
