<?xml version="1.0" encoding="iso-8859-1"?>
<!-- Generator: Adobe Illustrator 18.0.0, SVG Export Plug-In . SVG Version: 6.00 Build 0)  -->
<!DOCTYPE svg PUBLIC "-//W3C//DTD SVG 1.1//EN" "http://www.w3.org/Graphics/SVG/1.1/DTD/svg11.dtd">
<svg version="1.1" id="Capa_1" xmlns="http://www.w3.org/2000/svg" xmlns:xlink="http://www.w3.org/1999/xlink" x="0px" y="0px"
	 viewBox="0 0 60 60" style="enable-background:new 0 0 60 60;" xml:space="preserve">
<g>
	<path d="M51.517,32.392c-2.396,0-4.407,1.448-5.684,3.212c-1.276-1.764-3.288-3.213-5.684-3.213c-3.819,0-6.871,2.963-7.27,7.051
		c-0.042,0.269-0.145,1.222,0.225,2.711c0.545,2.196,1.8,4.19,3.631,5.77l8.335,7.133c0.222,0.187,0.492,0.28,0.763,0.28
		c0.273,0,0.546-0.096,0.769-0.285l8.331-7.13c1.829-1.576,3.084-3.57,3.63-5.768c0.369-1.488,0.267-2.44,0.225-2.709
		C58.389,35.354,55.337,32.392,51.517,32.392z M56.621,41.67c-0.445,1.794-1.48,3.431-2.991,4.732l-7.797,6.673l-7.794-6.671
		c-1.514-1.304-2.549-2.941-2.993-4.734c-0.302-1.214-0.193-1.897-0.194-1.897l0.017-0.106c0.244-2.621,2.137-5.275,5.281-5.275
		c2.189,0,3.974,1.811,4.77,3.605l0.914,2.061l0.914-2.061c0.796-1.794,2.579-3.604,4.77-3.604c3.146,0,5.038,2.654,5.296,5.367
		C56.813,39.766,56.925,40.45,56.621,41.67z"/>
	<path d="M26.525,10.5l-4.712-6.582l-0.001-0.001L21.515,3.5H0v53h32v-2H2v-49h18.485l5,7h0.012l4.69,6.551
		c0.195,0.272,0.502,0.417,0.813,0.418V19.5h27v12h2v-21H26.525z M31.537,17.5l-3.579-5H58v5H31.537z"/>
</g>
<g>
</g>
<g>
</g>
<g>
</g>
<g>
</g>
<g>
</g>
<g>
</g>
<g>
</g>
<g>
</g>
<g>
</g>
<g>
</g>
<g>
</g>
<g>
</g>
<g>
</g>
<g>
</g>
<g>
</g>
</svg>
