<?xml version="1.0" encoding="iso-8859-1"?>
<!-- Generator: Adobe Illustrator 18.0.0, SVG Export Plug-In . SVG Version: 6.00 Build 0)  -->
<!DOCTYPE svg PUBLIC "-//W3C//DTD SVG 1.1//EN" "http://www.w3.org/Graphics/SVG/1.1/DTD/svg11.dtd">
<svg version="1.1" id="Capa_1" xmlns="http://www.w3.org/2000/svg" xmlns:xlink="http://www.w3.org/1999/xlink" x="0px" y="0px"
	 viewBox="0 0 58 58" style="enable-background:new 0 0 58 58;" xml:space="preserve">
<g>
	<path d="M49.684,33.028c-2.396,0-4.407,1.449-5.684,3.213c-1.276-1.764-3.288-3.213-5.684-3.213c-3.818,0-6.871,2.963-7.271,7.052
		c-0.042,0.268-0.145,1.22,0.226,2.709c0.545,2.197,1.8,4.191,3.631,5.771l8.329,7.126c0.222,0.19,0.494,0.286,0.768,0.286
		c0.271,0,0.545-0.095,0.77-0.284l8.331-7.13c1.828-1.575,3.083-3.57,3.629-5.768c0.369-1.49,0.268-2.442,0.226-2.709
		C56.555,35.992,53.502,33.028,49.684,33.028z M54.787,42.308c-0.445,1.794-1.479,3.432-2.99,4.732l-7.796,6.672l-7.795-6.67
		c-1.514-1.305-2.549-2.941-2.993-4.735c-0.302-1.213-0.194-1.897-0.194-1.897l0.016-0.105c0.245-2.621,2.138-5.275,5.282-5.275
		c2.189,0,3.974,1.811,4.77,3.605L44,40.694l0.914-2.061c0.796-1.795,2.58-3.605,4.77-3.605c3.145,0,5.037,2.654,5.295,5.367
		C54.98,40.402,55.091,41.086,54.787,42.308z"/>
	<path d="M21.569,15.598c0-3.071-2.498-5.569-5.569-5.569s-5.569,2.498-5.569,5.569c0,3.07,2.498,5.568,5.569,5.568
		S21.569,18.668,21.569,15.598z M12.431,15.598c0-1.968,1.602-3.569,3.569-3.569s3.569,1.602,3.569,3.569S17.968,19.166,16,19.166
		S12.431,17.565,12.431,15.598z"/>
	<path d="M6.249,38.689C6.447,38.914,6.723,39.028,7,39.028c0.235,0,0.471-0.082,0.661-0.249l16.313-14.362l8.319,8.318
		c0.391,0.391,1.023,0.391,1.414,0s0.391-1.023,0-1.414l-2.825-2.825l9.18-10.054l11.262,10.323c0.408,0.373,1.04,0.345,1.413-0.062
		c0.373-0.407,0.346-1.04-0.062-1.413l-12-11c-0.195-0.18-0.46-0.275-0.72-0.262c-0.266,0.012-0.516,0.129-0.694,0.325
		l-9.794,10.727l-4.743-4.743c-0.371-0.372-0.972-0.391-1.368-0.044L6.339,37.277C5.925,37.643,5.885,38.274,6.249,38.689z"/>
	<path d="M57,2.028H1c-0.553,0-1,0.447-1,1v44c0,0.553,0.447,1,1,1h27c0.553,0,1-0.447,1-1s-0.447-1-1-1H2v-42h54v28
		c0,0.553,0.447,1,1,1s1-0.447,1-1v-29C58,2.476,57.553,2.028,57,2.028z"/>
</g>
<g>
</g>
<g>
</g>
<g>
</g>
<g>
</g>
<g>
</g>
<g>
</g>
<g>
</g>
<g>
</g>
<g>
</g>
<g>
</g>
<g>
</g>
<g>
</g>
<g>
</g>
<g>
</g>
<g>
</g>
</svg>
