<?xml version="1.0" encoding="iso-8859-1"?>
<!-- Generator: Adobe Illustrator 18.0.0, SVG Export Plug-In . SVG Version: 6.00 Build 0)  -->
<!DOCTYPE svg PUBLIC "-//W3C//DTD SVG 1.1//EN" "http://www.w3.org/Graphics/SVG/1.1/DTD/svg11.dtd">
<svg version="1.1" id="Capa_1" xmlns="http://www.w3.org/2000/svg" xmlns:xlink="http://www.w3.org/1999/xlink" x="0px" y="0px"
	 viewBox="0 0 60 60" style="enable-background:new 0 0 60 60;" xml:space="preserve">
<g>
	<path d="M56,43.832c-0.43-4.107-3.853-7.332-7.954-7.332c-2.565,0-4.984,1.286-6.479,3.402c-0.292-0.051-0.588-0.076-0.884-0.076
		c-2.32,0-4.381,1.577-5.066,3.813C33.709,44.77,32.5,46.88,32.5,49.142c0,3.506,2.785,6.358,6.208,6.358h10.774
		c0.063,0,0.124-0.004,0.172-0.008c0.062,0.004,0.124,0.008,0.188,0.008h4.31c3.225,0,5.849-2.687,5.849-5.989
		C60,46.911,58.358,44.638,56,43.832z M54.151,53.5L49.8,53.497l-0.186-0.006L38.708,53.5c-2.32,0-4.208-1.955-4.208-4.358
		c0-1.666,0.948-3.21,2.417-3.935l0.435-0.214l0.102-0.475c0.331-1.56,1.689-2.692,3.229-2.692c0.344,0,0.687,0.057,1.019,0.169
		l0.777,0.261l0.409-0.711c1.096-1.906,3.023-3.045,5.158-3.045c3.265,0,5.955,2.747,5.999,6.123l0.011,0.813l0.799,0.155
		C56.677,45.946,58,47.594,58,49.511C58,51.71,56.273,53.5,54.151,53.5z"/>
	<path d="M21.569,18.069c0-3.071-2.498-5.569-5.569-5.569s-5.569,2.498-5.569,5.569c0,3.07,2.498,5.568,5.569,5.568
		S21.569,21.14,21.569,18.069z M12.431,18.069c0-1.968,1.602-3.569,3.569-3.569s3.569,1.602,3.569,3.569S17.968,21.638,16,21.638
		S12.431,20.037,12.431,18.069z"/>
	<path d="M51.324,31.237c0.408,0.373,1.039,0.345,1.413-0.062c0.373-0.407,0.346-1.04-0.062-1.413l-12-11
		c-0.195-0.18-0.46-0.275-0.72-0.262c-0.266,0.012-0.516,0.129-0.694,0.325l-9.794,10.727l-4.743-4.743
		c-0.371-0.372-0.972-0.391-1.368-0.044L6.339,39.749c-0.414,0.365-0.454,0.997-0.09,1.412C6.447,41.386,6.723,41.5,7,41.5
		c0.235,0,0.471-0.082,0.661-0.249l16.313-14.362l10.302,10.301c0.391,0.391,1.023,0.391,1.414,0s0.391-1.023,0-1.414l-4.807-4.807
		l9.18-10.054L51.324,31.237z"/>
	<path d="M27,48.5H2v-42h54v29c0,0.553,0.447,1,1,1s1-0.447,1-1v-30c0-0.553-0.447-1-1-1H1c-0.553,0-1,0.447-1,1v44
		c0,0.553,0.447,1,1,1h26c0.553,0,1-0.447,1-1S27.553,48.5,27,48.5z"/>
</g>
<g>
</g>
<g>
</g>
<g>
</g>
<g>
</g>
<g>
</g>
<g>
</g>
<g>
</g>
<g>
</g>
<g>
</g>
<g>
</g>
<g>
</g>
<g>
</g>
<g>
</g>
<g>
</g>
<g>
</g>
</svg>
