<?xml version="1.0" encoding="iso-8859-1"?>
<!-- Generator: Adobe Illustrator 18.0.0, SVG Export Plug-In . SVG Version: 6.00 Build 0)  -->
<!DOCTYPE svg PUBLIC "-//W3C//DTD SVG 1.1//EN" "http://www.w3.org/Graphics/SVG/1.1/DTD/svg11.dtd">
<svg version="1.1" id="Capa_1" xmlns="http://www.w3.org/2000/svg" xmlns:xlink="http://www.w3.org/1999/xlink" x="0px" y="0px"
	 viewBox="0 0 59 59" style="enable-background:new 0 0 59 59;" xml:space="preserve">
<g>
	<path d="M47,30c-6.617,0-12,5.383-12,12s5.383,12,12,12s12-5.383,12-12S53.617,30,47,30z M47,52c-5.514,0-10-4.486-10-10
		s4.486-10,10-10s10,4.486,10,10S52.514,52,47,52z"/>
	<path d="M53,41h-5v-5c0-0.553-0.447-1-1-1s-1,0.447-1,1v6c0,0.553,0.447,1,1,1h6c0.553,0,1-0.447,1-1S53.553,41,53,41z"/>
	<path d="M25.369,28.853c1.002,0.894,2.317,1.341,3.633,1.341c1.313,0,2.626-0.446,3.625-1.337L56,8.218V29c0,0.553,0.447,1,1,1
		s1-0.447,1-1V6c0-0.008-0.004-0.015-0.005-0.023c-0.002-0.111-0.019-0.222-0.06-0.33c-0.003-0.007-0.008-0.012-0.01-0.019
		c-0.011-0.027-0.029-0.049-0.042-0.075c-0.041-0.081-0.089-0.155-0.148-0.22c-0.026-0.029-0.054-0.052-0.083-0.078
		c-0.062-0.054-0.129-0.099-0.202-0.136c-0.033-0.017-0.063-0.035-0.098-0.048C57.24,5.029,57.124,5,57,5H1
		C0.876,5,0.76,5.029,0.649,5.071C0.614,5.084,0.584,5.102,0.551,5.119C0.478,5.156,0.411,5.201,0.348,5.255
		C0.319,5.281,0.292,5.304,0.266,5.333c-0.06,0.065-0.108,0.14-0.149,0.221C0.104,5.579,0.086,5.601,0.075,5.628
		C0.072,5.634,0.067,5.64,0.064,5.646c-0.041,0.108-0.057,0.219-0.06,0.33C0.004,5.985,0,5.992,0,6v39
		c0,0.003,0.002,0.006,0.002,0.009c0.001,0.107,0.017,0.214,0.053,0.319c0.004,0.012,0.013,0.022,0.018,0.034
		c0.013,0.034,0.034,0.063,0.051,0.095c0.039,0.074,0.082,0.142,0.137,0.203c0.028,0.031,0.056,0.058,0.088,0.085
		c0.06,0.053,0.126,0.096,0.197,0.133c0.034,0.018,0.066,0.037,0.102,0.051C0.759,45.971,0.876,46,1,46h30c0.553,0,1-0.447,1-1
		s-0.447-1-1-1H3.879c4.548-3.604,14.801-11.781,20.069-16.403L25.369,28.853z M54.356,7L31.299,27.36
		c-1.267,1.132-3.331,1.132-4.602-0.004l-1.979-1.747c-0.005-0.007-0.007-0.015-0.012-0.021c-0.022-0.025-0.053-0.035-0.077-0.058
		L3.644,7H54.356z M2,42.937V8.218l20.437,18.046C16.881,31.117,6.086,39.704,2,42.937z"/>
</g>
<g>
</g>
<g>
</g>
<g>
</g>
<g>
</g>
<g>
</g>
<g>
</g>
<g>
</g>
<g>
</g>
<g>
</g>
<g>
</g>
<g>
</g>
<g>
</g>
<g>
</g>
<g>
</g>
<g>
</g>
</svg>
