<?xml version="1.0" encoding="iso-8859-1"?>
<!-- Generator: Adobe Illustrator 18.0.0, SVG Export Plug-In . SVG Version: 6.00 Build 0)  -->
<!DOCTYPE svg PUBLIC "-//W3C//DTD SVG 1.1//EN" "http://www.w3.org/Graphics/SVG/1.1/DTD/svg11.dtd">
<svg version="1.1" id="Capa_1" xmlns="http://www.w3.org/2000/svg" xmlns:xlink="http://www.w3.org/1999/xlink" x="0px" y="0px"
	 viewBox="0 0 59.018 59.018" style="enable-background:new 0 0 59.018 59.018;" xml:space="preserve">
<g>
	<path d="M58.741,52.809l-5.97-6.244c1.746-1.919,2.82-4.458,2.82-7.251c0-5.953-4.843-10.796-10.796-10.796S34,33.362,34,39.314
		S38.843,50.11,44.796,50.11c2.442,0,4.689-0.824,6.499-2.196l6.001,6.276c0.196,0.206,0.459,0.309,0.723,0.309
		c0.249,0,0.497-0.092,0.691-0.277C59.108,53.841,59.123,53.208,58.741,52.809z M36,39.314c0-4.85,3.946-8.796,8.796-8.796
		s8.796,3.946,8.796,8.796s-3.946,8.796-8.796,8.796S36,44.164,36,39.314z"/>
	<path d="M25.369,28.372c1.002,0.894,2.317,1.341,3.633,1.341c1.313,0,2.626-0.446,3.625-1.337L56,7.736v20.783c0,0.552,0.447,1,1,1
		s1-0.448,1-1v-23c0-0.008-0.005-0.015-0.005-0.023c-0.003-0.111-0.019-0.223-0.06-0.331c-0.003-0.007-0.008-0.012-0.011-0.019
		c-0.01-0.026-0.028-0.046-0.04-0.071c-0.041-0.082-0.09-0.157-0.151-0.224c-0.026-0.028-0.053-0.052-0.082-0.077
		c-0.062-0.054-0.129-0.099-0.203-0.137c-0.033-0.017-0.063-0.035-0.098-0.048C57.24,4.547,57.124,4.518,57,4.518H1
		c-0.124,0-0.24,0.029-0.351,0.071C0.614,4.603,0.584,4.62,0.551,4.637C0.478,4.675,0.41,4.72,0.348,4.774
		C0.319,4.799,0.292,4.823,0.266,4.851C0.205,4.918,0.156,4.993,0.115,5.075C0.103,5.1,0.086,5.12,0.075,5.145
		C0.073,5.152,0.067,5.157,0.064,5.164c-0.041,0.108-0.057,0.22-0.06,0.331C0.005,5.503,0,5.51,0,5.518v39
		c0,0.003,0.002,0.006,0.002,0.009c0.001,0.107,0.017,0.214,0.053,0.319c0.004,0.013,0.013,0.022,0.018,0.034
		c0.013,0.034,0.033,0.062,0.05,0.094c0.039,0.075,0.083,0.144,0.138,0.205c0.027,0.03,0.055,0.057,0.086,0.083
		c0.061,0.054,0.127,0.097,0.2,0.135c0.034,0.017,0.064,0.037,0.1,0.05C0.759,45.49,0.876,45.518,1,45.518h30c0.553,0,1-0.448,1-1
		s-0.447-1-1-1H3.879c4.548-3.604,14.801-11.78,20.069-16.402L25.369,28.372z M54.356,6.518L31.299,26.879
		c-1.267,1.132-3.331,1.131-4.602-0.003L24.72,25.13c-0.006-0.007-0.007-0.016-0.014-0.023c-0.024-0.027-0.057-0.038-0.083-0.062
		L3.644,6.518H54.356z M2,42.455V7.736l20.437,18.046C16.881,30.636,6.086,39.222,2,42.455z"/>
</g>
<g>
</g>
<g>
</g>
<g>
</g>
<g>
</g>
<g>
</g>
<g>
</g>
<g>
</g>
<g>
</g>
<g>
</g>
<g>
</g>
<g>
</g>
<g>
</g>
<g>
</g>
<g>
</g>
<g>
</g>
</svg>
