<?xml version="1.0" encoding="iso-8859-1"?>
<!-- Generator: Adobe Illustrator 18.0.0, SVG Export Plug-In . SVG Version: 6.00 Build 0)  -->
<!DOCTYPE svg PUBLIC "-//W3C//DTD SVG 1.1//EN" "http://www.w3.org/Graphics/SVG/1.1/DTD/svg11.dtd">
<svg version="1.1" id="Capa_1" xmlns="http://www.w3.org/2000/svg" xmlns:xlink="http://www.w3.org/1999/xlink" x="0px" y="0px"
	 viewBox="0 0 55.996 55.996" style="enable-background:new 0 0 55.996 55.996;" xml:space="preserve">
<g>
	<path d="M52.998,34.357v-2.36h1c0.553,0,1-0.447,1-1s-0.447-1-1-1h-1h-1h-14h-1h-1c-0.553,0-1,0.447-1,1s0.447,1,1,1h1v2.36
		c0,3.534,1.845,6.748,4.827,8.64c-2.981,1.892-4.827,5.105-4.827,8.64v2.36h-1c-0.553,0-1,0.447-1,1s0.447,1,1,1h1h14h2h1
		c0.553,0,1-0.447,1-1s-0.447-1-1-1h-1v-2.36c0-3.534-1.845-6.748-4.827-8.64C51.153,41.105,52.998,37.891,52.998,34.357z
		 M50.998,51.636v2.36h-12v-2.36c0-3.319,2.033-6.298,5.197-7.64h1.605C48.965,45.338,50.998,48.317,50.998,51.636z M45.801,41.996
		h-1.605c-3.164-1.342-5.197-4.32-5.197-7.64v-2.36h12v2.36C50.998,37.676,48.965,40.655,45.801,41.996z"/>
	<path d="M54.555,2.165c-0.277-0.185-0.628-0.221-0.938-0.094L37.051,8.893l-16.585-8.78c-0.013-0.007-0.028-0.009-0.042-0.016
		c-0.046-0.022-0.093-0.038-0.141-0.053c-0.031-0.009-0.061-0.019-0.093-0.026c-0.051-0.01-0.101-0.013-0.153-0.015
		C20.007,0.002,19.977-0.001,19.947,0c-0.049,0.003-0.098,0.013-0.147,0.023c-0.034,0.007-0.067,0.011-0.1,0.021
		c-0.006,0.002-0.012,0.002-0.018,0.004l-18,6C1.274,6.184,0.998,6.566,0.998,6.996v43c0,0.321,0.154,0.623,0.415,0.812
		c0.173,0.124,0.378,0.188,0.585,0.188c0.106,0,0.213-0.017,0.316-0.052l17.644-5.881l11.655,4.856
		c0.126,0.053,0.256,0.077,0.385,0.077c0.392,0,0.763-0.231,0.923-0.615c0.213-0.51-0.028-1.096-0.538-1.308l-11.385-4.744V2.658
		l15,7.941v11.397c0,0.553,0.447,1,1,1s1-0.447,1-1v-11.33l15-6.177v21.507c0,0.553,0.447,1,1,1s1-0.447,1-1v-23
		C54.998,2.662,54.832,2.351,54.555,2.165z M2.998,7.717l16-5.333v40.892l-16,5.333V7.717z"/>
</g>
<g>
</g>
<g>
</g>
<g>
</g>
<g>
</g>
<g>
</g>
<g>
</g>
<g>
</g>
<g>
</g>
<g>
</g>
<g>
</g>
<g>
</g>
<g>
</g>
<g>
</g>
<g>
</g>
<g>
</g>
</svg>
