<?xml version="1.0" encoding="iso-8859-1"?>
<!-- Generator: Adobe Illustrator 18.0.0, SVG Export Plug-In . SVG Version: 6.00 Build 0)  -->
<!DOCTYPE svg PUBLIC "-//W3C//DTD SVG 1.1//EN" "http://www.w3.org/Graphics/SVG/1.1/DTD/svg11.dtd">
<svg version="1.1" id="Capa_1" xmlns="http://www.w3.org/2000/svg" xmlns:xlink="http://www.w3.org/1999/xlink" x="0px" y="0px"
	 viewBox="0 0 54 54" style="enable-background:new 0 0 54 54;" xml:space="preserve">
<g>
	<path d="M44.466,44.494l6.483-3.241l-17.637-6.498l6.498,17.638l3.242-6.484l6.797,6.797c0.195,0.195,0.451,0.293,0.707,0.293
		s0.512-0.098,0.707-0.293c0.391-0.391,0.391-1.023,0-1.414L44.466,44.494z M36.688,38.129l9.232,3.402l-3.887,1.943l-1.943,3.888
		L36.688,38.129z"/>
	<path d="M53.557,3.167c-0.277-0.185-0.629-0.221-0.938-0.094L36.053,9.895l-16.585-8.78c-0.013-0.007-0.028-0.009-0.041-0.015
		c-0.047-0.022-0.094-0.039-0.143-0.053c-0.03-0.009-0.06-0.019-0.091-0.025c-0.051-0.01-0.102-0.013-0.154-0.016
		c-0.031-0.001-0.061-0.005-0.091-0.003c-0.049,0.003-0.097,0.013-0.146,0.023c-0.034,0.007-0.067,0.011-0.1,0.021
		c-0.006,0.002-0.012,0.002-0.018,0.004l-18,6C0.275,7.186,0,7.568,0,7.998v43c0,0.321,0.154,0.623,0.415,0.812
		C0.588,51.934,0.793,51.998,1,51.998c0.106,0,0.213-0.017,0.316-0.052l17.652-5.884l14.661,5.864
		c0.121,0.049,0.247,0.071,0.371,0.071c0.396,0,0.772-0.237,0.929-0.629c0.205-0.513-0.045-1.095-0.558-1.3L20,44.321V3.659
		l15,7.941v17.397c0,0.553,0.447,1,1,1s1-0.447,1-1v-17.33l15-6.177v31.507c0,0.553,0.447,1,1,1s1-0.447,1-1v-33
		C54,3.664,53.834,3.353,53.557,3.167z M2,8.719l16-5.333v40.892L2,49.611V8.719z"/>
</g>
<g>
</g>
<g>
</g>
<g>
</g>
<g>
</g>
<g>
</g>
<g>
</g>
<g>
</g>
<g>
</g>
<g>
</g>
<g>
</g>
<g>
</g>
<g>
</g>
<g>
</g>
<g>
</g>
<g>
</g>
</svg>
