<?xml version="1.0" encoding="iso-8859-1"?>
<!-- Generator: Adobe Illustrator 18.0.0, SVG Export Plug-In . SVG Version: 6.00 Build 0)  -->
<!DOCTYPE svg PUBLIC "-//W3C//DTD SVG 1.1//EN" "http://www.w3.org/Graphics/SVG/1.1/DTD/svg11.dtd">
<svg version="1.1" id="Capa_1" xmlns="http://www.w3.org/2000/svg" xmlns:xlink="http://www.w3.org/1999/xlink" x="0px" y="0px"
	 viewBox="0 0 56 56" style="enable-background:new 0 0 56 56;" xml:space="preserve">
<g>
	<path d="M55.188,40.362l-1.444-0.277c-0.677-0.13-1.21-0.573-1.462-1.216c-0.253-0.642-0.163-1.329,0.245-1.885l0.907-1.236
		c0.292-0.398,0.25-0.95-0.1-1.299l-1.959-1.958c-0.339-0.339-0.872-0.389-1.268-0.121l-1.217,0.824
		c-0.571,0.389-1.261,0.451-1.895,0.175c-0.632-0.275-1.055-0.825-1.16-1.508l-0.233-1.515c-0.075-0.487-0.495-0.848-0.988-0.848
		h-2.77c-0.479,0-0.892,0.341-0.982,0.812l-0.358,1.865c-0.127,0.662-0.558,1.19-1.181,1.448c-0.625,0.261-1.301,0.189-1.86-0.189
		l-1.572-1.064c-0.396-0.268-0.929-0.218-1.268,0.121l-1.959,1.958c-0.35,0.349-0.392,0.9-0.1,1.299l0.907,1.236
		c0.408,0.556,0.498,1.243,0.245,1.885c-0.252,0.643-0.785,1.086-1.462,1.216l-1.444,0.277C30.341,40.452,30,40.865,30,41.344v2.77
		c0,0.493,0.36,0.913,0.848,0.988l1.515,0.233c0.683,0.105,1.232,0.528,1.508,1.16c0.276,0.633,0.212,1.323-0.175,1.895
		l-0.824,1.217c-0.269,0.396-0.218,0.929,0.121,1.268l1.958,1.959c0.348,0.348,0.899,0.391,1.299,0.1l1.236-0.907
		c0.556-0.408,1.245-0.498,1.885-0.245c0.643,0.252,1.086,0.785,1.216,1.462l0.277,1.444c0.091,0.471,0.503,0.812,0.982,0.812h2.77
		c0.493,0,0.913-0.36,0.988-0.848l0.164-1.065c0.105-0.688,0.552-1.256,1.193-1.522c0.644-0.265,1.36-0.179,1.921,0.232l0.869,0.638
		c0.399,0.293,0.951,0.249,1.299-0.1l1.958-1.959c0.339-0.339,0.39-0.871,0.121-1.268l-0.824-1.217
		c-0.387-0.571-0.451-1.262-0.175-1.895c0.275-0.632,0.825-1.055,1.508-1.16l1.515-0.233C55.64,45.027,56,44.607,56,44.114v-2.77
		C56,40.865,55.659,40.452,55.188,40.362z M54,43.256l-0.667,0.103c-1.354,0.208-2.489,1.082-3.036,2.337
		c-0.548,1.256-0.416,2.682,0.352,3.815l0.361,0.533l-0.768,0.768l-0.177-0.13c-1.13-0.827-2.575-1.001-3.869-0.467
		c-1.294,0.536-2.192,1.682-2.405,3.065l-0.033,0.218h-1.086l-0.121-0.633c-0.259-1.346-1.175-2.447-2.449-2.947
		c-1.276-0.5-2.696-0.314-3.8,0.494l-0.544,0.399l-0.768-0.768l0.361-0.533c0.768-1.134,0.899-2.56,0.352-3.815
		c-0.547-1.255-1.683-2.129-3.036-2.337L32,43.256V42.17l0.633-0.121c1.346-0.259,2.447-1.175,2.947-2.449
		c0.5-1.275,0.315-2.695-0.494-3.8l-0.399-0.544l0.768-0.768l0.889,0.602c1.108,0.752,2.511,0.893,3.747,0.381
		c1.237-0.513,2.127-1.604,2.38-2.919l0.202-1.054h1.086l0.103,0.667c0.208,1.354,1.082,2.489,2.337,3.036
		c1.255,0.548,2.682,0.416,3.815-0.352l0.533-0.361l0.768,0.768L50.914,35.8c-0.81,1.104-0.994,2.524-0.494,3.8
		c0.5,1.274,1.602,2.19,2.947,2.449L54,42.17V43.256z"/>
	<path d="M43,37.498c-2.757,0-5,2.243-5,5s2.243,5,5,5s5-2.243,5-5S45.757,37.498,43,37.498z M43,45.498c-1.654,0-3-1.346-3-3
		s1.346-3,3-3s3,1.346,3,3S44.654,45.498,43,45.498z"/>
	<path d="M26.394,46.579L20,43.839V3.159l15,7.941v14.397c0,0.553,0.447,1,1,1s1-0.447,1-1v-14.33l15-6.177v23.507
		c0,0.553,0.447,1,1,1s1-0.447,1-1v-25c0-0.334-0.166-0.646-0.443-0.831c-0.277-0.185-0.628-0.221-0.938-0.094L36.053,9.395
		l-16.585-8.78c-0.013-0.007-0.028-0.009-0.041-0.015c-0.048-0.023-0.097-0.04-0.148-0.055c-0.028-0.008-0.055-0.017-0.083-0.023
		c-0.054-0.011-0.109-0.015-0.164-0.017c-0.028-0.001-0.054-0.004-0.082-0.003c-0.05,0.003-0.099,0.013-0.148,0.023
		c-0.034,0.007-0.068,0.011-0.102,0.022c-0.005,0.002-0.011,0.002-0.017,0.004l-18,6C0.275,6.686,0,7.068,0,7.498v43
		c0,0.321,0.154,0.623,0.415,0.812C0.588,51.434,0.793,51.498,1,51.498c0.106,0,0.213-0.017,0.316-0.052l17.639-5.88l6.651,2.85
		c0.128,0.056,0.262,0.081,0.394,0.081c0.388,0,0.757-0.227,0.919-0.606C27.137,47.385,26.901,46.797,26.394,46.579z M2,8.219
		l16-5.333v40.892L2,49.111V8.219z"/>
</g>
<g>
</g>
<g>
</g>
<g>
</g>
<g>
</g>
<g>
</g>
<g>
</g>
<g>
</g>
<g>
</g>
<g>
</g>
<g>
</g>
<g>
</g>
<g>
</g>
<g>
</g>
<g>
</g>
<g>
</g>
</svg>
