<?xml version="1.0" encoding="iso-8859-1"?>
<!-- Generator: Adobe Illustrator 18.0.0, SVG Export Plug-In . SVG Version: 6.00 Build 0)  -->
<!DOCTYPE svg PUBLIC "-//W3C//DTD SVG 1.1//EN" "http://www.w3.org/Graphics/SVG/1.1/DTD/svg11.dtd">
<svg version="1.1" id="Capa_1" xmlns="http://www.w3.org/2000/svg" xmlns:xlink="http://www.w3.org/1999/xlink" x="0px" y="0px"
	 viewBox="0 0 60 60" style="enable-background:new 0 0 60 60;" xml:space="preserve">
<g>
	<path d="M58,38.604V2.5c0-0.553-0.448-1-1-1H1c-0.552,0-1,0.447-1,1v47c0,0.553,0.448,1,1,1h34.003c1.963,4.693,6.6,8,11.997,8
		c7.168,0,13-5.832,13-13C60,42.965,59.26,40.605,58,38.604z M34.359,48.5H2v-45h54v32.622c-0.17-0.164-0.354-0.311-0.532-0.465
		c-0.088-0.075-0.171-0.155-0.261-0.228c-0.235-0.192-0.48-0.37-0.728-0.545c-0.092-0.065-0.181-0.135-0.275-0.198
		c-0.245-0.163-0.498-0.312-0.754-0.458c-0.109-0.063-0.214-0.13-0.325-0.189c-0.242-0.13-0.492-0.244-0.743-0.358
		c-0.134-0.061-0.264-0.128-0.4-0.185c-0.234-0.097-0.475-0.179-0.715-0.262c-0.16-0.056-0.316-0.118-0.478-0.167
		c-0.232-0.071-0.47-0.124-0.706-0.182c-0.175-0.043-0.347-0.094-0.525-0.129c-0.256-0.051-0.518-0.083-0.778-0.119
		c-0.162-0.022-0.321-0.055-0.485-0.071C47.867,32.523,47.435,32.5,47,32.5c-2.192,0-4.255,0.55-6.069,1.512
		C40.972,33.75,41,33.485,41,33.214V17.5v-1.449V12.5c0-0.288-0.124-0.562-0.341-0.752c-0.216-0.19-0.506-0.277-0.79-0.239
		l-18,2.367C21.372,13.941,21,14.365,21,14.867v3.551v1.449v14.434c-1.169-1.019-2.754-1.649-4.5-1.649
		c-3.584,0-6.5,2.642-6.5,5.889s2.916,5.889,6.5,5.889s6.5-2.642,6.5-5.889V20.744l16-2.104v10.402
		c-1.133-0.966-2.653-1.562-4.327-1.562c-3.488,0-6.326,2.572-6.326,5.734s2.838,5.735,6.326,5.735c0.403,0,0.797-0.038,1.18-0.104
		C34.685,40.795,34,43.066,34,45.5c0,0.493,0.033,0.977,0.087,1.456c0.009,0.075,0.024,0.149,0.034,0.224
		c0.056,0.428,0.131,0.849,0.227,1.262C34.353,48.461,34.354,48.481,34.359,48.5z M23,18.418v-2.674l16-2.104v2.411v0.572l-16,2.104
		V18.418z M34.673,36.949c-2.385,0-4.326-1.676-4.326-3.735s1.941-3.734,4.326-3.734c2.386,0,4.327,1.675,4.327,3.734
		S37.059,36.949,34.673,36.949z M21,38.541c0,2.145-2.019,3.889-4.5,3.889S12,40.686,12,38.541s2.019-3.889,4.5-3.889
		S21,36.396,21,38.541z M47,56.5c-4.787,0-8.859-3.08-10.367-7.358c-0.094-0.267-0.176-0.536-0.249-0.806
		c-0.015-0.058-0.03-0.115-0.045-0.173c-0.06-0.238-0.112-0.476-0.156-0.716c-0.024-0.133-0.042-0.267-0.061-0.401
		c-0.026-0.18-0.054-0.36-0.071-0.54C36.021,46.174,36,45.839,36,45.5c0-6.065,4.935-11,11-11c0.426,0,0.848,0.031,1.265,0.079
		c0.127,0.015,0.25,0.039,0.375,0.057c0.291,0.044,0.579,0.096,0.863,0.162c0.141,0.033,0.281,0.07,0.421,0.108
		c0.268,0.074,0.531,0.159,0.792,0.253c0.134,0.048,0.269,0.094,0.4,0.147c0.295,0.119,0.583,0.255,0.866,0.399
		c0.083,0.042,0.17,0.077,0.252,0.121c0.342,0.185,0.671,0.393,0.992,0.614c0.131,0.09,0.255,0.19,0.382,0.286
		c0.199,0.15,0.395,0.305,0.584,0.469c0.127,0.11,0.251,0.224,0.373,0.339c0.193,0.184,0.379,0.377,0.559,0.575
		c0.094,0.103,0.191,0.202,0.281,0.309c0.261,0.311,0.51,0.634,0.739,0.976C57.315,41.143,58,43.243,58,45.5
		C58,51.565,53.065,56.5,47,56.5z"/>
	<path d="M53,44.5h-5v-5c0-0.553-0.448-1-1-1s-1,0.447-1,1v5h-5c-0.552,0-1,0.447-1,1s0.448,1,1,1h5v5c0,0.553,0.448,1,1,1
		s1-0.447,1-1v-5h5c0.552,0,1-0.447,1-1S53.552,44.5,53,44.5z"/>
</g>
<g>
</g>
<g>
</g>
<g>
</g>
<g>
</g>
<g>
</g>
<g>
</g>
<g>
</g>
<g>
</g>
<g>
</g>
<g>
</g>
<g>
</g>
<g>
</g>
<g>
</g>
<g>
</g>
<g>
</g>
</svg>
