<?xml version="1.0" encoding="iso-8859-1"?>
<!-- Generator: Adobe Illustrator 18.0.0, SVG Export Plug-In . SVG Version: 6.00 Build 0)  -->
<!DOCTYPE svg PUBLIC "-//W3C//DTD SVG 1.1//EN" "http://www.w3.org/Graphics/SVG/1.1/DTD/svg11.dtd">
<svg version="1.1" id="Capa_1" xmlns="http://www.w3.org/2000/svg" xmlns:xlink="http://www.w3.org/1999/xlink" x="0px" y="0px"
	 viewBox="0 0 58 58" style="enable-background:new 0 0 58 58;" xml:space="preserve">
<g>
	<path d="M49.684,35.028c-2.396,0-4.407,1.449-5.684,3.213c-1.276-1.764-3.288-3.213-5.684-3.213c-3.818,0-6.871,2.963-7.271,7.052
		c-0.042,0.268-0.145,1.22,0.226,2.709c0.545,2.197,1.8,4.191,3.631,5.771l8.329,7.126c0.222,0.19,0.494,0.286,0.768,0.286
		c0.271,0,0.545-0.095,0.77-0.284l8.331-7.13c1.828-1.575,3.083-3.57,3.629-5.768c0.369-1.49,0.268-2.442,0.226-2.709
		C56.555,37.992,53.502,35.028,49.684,35.028z M54.787,44.308c-0.445,1.794-1.479,3.432-2.99,4.732l-7.796,6.672l-7.795-6.67
		c-1.514-1.305-2.549-2.941-2.993-4.735c-0.302-1.213-0.194-1.897-0.194-1.897l0.016-0.105c0.245-2.621,2.138-5.275,5.282-5.275
		c2.189,0,3.974,1.811,4.77,3.605L44,42.694l0.914-2.061c0.796-1.795,2.58-3.605,4.77-3.605c3.145,0,5.037,2.654,5.295,5.367
		C54.98,42.402,55.091,43.086,54.787,44.308z"/>
	<path d="M57,0.028H1c-0.553,0-1,0.447-1,1v47c0,0.553,0.447,1,1,1h24c0.553,0,1-0.447,1-1s-0.447-1-1-1H2v-45h54v29
		c0,0.553,0.447,1,1,1s1-0.447,1-1v-30C58,0.476,57.553,0.028,57,0.028z"/>
	<path d="M32.322,34.764c0.367-0.412,0.33-1.045-0.082-1.412c-0.788-0.701-1.222-1.623-1.222-2.597c0-2.06,1.94-3.735,4.326-3.735
		c1.121,0,2.19,0.38,3.012,1.07c0.424,0.358,1.054,0.302,1.408-0.121c0.19-0.225,0.255-0.509,0.217-0.78
		C39.985,27.158,40,27.131,40,27.099v-12v-1.449v-3.551c0-0.288-0.124-0.562-0.341-0.752c-0.216-0.19-0.501-0.279-0.79-0.239
		l-18,2.367C20.372,11.54,20,11.964,20,12.466v3.551v1.449V31.9c-1.169-1.019-2.754-1.649-4.5-1.649c-3.584,0-6.5,2.642-6.5,5.889
		s2.916,5.889,6.5,5.889S22,39.387,22,36.14V18.343l16-2.104v9.341c-0.829-0.353-1.726-0.56-2.655-0.56
		c-3.488,0-6.326,2.573-6.326,5.735c0,1.552,0.672,3.005,1.892,4.091c0.19,0.17,0.428,0.253,0.665,0.253
		C31.851,35.099,32.124,34.985,32.322,34.764z M15.5,40.028c-2.481,0-4.5-1.744-4.5-3.889s2.019-3.889,4.5-3.889S20,33.995,20,36.14
		S17.981,40.028,15.5,40.028z M22,16.326v-0.31v-2.674l16-2.104v2.411v0.572L22,16.326z"/>
</g>
<g>
</g>
<g>
</g>
<g>
</g>
<g>
</g>
<g>
</g>
<g>
</g>
<g>
</g>
<g>
</g>
<g>
</g>
<g>
</g>
<g>
</g>
<g>
</g>
<g>
</g>
<g>
</g>
<g>
</g>
</svg>
