<?xml version="1.0" encoding="iso-8859-1"?>
<!-- Generator: Adobe Illustrator 18.0.0, SVG Export Plug-In . SVG Version: 6.00 Build 0)  -->
<!DOCTYPE svg PUBLIC "-//W3C//DTD SVG 1.1//EN" "http://www.w3.org/Graphics/SVG/1.1/DTD/svg11.dtd">
<svg version="1.1" id="Capa_1" xmlns="http://www.w3.org/2000/svg" xmlns:xlink="http://www.w3.org/1999/xlink" x="0px" y="0px"
	 viewBox="0 0 60 60" style="enable-background:new 0 0 60 60;" xml:space="preserve">
<g>
	<path d="M45.5,33c-3.764,0-7.317,1.581-9.75,4.338c-0.365,0.415-0.326,1.047,0.088,1.412c0.415,0.365,1.045,0.327,1.412-0.088
		C39.303,36.335,42.311,35,45.5,35c6.065,0,11,4.935,11,11s-4.935,11-11,11c-4.992,0-9.407-3.367-10.741-8H39.5v-2h-8v8h2v-3.663
		C35.593,55.867,40.281,59,45.5,59c7.168,0,13-5.832,13-13S52.668,33,45.5,33z"/>
	<path d="M11.5,2h34v26h2V0h-36h-10v60h10h16v-2h-16V2z M3.5,58V2h6v56H3.5z"/>
	<path d="M40.5,24V10h-24v14H40.5z M18.5,12h20v10h-20V12z"/>
	<rect x="21.5" y="14" width="14" height="2"/>
	<rect x="21.5" y="18" width="14" height="2"/>
</g>
<g>
</g>
<g>
</g>
<g>
</g>
<g>
</g>
<g>
</g>
<g>
</g>
<g>
</g>
<g>
</g>
<g>
</g>
<g>
</g>
<g>
</g>
<g>
</g>
<g>
</g>
<g>
</g>
<g>
</g>
</svg>
