<?xml version="1.0" encoding="iso-8859-1"?>
<!-- Generator: Adobe Illustrator 18.0.0, SVG Export Plug-In . SVG Version: 6.00 Build 0)  -->
<!DOCTYPE svg PUBLIC "-//W3C//DTD SVG 1.1//EN" "http://www.w3.org/Graphics/SVG/1.1/DTD/svg11.dtd">
<svg version="1.1" id="Capa_1" xmlns="http://www.w3.org/2000/svg" xmlns:xlink="http://www.w3.org/1999/xlink" x="0px" y="0px"
	 viewBox="0 0 59 59" style="enable-background:new 0 0 59 59;" xml:space="preserve">
<g>
	<path d="M44,33c-3.764,0-7.317,1.581-9.75,4.338c-0.365,0.415-0.326,1.047,0.088,1.412c0.415,0.366,1.045,0.327,1.412-0.088
		C37.803,36.335,40.811,35,44,35c6.065,0,11,4.935,11,11s-4.935,11-11,11c-4.992,0-9.407-3.367-10.741-8H38v-2h-8v8h2v-3.664
		C34.093,55.867,38.781,59,44,59c7.168,0,13-5.832,13-13S51.168,33,44,33z"/>
	<path d="M8.833,18h13c0.553,0,1-0.447,1-1s-0.447-1-1-1h-13c-0.553,0-1,0.447-1,1S8.28,18,8.833,18z"/>
	<path d="M19.833,48c0.553,0,1-0.447,1-1s-0.447-1-1-1h-11c-0.553,0-1,0.447-1,1s0.447,1,1,1H19.833z"/>
	<path d="M38.833,23c0-0.553-0.447-1-1-1h-29c-0.553,0-1,0.447-1,1s0.447,1,1,1h29C38.386,24,38.833,23.553,38.833,23z"/>
	<path d="M25.833,34h-17c-0.553,0-1,0.447-1,1s0.447,1,1,1h17c0.553,0,1-0.447,1-1S26.386,34,25.833,34z"/>
	<path d="M22.833,40h-14c-0.553,0-1,0.447-1,1s0.447,1,1,1h14c0.553,0,1-0.447,1-1S23.386,40,22.833,40z"/>
	<path d="M8.833,28c-0.553,0-1,0.447-1,1s0.447,1,1,1h14c0.553,0,1-0.447,1-1s-0.447-1-1-1H8.833z"/>
	<path d="M30.833,30h7c0.553,0,1-0.447,1-1s-0.447-1-1-1h-7c-0.553,0-1,0.447-1,1S30.28,30,30.833,30z"/>
	<path d="M26.13,28.29c-0.19,0.189-0.3,0.449-0.3,0.71c0,0.26,0.109,0.52,0.29,0.71C26.31,29.89,26.569,30,26.83,30
		c0.27,0,0.52-0.11,0.71-0.29c0.189-0.19,0.29-0.45,0.29-0.71c0-0.261-0.101-0.521-0.29-0.71C27.17,27.92,26.49,27.92,26.13,28.29z"
		/>
	<path d="M22,56H4V8h7v2c0,0.553,0.447,1,1,1h23c0.553,0,1-0.447,1-1V8h7v19c0,0.553,0.447,1,1,1s1-0.447,1-1V7c0-0.553-0.447-1-1-1
		h-8V4c0-0.553-0.447-1-1-1h-6V1c0-0.553-0.447-1-1-1h-9c-0.553,0-1,0.447-1,1v2h-6c-0.553,0-1,0.447-1,1v2H3C2.447,6,2,6.447,2,7
		v50c0,0.553,0.447,1,1,1h19c0.553,0,1-0.447,1-1S22.553,56,22,56z M20,2h7v2v2h-7V4V2z M13,5h5v2c0,0.553,0.447,1,1,1h9
		c0.553,0,1-0.447,1-1V5h5v2v2H13V7V5z"/>
</g>
<g>
</g>
<g>
</g>
<g>
</g>
<g>
</g>
<g>
</g>
<g>
</g>
<g>
</g>
<g>
</g>
<g>
</g>
<g>
</g>
<g>
</g>
<g>
</g>
<g>
</g>
<g>
</g>
<g>
</g>
</svg>
