<?xml version="1.0" encoding="iso-8859-1"?>
<!-- Generator: Adobe Illustrator 18.0.0, SVG Export Plug-In . SVG Version: 6.00 Build 0)  -->
<!DOCTYPE svg PUBLIC "-//W3C//DTD SVG 1.1//EN" "http://www.w3.org/Graphics/SVG/1.1/DTD/svg11.dtd">
<svg version="1.1" id="Capa_1" xmlns="http://www.w3.org/2000/svg" xmlns:xlink="http://www.w3.org/1999/xlink" x="0px" y="0px"
	 viewBox="0 0 60 60" style="enable-background:new 0 0 60 60;" xml:space="preserve">
<g>
	<path d="M54,42v-1c0-3.859-3.14-7-7-7s-7,3.141-7,7v1h-4v18h22V42H54z M42,41c0-2.757,2.243-5,5-5s5,2.243,5,5v1H42V41z M56,58H38
		V44h2h14h2V58z"/>
	<path d="M47,46c-2.206,0-4,1.794-4,4c0,1.859,1.28,3.411,3,3.858V55c0,0.553,0.448,1,1,1s1-0.447,1-1v-1.142
		c1.72-0.447,3-1.999,3-3.858C51,47.794,49.206,46,47,46z M47,52c-1.103,0-2-0.897-2-2s0.897-2,2-2s2,0.897,2,2S48.103,52,47,52z"/>
	<path d="M12,2h34v28h2V0H12H2v60h10h17v-2H12V2z M4,58V2h6v56H4z"/>
	<path d="M41,24V10H17v14H41z M19,12h20v10H19V12z"/>
	<rect x="22" y="14" width="14" height="2"/>
	<rect x="22" y="18" width="14" height="2"/>
</g>
<g>
</g>
<g>
</g>
<g>
</g>
<g>
</g>
<g>
</g>
<g>
</g>
<g>
</g>
<g>
</g>
<g>
</g>
<g>
</g>
<g>
</g>
<g>
</g>
<g>
</g>
<g>
</g>
<g>
</g>
</svg>
