<?xml version="1.0" encoding="iso-8859-1"?>
<!-- Generator: Adobe Illustrator 18.0.0, SVG Export Plug-In . SVG Version: 6.00 Build 0)  -->
<!DOCTYPE svg PUBLIC "-//W3C//DTD SVG 1.1//EN" "http://www.w3.org/Graphics/SVG/1.1/DTD/svg11.dtd">
<svg version="1.1" id="Capa_1" xmlns="http://www.w3.org/2000/svg" xmlns:xlink="http://www.w3.org/1999/xlink" x="0px" y="0px"
	 viewBox="0 0 60 60" style="enable-background:new 0 0 60 60;" xml:space="preserve">
<g>
	<path d="M58.239,44.132c-3.512-5.364-8.2-8.391-13.251-8.59c-0.27-0.032-0.543-0.053-0.821-0.053c-0.491,0-0.969,0.053-1.431,0.151
		c-4.595,0.594-8.827,3.552-12.062,8.492l-0.466,0.711l0.359,0.548C34.201,50.942,39.095,54,44.349,54
		c5.254,0,10.148-3.058,13.783-8.609l0.466-0.711L58.239,44.132z M49.075,42.397c0,2.707-2.202,4.909-4.909,4.909
		s-4.909-2.202-4.909-4.909c0-2.343,1.652-4.302,3.852-4.788c0.446-0.053,0.895-0.087,1.348-0.087c0.025,0,0.05,0.002,0.075,0.003
		C47.065,37.716,49.075,39.815,49.075,42.397z M44.349,52c-4.387,0-8.537-2.537-11.743-7.161c1.559-2.286,3.348-4.069,5.28-5.304
		c-0.4,0.874-0.629,1.841-0.629,2.863c0,3.81,3.1,6.909,6.909,6.909s6.909-3.1,6.909-6.909c0-1.216-0.318-2.357-0.872-3.351
		c2.204,1.207,4.242,3.107,5.996,5.637C52.979,49.406,48.785,52,44.349,52z"/>
	<path d="M11.402,2h34v29h2V0h-36h-10v60h10h28v-2h-28V2z M3.402,58V2h6v56H3.402z"/>
	<path d="M40.402,24V10h-24v14H40.402z M18.402,12h20v10h-20V12z"/>
	<rect x="21.402" y="14" width="14" height="2"/>
	<rect x="21.402" y="18" width="14" height="2"/>
</g>
<g>
</g>
<g>
</g>
<g>
</g>
<g>
</g>
<g>
</g>
<g>
</g>
<g>
</g>
<g>
</g>
<g>
</g>
<g>
</g>
<g>
</g>
<g>
</g>
<g>
</g>
<g>
</g>
<g>
</g>
</svg>
