<?xml version="1.0" encoding="iso-8859-1"?>
<!-- Generator: Adobe Illustrator 18.0.0, SVG Export Plug-In . SVG Version: 6.00 Build 0)  -->
<!DOCTYPE svg PUBLIC "-//W3C//DTD SVG 1.1//EN" "http://www.w3.org/Graphics/SVG/1.1/DTD/svg11.dtd">
<svg version="1.1" id="Capa_1" xmlns="http://www.w3.org/2000/svg" xmlns:xlink="http://www.w3.org/1999/xlink" x="0px" y="0px"
	 viewBox="0 0 59 59" style="enable-background:new 0 0 59 59;" xml:space="preserve">
<g>
	<path d="M57.693,55.635L45.848,35.329c-0.405-0.695-1.128-1.11-1.934-1.11c-0.805,0-1.527,0.415-1.933,1.11L30.136,55.635
		c-0.409,0.7-0.412,1.539-0.008,2.242C30.533,58.58,31.258,59,32.069,59H55.76c0.811,0,1.536-0.42,1.939-1.123
		C58.104,57.174,58.101,56.336,57.693,55.635z M55.965,56.881C55.935,56.936,55.873,57,55.76,57H32.069
		c-0.114,0-0.175-0.064-0.206-0.119s-0.056-0.14,0.001-0.238l11.845-20.306c0.057-0.098,0.143-0.118,0.205-0.118
		c0.063,0,0.148,0.021,0.206,0.118l11.845,20.306C56.022,56.741,55.997,56.826,55.965,56.881z"/>
	<path d="M43.999,41c-0.552,0-1,0.447-1,1v8c0,0.553,0.448,1,1,1s1-0.447,1-1v-8C44.999,41.447,44.552,41,43.999,41z"/>
	<path d="M43.299,53.29c-0.19,0.18-0.3,0.439-0.3,0.71c0,0.27,0.11,0.52,0.29,0.7c0.19,0.189,0.44,0.3,0.71,0.3s0.52-0.11,0.71-0.29
		c0.18-0.19,0.29-0.45,0.29-0.71c0-0.261-0.11-0.521-0.29-0.71C44.329,52.92,43.659,52.92,43.299,53.29z"/>
	<path d="M7.833,18h13c0.552,0,1-0.447,1-1s-0.448-1-1-1h-13c-0.552,0-1,0.447-1,1S7.281,18,7.833,18z"/>
	<path d="M26.999,46H7.833c-0.552,0-1,0.447-1,1s0.448,1,1,1h19.167c0.552,0,1-0.447,1-1S27.552,46,26.999,46z"/>
	<path d="M36.833,22h-29c-0.552,0-1,0.447-1,1s0.448,1,1,1h29c0.552,0,1-0.447,1-1S37.385,22,36.833,22z"/>
	<path d="M33.999,35c0-0.553-0.448-1-1-1H7.833c-0.552,0-1,0.447-1,1s0.448,1,1,1h25.167C33.552,36,33.999,35.553,33.999,35z"/>
	<path d="M7.833,40c-0.552,0-1,0.447-1,1s0.448,1,1,1h22.167c0.552,0,1-0.447,1-1s-0.448-1-1-1H7.833z"/>
	<path d="M7.833,30h14c0.552,0,1-0.447,1-1s-0.448-1-1-1h-14c-0.552,0-1,0.447-1,1S7.281,30,7.833,30z"/>
	<path d="M37.833,29c0-0.553-0.448-1-1-1h-7c-0.552,0-1,0.447-1,1s0.448,1,1,1h7C37.385,30,37.833,29.553,37.833,29z"/>
	<path d="M26.539,29.71c0.19-0.19,0.29-0.45,0.29-0.71c0-0.261-0.1-0.521-0.29-0.71c-0.37-0.37-1.04-0.37-1.42,0
		c-0.18,0.189-0.29,0.449-0.29,0.71c0,0.26,0.11,0.52,0.3,0.71c0.18,0.189,0.44,0.29,0.7,0.29C26.089,30,26.349,29.899,26.539,29.71
		z"/>
	<path d="M23.999,56h-21V8h7v2c0,0.553,0.448,1,1,1h23c0.552,0,1-0.447,1-1V8h7v21c0,0.553,0.448,1,1,1s1-0.447,1-1V7
		c0-0.553-0.448-1-1-1h-8V4c0-0.553-0.448-1-1-1h-6V1c0-0.553-0.448-1-1-1h-9c-0.552,0-1,0.447-1,1v2h-6c-0.552,0-1,0.447-1,1v2h-8
		c-0.552,0-1,0.447-1,1v50c0,0.553,0.448,1,1,1h22c0.552,0,1-0.447,1-1S24.552,56,23.999,56z M18.999,2h7v2v2h-7V4V2z M11.999,5h5v2
		c0,0.553,0.448,1,1,1h9c0.552,0,1-0.447,1-1V5h5v2v2h-21V7V5z"/>
</g>
<g>
</g>
<g>
</g>
<g>
</g>
<g>
</g>
<g>
</g>
<g>
</g>
<g>
</g>
<g>
</g>
<g>
</g>
<g>
</g>
<g>
</g>
<g>
</g>
<g>
</g>
<g>
</g>
<g>
</g>
</svg>
