<?xml version="1.0" encoding="iso-8859-1"?>
<!-- Generator: Adobe Illustrator 18.0.0, SVG Export Plug-In . SVG Version: 6.00 Build 0)  -->
<!DOCTYPE svg PUBLIC "-//W3C//DTD SVG 1.1//EN" "http://www.w3.org/Graphics/SVG/1.1/DTD/svg11.dtd">
<svg version="1.1" id="Capa_1" xmlns="http://www.w3.org/2000/svg" xmlns:xlink="http://www.w3.org/1999/xlink" x="0px" y="0px"
	 viewBox="0 0 58.007 58.007" style="enable-background:new 0 0 58.007 58.007;" xml:space="preserve">
<g>
	<path d="M0,56.473h24v-24H0V56.473z M2,34.473h20v20h-9V41.887l4.293,4.293l1.414-1.414L12,38.059l-6.707,6.707l1.414,1.414
		L11,41.887v12.586H2V34.473z"/>
	<path d="M57.428,42.442c-2.008-3.796-8.981-7.912-9.287-8.092c-1.276-0.727-2.597-0.955-3.721-0.646
		c-0.844,0.234-1.533,0.768-1.997,1.546c-1.02,1.221-2.286,2.646-2.591,2.868c-2.368,1.603-4.25,1.415-6.295-0.629L22.051,26.002
		c-2.044-2.045-2.232-3.928-0.632-6.29c0.224-0.31,1.65-1.575,2.871-2.596c0.778-0.464,1.312-1.151,1.546-1.996
		c0.311-1.123,0.081-2.444-0.653-3.731c-0.173-0.296-4.29-7.27-8.085-9.277c-1.926-1.018-4.255-0.668-5.795,0.872L8.765,5.52
		c-6.032,6.032-6.23,13.402-0.573,21.314c0.32,0.448,0.945,0.552,1.395,0.231c0.449-0.321,0.553-0.946,0.232-1.396
		c-5.155-7.21-5.038-13.338,0.36-18.736l2.537-2.537c0.916-0.916,2.302-1.125,3.446-0.519c3.294,1.743,7.256,8.454,7.29,8.511
		c0.449,0.787,0.62,1.608,0.457,2.196c-0.1,0.36-0.323,0.634-0.683,0.836l-0.15,0.104c-0.853,0.711-2.882,2.433-3.309,3.061
		c-0.612,0.904-1.018,1.793-1.23,2.666c-0.711-1.418-1.286-3.061-1.475-4.881c-0.057-0.548-0.55-0.93-1.098-0.892
		c-0.549,0.058-0.949,0.549-0.892,1.099c0.722,6.953,6.129,11.479,6.359,11.668c0.025,0.021,0.056,0.029,0.082,0.046l10.611,10.612
		c0.045,0.045,0.091,0.083,0.136,0.127c0.035,0.051,0.058,0.109,0.104,0.155c0.189,0.187,4.704,4.567,11.599,5.283
		c0.035,0.003,0.07,0.005,0.104,0.005c0.506,0,0.94-0.383,0.994-0.896c0.057-0.55-0.342-1.041-0.892-1.099
		c-2.115-0.219-3.988-0.84-5.55-1.559c0.766-0.23,1.545-0.612,2.335-1.146c0.627-0.426,2.349-2.455,3.06-3.308l0.104-0.15
		c0.203-0.36,0.476-0.584,0.836-0.684c0.587-0.166,1.409,0.007,2.186,0.45c0.068,0.04,6.778,4.002,8.521,7.296
		c0.606,1.146,0.397,2.53-0.519,3.446l-2.537,2.537c-5.393,5.391-11.791,5.444-19.017,0.158c-0.446-0.328-1.071-0.229-1.397,0.216
		c-0.326,0.446-0.229,1.071,0.217,1.397c3.934,2.879,7.733,4.317,11.306,4.317c3.718,0,7.189-1.559,10.306-4.675l2.537-2.537
		C58.097,46.698,58.448,44.369,57.428,42.442z"/>
</g>
<g>
</g>
<g>
</g>
<g>
</g>
<g>
</g>
<g>
</g>
<g>
</g>
<g>
</g>
<g>
</g>
<g>
</g>
<g>
</g>
<g>
</g>
<g>
</g>
<g>
</g>
<g>
</g>
<g>
</g>
</svg>
