<?xml version="1.0" encoding="iso-8859-1"?>
<!-- Generator: Adobe Illustrator 18.0.0, SVG Export Plug-In . SVG Version: 6.00 Build 0)  -->
<!DOCTYPE svg PUBLIC "-//W3C//DTD SVG 1.1//EN" "http://www.w3.org/Graphics/SVG/1.1/DTD/svg11.dtd">
<svg version="1.1" id="Capa_1" xmlns="http://www.w3.org/2000/svg" xmlns:xlink="http://www.w3.org/1999/xlink" x="0px" y="0px"
	 viewBox="0 0 57.006 57.006" style="enable-background:new 0 0 57.006 57.006;" xml:space="preserve">
<g>
	<path d="M20.521,35.366v-2.36h1c0.553,0,1-0.447,1-1s-0.447-1-1-1h-1h-1h-14h-1h-1c-0.553,0-1,0.447-1,1s0.447,1,1,1h1v2.36
		c0,3.535,1.845,6.748,4.827,8.64c-2.981,1.892-4.827,5.105-4.827,8.64v2.36h-1c-0.553,0-1,0.447-1,1s0.447,1,1,1h1h1h14h1h1
		c0.553,0,1-0.447,1-1s-0.447-1-1-1h-1v-2.36c0-3.535-1.845-6.748-4.827-8.64C18.675,42.114,20.521,38.901,20.521,35.366z
		 M18.521,52.645v2.36h-12v-2.36c0-3.319,2.033-6.298,5.197-7.64h1.605C16.488,46.347,18.521,49.326,18.521,52.645z M13.323,43.006
		h-1.605c-3.164-1.342-5.197-4.32-5.197-7.64v-2.36h12v2.36C18.521,38.685,16.488,41.664,13.323,43.006z"/>
	<path d="M54.883,40.91c-2.008-3.796-8.981-7.912-9.288-8.092c-1.277-0.727-2.6-0.954-3.721-0.646
		c-0.845,0.234-1.532,0.768-1.995,1.546c-1.02,1.22-2.285,2.646-2.592,2.867c-2.371,1.604-4.252,1.414-6.295-0.629L19.506,24.469
		c-2.045-2.045-2.233-3.928-0.631-6.292c0.224-0.31,1.649-1.575,2.869-2.595c0.778-0.464,1.312-1.151,1.546-1.996
		c0.311-1.123,0.081-2.444-0.653-3.731c-0.173-0.296-4.289-7.269-8.085-9.276c-1.929-1.02-4.255-0.67-5.796,0.872L6.219,3.987
		C0.187,10.02-0.012,17.39,5.646,25.302c0.321,0.449,0.944,0.552,1.396,0.231c0.449-0.321,0.553-0.946,0.231-1.396
		C2.117,16.928,2.236,10.8,7.633,5.401l2.537-2.536c0.915-0.915,2.301-1.126,3.446-0.519c3.294,1.743,7.256,8.453,7.289,8.51
		c0.449,0.787,0.62,1.608,0.457,2.196c-0.1,0.36-0.323,0.634-0.684,0.836l-0.15,0.104c-0.853,0.712-2.883,2.434-3.308,3.062
		c-0.612,0.904-1.018,1.793-1.231,2.666c-0.711-1.418-1.286-3.061-1.475-4.881c-0.058-0.548-0.543-0.947-1.099-0.892
		c-0.549,0.058-0.948,0.549-0.892,1.099c0.722,6.953,6.13,11.479,6.359,11.668c0.026,0.021,0.056,0.029,0.083,0.047l10.61,10.61
		c0.044,0.044,0.089,0.083,0.134,0.126c0.036,0.052,0.059,0.111,0.106,0.157c0.189,0.187,4.704,4.567,11.599,5.283
		c0.035,0.003,0.07,0.005,0.104,0.005c0.506,0,0.94-0.383,0.994-0.896c0.057-0.55-0.343-1.041-0.892-1.099
		c-2.115-0.219-3.988-0.839-5.55-1.559c0.766-0.23,1.545-0.612,2.334-1.146c0.628-0.425,2.35-2.455,3.062-3.308l0.104-0.151
		c0.202-0.359,0.475-0.583,0.835-0.683c0.586-0.165,1.408,0.007,2.186,0.45c1.879,1.102,7.073,4.559,8.521,7.296
		c0.605,1.145,0.397,2.529-0.519,3.445l-2.537,2.537c-5.393,5.392-11.791,5.446-19.016,0.159c-0.447-0.329-1.072-0.23-1.397,0.216
		c-0.326,0.446-0.229,1.071,0.216,1.397c3.935,2.88,7.733,4.317,11.306,4.317c3.718,0,7.189-1.56,10.306-4.676l2.537-2.537
		C55.552,45.164,55.903,42.835,54.883,40.91z"/>
</g>
<g>
</g>
<g>
</g>
<g>
</g>
<g>
</g>
<g>
</g>
<g>
</g>
<g>
</g>
<g>
</g>
<g>
</g>
<g>
</g>
<g>
</g>
<g>
</g>
<g>
</g>
<g>
</g>
<g>
</g>
</svg>
