<?xml version="1.0" encoding="iso-8859-1"?>
<!-- Generator: Adobe Illustrator 18.0.0, SVG Export Plug-In . SVG Version: 6.00 Build 0)  -->
<!DOCTYPE svg PUBLIC "-//W3C//DTD SVG 1.1//EN" "http://www.w3.org/Graphics/SVG/1.1/DTD/svg11.dtd">
<svg version="1.1" id="Capa_1" xmlns="http://www.w3.org/2000/svg" xmlns:xlink="http://www.w3.org/1999/xlink" x="0px" y="0px"
	 viewBox="0 0 56.005 56.005" style="enable-background:new 0 0 56.005 56.005;" xml:space="preserve">
<g>
	<path d="M18.683,32.562c-2.396,0-4.407,1.449-5.684,3.213c-1.276-1.764-3.288-3.213-5.684-3.213c-3.819,0-6.871,2.963-7.271,7.052
		c-0.042,0.267-0.145,1.22,0.226,2.709c0.546,2.197,1.801,4.192,3.631,5.77l8.329,7.127c0.223,0.191,0.496,0.287,0.769,0.287
		c0.273,0,0.546-0.096,0.769-0.286l8.331-7.129c1.828-1.575,3.083-3.57,3.629-5.768c0.369-1.49,0.268-2.442,0.226-2.71
		C25.554,35.525,22.502,32.562,18.683,32.562z M23.787,41.842c-0.445,1.794-1.479,3.432-2.99,4.732L13,53.246l-7.795-6.671
		c-1.513-1.303-2.547-2.94-2.992-4.734c-0.302-1.213-0.194-1.897-0.194-1.897l0.016-0.105c0.245-2.621,2.138-5.275,5.282-5.275
		c2.189,0,3.974,1.811,4.77,3.605L13,40.228l0.914-2.061c0.796-1.795,2.58-3.605,4.77-3.605c3.145,0,5.037,2.654,5.295,5.366
		C23.98,39.935,24.09,40.62,23.787,41.842z"/>
	<path d="M55.426,41.409c-2.008-3.796-8.98-7.912-9.287-8.092c-1.278-0.728-2.6-0.957-3.723-0.646
		c-0.844,0.233-1.531,0.767-1.994,1.545c-1.02,1.22-2.285,2.646-2.592,2.867c-2.37,1.604-4.252,1.414-6.295-0.629L20.049,24.969
		c-2.045-2.045-2.233-3.928-0.631-6.292c0.224-0.31,1.649-1.575,2.869-2.595c0.778-0.463,1.312-1.15,1.546-1.995
		c0.307-1.106,0.071-2.463-0.653-3.732c-0.173-0.296-4.289-7.269-8.085-9.276C13.169,0.057,10.84,0.407,9.299,1.95L6.763,4.487
		C0.73,10.519,0.532,17.889,6.19,25.802c0.321,0.448,0.944,0.553,1.396,0.231c0.449-0.321,0.553-0.946,0.231-1.396
		c-5.156-7.21-5.038-13.339,0.36-18.736l2.536-2.537c0.919-0.916,2.304-1.125,3.446-0.519c3.294,1.743,7.256,8.453,7.289,8.51
		c0.449,0.788,0.62,1.609,0.457,2.197c-0.1,0.36-0.323,0.633-0.683,0.835l-0.151,0.104c-0.853,0.712-2.883,2.434-3.308,3.062
		c-0.612,0.904-1.018,1.793-1.231,2.666c-0.711-1.418-1.286-3.061-1.475-4.881c-0.058-0.548-0.543-0.944-1.099-0.892
		c-0.549,0.058-0.948,0.549-0.892,1.099c0.722,6.953,6.13,11.479,6.359,11.668c0.026,0.021,0.056,0.029,0.083,0.047l10.61,10.61
		c0.044,0.044,0.089,0.083,0.134,0.125c0.036,0.053,0.059,0.111,0.106,0.158c0.189,0.187,4.704,4.567,11.599,5.283
		c0.035,0.003,0.07,0.005,0.104,0.005c0.506,0,0.94-0.383,0.994-0.896c0.057-0.55-0.343-1.041-0.892-1.099
		c-2.115-0.219-3.988-0.839-5.549-1.559c0.766-0.229,1.544-0.612,2.334-1.146c0.628-0.425,2.35-2.455,3.062-3.308l0.104-0.151
		c0.202-0.359,0.475-0.583,0.835-0.683c0.587-0.164,1.409,0.008,2.187,0.45c1.879,1.102,7.072,4.559,8.521,7.296
		c0.605,1.145,0.397,2.529-0.519,3.445l-2.537,2.537c-5.393,5.393-11.791,5.446-19.016,0.159c-0.448-0.327-1.072-0.229-1.397,0.216
		c-0.326,0.446-0.229,1.071,0.216,1.397c3.935,2.88,7.733,4.317,11.306,4.317c3.718,0,7.189-1.56,10.306-4.676l2.537-2.537
		C56.095,45.663,56.446,43.334,55.426,41.409z"/>
</g>
<g>
</g>
<g>
</g>
<g>
</g>
<g>
</g>
<g>
</g>
<g>
</g>
<g>
</g>
<g>
</g>
<g>
</g>
<g>
</g>
<g>
</g>
<g>
</g>
<g>
</g>
<g>
</g>
<g>
</g>
</svg>
