<?xml version="1.0" encoding="iso-8859-1"?>
<!-- Generator: Adobe Illustrator 18.0.0, SVG Export Plug-In . SVG Version: 6.00 Build 0)  -->
<!DOCTYPE svg PUBLIC "-//W3C//DTD SVG 1.1//EN" "http://www.w3.org/Graphics/SVG/1.1/DTD/svg11.dtd">
<svg version="1.1" id="Capa_1" xmlns="http://www.w3.org/2000/svg" xmlns:xlink="http://www.w3.org/1999/xlink" x="0px" y="0px"
	 viewBox="0 0 55 55" style="enable-background:new 0 0 55 55;" xml:space="preserve">
<g>
	<path d="M39.875,29.061c3.431-7.736,1.888-17.742-3.815-23.444C32.438,1.995,27.622,0,22.5,0S12.562,1.995,8.94,5.617
		c-6.703,6.702-7.536,19.312-1.804,26.952L22.5,54.757l4.665-6.737C29.341,52.163,33.681,55,38.677,55c7.168,0,13-5.832,13-13
		C51.677,35.236,46.483,29.668,39.875,29.061z M22.5,51.243L8.759,31.4c-5.2-6.933-4.454-18.32,1.596-24.369
		C13.599,3.787,17.912,2,22.5,2s8.901,1.787,12.146,5.031c5.254,5.254,6.559,15.013,3.024,22.02c-0.389,0.03-0.771,0.079-1.15,0.143
		c-0.048,0.008-0.096,0.014-0.144,0.022c-0.312,0.056-0.617,0.126-0.921,0.204c-0.127,0.032-0.255,0.062-0.38,0.098
		c-0.221,0.064-0.438,0.136-0.654,0.211c-0.211,0.072-0.421,0.147-0.627,0.23c-0.13,0.053-0.259,0.109-0.387,0.167
		c-0.29,0.127-0.573,0.264-0.851,0.411c-0.049,0.026-0.096,0.052-0.145,0.079c-3.289,1.797-5.692,4.959-6.464,8.742
		c-0.002,0.01-0.005,0.02-0.007,0.03c-0.076,0.375-0.132,0.756-0.175,1.142c-0.006,0.053-0.017,0.104-0.023,0.157
		c-0.043,0.432-0.067,0.869-0.067,1.313c0,0.384,0.023,0.767,0.058,1.15c0.014,0.158,0.034,0.314,0.054,0.47
		c0.026,0.2,0.056,0.4,0.092,0.6c0.036,0.21,0.073,0.419,0.12,0.626c0.013,0.057,0.03,0.114,0.044,0.171
		c0.065,0.271,0.127,0.544,0.208,0.808L22.5,51.243z M38.677,53c-4.799,0-8.879-3.094-10.378-7.388
		c-0.09-0.259-0.168-0.52-0.239-0.782c-0.017-0.063-0.033-0.127-0.049-0.19c-0.058-0.232-0.108-0.464-0.151-0.697
		c-0.024-0.136-0.044-0.273-0.063-0.41c-0.026-0.176-0.052-0.353-0.069-0.529c-0.03-0.331-0.051-0.664-0.051-1.003
		c0-4.159,2.321-7.786,5.736-9.655c0.043-0.023,0.089-0.044,0.132-0.067c0.246-0.13,0.498-0.252,0.754-0.364
		c0.156-0.067,0.316-0.126,0.475-0.186c0.15-0.057,0.299-0.115,0.451-0.165c0.258-0.084,0.52-0.157,0.787-0.223
		c0.062-0.015,0.123-0.033,0.185-0.048c0.332-0.075,0.669-0.138,1.013-0.183c0.004-0.001,0.009-0.001,0.013-0.002
		c0.361-0.047,0.728-0.077,1.1-0.089l0.448-0.014C44.793,31.056,49.677,35.966,49.677,42C49.677,48.065,44.742,53,38.677,53z"/>
	<path d="M44.677,41h-12c-0.552,0-1,0.447-1,1s0.448,1,1,1h12c0.552,0,1-0.447,1-1S45.229,41,44.677,41z"/>
	<path d="M29.677,19c0-3.859-3.14-7-7-7s-7,3.141-7,7s3.14,7,7,7S29.677,22.859,29.677,19z M22.677,24c-2.757,0-5-2.243-5-5
		s2.243-5,5-5s5,2.243,5,5S25.434,24,22.677,24z"/>
</g>
<g>
</g>
<g>
</g>
<g>
</g>
<g>
</g>
<g>
</g>
<g>
</g>
<g>
</g>
<g>
</g>
<g>
</g>
<g>
</g>
<g>
</g>
<g>
</g>
<g>
</g>
<g>
</g>
<g>
</g>
</svg>
