<?xml version="1.0" encoding="iso-8859-1"?>
<!-- Generator: Adobe Illustrator 18.0.0, SVG Export Plug-In . SVG Version: 6.00 Build 0)  -->
<!DOCTYPE svg PUBLIC "-//W3C//DTD SVG 1.1//EN" "http://www.w3.org/Graphics/SVG/1.1/DTD/svg11.dtd">
<svg version="1.1" id="Capa_1" xmlns="http://www.w3.org/2000/svg" xmlns:xlink="http://www.w3.org/1999/xlink" x="0px" y="0px"
	 viewBox="0 0 55.001 55.001" style="enable-background:new 0 0 55.001 55.001;" xml:space="preserve">
<g>
	<path d="M53.454,40.101c-0.116-0.367-0.434-0.634-0.814-0.688l-7.777-1.089l-3.472-6.78c-0.342-0.668-1.438-0.668-1.779,0
		l-3.472,6.78l-7.777,1.089c-0.381,0.054-0.698,0.32-0.814,0.688s-0.012,0.768,0.269,1.031l5.605,5.267L32.1,53.825
		c-0.066,0.373,0.084,0.752,0.388,0.978c0.304,0.227,0.712,0.263,1.049,0.089l6.964-3.528l6.964,3.528
		C47.607,54.965,47.762,55,47.917,55c0.211,0,0.421-0.066,0.597-0.197c0.304-0.226,0.454-0.604,0.388-0.978l-1.321-7.427
		l5.605-5.267C53.466,40.868,53.57,40.468,53.454,40.101z M45.816,45.312c-0.246,0.231-0.359,0.571-0.3,0.903l1.064,5.987
		l-5.628-2.852c-0.143-0.072-0.297-0.108-0.452-0.108s-0.31,0.036-0.452,0.108l-5.628,2.852l1.064-5.987
		c0.06-0.332-0.054-0.672-0.3-0.903l-4.479-4.207l6.225-0.872c0.322-0.045,0.603-0.244,0.751-0.534l2.818-5.504l2.818,5.504
		c0.148,0.29,0.429,0.489,0.751,0.534l6.225,0.872L45.816,45.312z"/>
	<path d="M21.208,12c-3.859,0-7,3.141-7,7s3.141,7,7,7s7-3.141,7-7S25.067,12,21.208,12z M21.208,24c-2.757,0-5-2.243-5-5
		s2.243-5,5-5s5,2.243,5,5S23.965,24,21.208,24z"/>
	<path d="M23.707,47.393l-2.989,3.909L6.936,31.4C1.737,24.468,2.482,13.08,8.532,7.031C11.776,3.787,16.09,2,20.677,2
		s8.901,1.787,12.146,5.031c4.431,4.431,6.156,11.947,4.294,18.704c-0.146,0.532,0.166,1.083,0.698,1.229
		c0.532,0.146,1.083-0.166,1.229-0.698c2.048-7.428,0.115-15.727-4.808-20.649C30.616,1.995,25.801,0,20.677,0
		c-5.122,0-9.938,1.995-13.56,5.617c-6.703,6.702-7.536,19.312-1.804,26.952l15.323,22.129l4.657-6.091
		c0.336-0.438,0.252-1.066-0.187-1.401S24.042,46.954,23.707,47.393z"/>
</g>
<g>
</g>
<g>
</g>
<g>
</g>
<g>
</g>
<g>
</g>
<g>
</g>
<g>
</g>
<g>
</g>
<g>
</g>
<g>
</g>
<g>
</g>
<g>
</g>
<g>
</g>
<g>
</g>
<g>
</g>
</svg>
