<?xml version="1.0" encoding="iso-8859-1"?>
<!-- Generator: Adobe Illustrator 18.0.0, SVG Export Plug-In . SVG Version: 6.00 Build 0)  -->
<!DOCTYPE svg PUBLIC "-//W3C//DTD SVG 1.1//EN" "http://www.w3.org/Graphics/SVG/1.1/DTD/svg11.dtd">
<svg version="1.1" id="Capa_1" xmlns="http://www.w3.org/2000/svg" xmlns:xlink="http://www.w3.org/1999/xlink" x="0px" y="0px"
	 viewBox="0 0 58.415 58.415" style="enable-background:new 0 0 58.415 58.415;" xml:space="preserve">
<g>
	<path d="M34.415,27.008v24h24v-24H34.415z M56.415,49.008h-9V36.422l4.293,4.293l1.414-1.414l-6.707-6.707l-6.707,6.707
		l1.414,1.414l4.293-4.293v12.586h-9v-20h20V49.008z"/>
	<path d="M38.495,14.177c0,2.17,1.765,3.936,3.935,3.936s3.935-1.766,3.935-3.936s-1.765-3.935-3.935-3.935
		S38.495,12.007,38.495,14.177z M44.365,14.177c0,1.067-0.868,1.936-1.935,1.936s-1.935-0.868-1.935-1.936
		c0-1.066,0.868-1.935,1.935-1.935S44.365,13.11,44.365,14.177z"/>
	<path d="M32.122,3.008h12.351l9.942,9.919v10.081h2V12.096L45.3,1.008H31.295L5.996,26.224l0.008,0.008L0,32.22l25.133,25.187
		l7.715-7.387L8.841,26.228L32.122,3.008z M29.981,49.995l-4.816,4.613L2.829,32.224l4.596-4.584L29.981,49.995z"/>
</g>
<g>
</g>
<g>
</g>
<g>
</g>
<g>
</g>
<g>
</g>
<g>
</g>
<g>
</g>
<g>
</g>
<g>
</g>
<g>
</g>
<g>
</g>
<g>
</g>
<g>
</g>
<g>
</g>
<g>
</g>
</svg>
