<?xml version="1.0" encoding="iso-8859-1"?>
<!-- Generator: Adobe Illustrator 18.0.0, SVG Export Plug-In . SVG Version: 6.00 Build 0)  -->
<!DOCTYPE svg PUBLIC "-//W3C//DTD SVG 1.1//EN" "http://www.w3.org/Graphics/SVG/1.1/DTD/svg11.dtd">
<svg version="1.1" id="Capa_1" xmlns="http://www.w3.org/2000/svg" xmlns:xlink="http://www.w3.org/1999/xlink" x="0px" y="0px"
	 viewBox="0 0 56.414 56.414" style="enable-background:new 0 0 56.414 56.414;" xml:space="preserve">
<g>
	<path d="M48.324,38.06l6.484-3.242L37.17,28.32l6.498,17.637l3.241-6.483l6.798,6.798c0.195,0.195,0.451,0.293,0.707,0.293
		s0.512-0.098,0.707-0.293c0.391-0.391,0.391-1.023,0-1.414L48.324,38.06z M40.545,31.695l9.233,3.402l-3.888,1.943l-1.943,3.887
		L40.545,31.695z"/>
	<path d="M46.364,13.176c0-2.17-1.766-3.935-3.936-3.935s-3.935,1.765-3.935,3.935s1.765,3.936,3.935,3.936
		S46.364,15.346,46.364,13.176z M40.494,13.176c0-1.066,0.868-1.935,1.935-1.935c1.067,0,1.936,0.868,1.936,1.935
		c0,1.067-0.868,1.936-1.936,1.936C41.362,15.112,40.494,14.244,40.494,13.176z"/>
	<path d="M45.299,0.007H31.295l-25.3,25.217l0.009,0.008L0,31.22l25.133,25.187l7.714-7.387L8.84,25.228L32.121,2.007h12.352
		l9.941,9.919v9.081h2v-9.911L45.299,0.007z M29.981,48.995l-4.817,4.613L2.828,31.224l4.596-4.584L29.981,48.995z"/>
</g>
<g>
</g>
<g>
</g>
<g>
</g>
<g>
</g>
<g>
</g>
<g>
</g>
<g>
</g>
<g>
</g>
<g>
</g>
<g>
</g>
<g>
</g>
<g>
</g>
<g>
</g>
<g>
</g>
<g>
</g>
</svg>
