<?xml version="1.0" encoding="iso-8859-1"?>
<!-- Generator: Adobe Illustrator 18.0.0, SVG Export Plug-In . SVG Version: 6.00 Build 0)  -->
<!DOCTYPE svg PUBLIC "-//W3C//DTD SVG 1.1//EN" "http://www.w3.org/Graphics/SVG/1.1/DTD/svg11.dtd">
<svg version="1.1" id="Capa_1" xmlns="http://www.w3.org/2000/svg" xmlns:xlink="http://www.w3.org/1999/xlink" x="0px" y="0px"
	 viewBox="0 0 60 60" style="enable-background:new 0 0 60 60;" xml:space="preserve">
<g>
	<path d="M52.466,50.996l6.483-3.242l-17.637-6.498l6.498,17.638l3.242-6.484l6.797,6.797c0.195,0.195,0.451,0.293,0.707,0.293
		s0.512-0.098,0.707-0.293c0.391-0.391,0.391-1.023,0-1.414L52.466,50.996z M44.688,44.631l9.232,3.402l-3.887,1.943l-1.943,3.888
		L44.688,44.631z"/>
	<path d="M10.5,6.5C8.019,6.5,6,8.519,6,11s2.019,4.5,4.5,4.5S15,13.481,15,11S12.981,6.5,10.5,6.5z M10.5,13.5
		C9.121,13.5,8,12.379,8,11s1.121-2.5,2.5-2.5S13,9.621,13,11S11.879,13.5,10.5,13.5z"/>
	<circle cx="50" cy="9.5" r="1"/>
	<circle cx="46" cy="9.5" r="1"/>
	<circle cx="52" cy="12.5" r="1"/>
	<circle cx="48" cy="12.5" r="1"/>
	<circle cx="42" cy="9.5" r="1"/>
	<circle cx="44" cy="12.5" r="1"/>
	<circle cx="38" cy="9.5" r="1"/>
	<circle cx="40" cy="12.5" r="1"/>
	<circle cx="34" cy="9.5" r="1"/>
	<circle cx="36" cy="12.5" r="1"/>
	<path d="M60,16.892V5.108C60,2.567,57.933,0.5,55.392,0.5H4.608C2.067,0.5,0,2.567,0,5.108v11.783c0,1.469,0.703,2.764,1.777,3.608
		C0.703,21.345,0,22.64,0,24.108v11.783c0,1.469,0.703,2.764,1.777,3.608C0.703,40.345,0,41.64,0,43.108v11.783
		C0,57.433,2.067,59.5,4.608,59.5H43v-2H4.608C3.17,57.5,2,56.33,2,54.892V43.108C2,41.67,3.17,40.5,4.608,40.5H37v-2H4.608
		C3.17,38.5,2,37.33,2,35.892V24.108C2,22.67,3.17,21.5,4.608,21.5h50.783C56.83,21.5,58,22.67,58,24.108V41.5h2V24.108
		c0-1.469-0.703-2.764-1.777-3.608C59.297,19.655,60,18.36,60,16.892z M4.608,19.5C3.17,19.5,2,18.33,2,16.892V5.108
		C2,3.67,3.17,2.5,4.608,2.5h50.783C56.83,2.5,58,3.67,58,5.108v11.783c0,1.438-1.17,2.608-2.608,2.608H4.608z"/>
	<path d="M6,30c0,2.481,2.019,4.5,4.5,4.5S15,32.481,15,30s-2.019-4.5-4.5-4.5S6,27.519,6,30z M13,30c0,1.379-1.121,2.5-2.5,2.5
		S8,31.379,8,30s1.121-2.5,2.5-2.5S13,28.621,13,30z"/>
	<circle cx="50" cy="28.5" r="1"/>
	<circle cx="46" cy="28.5" r="1"/>
	<circle cx="52" cy="31.5" r="1"/>
	<circle cx="48" cy="31.5" r="1"/>
	<circle cx="42" cy="28.5" r="1"/>
	<circle cx="44" cy="31.5" r="1"/>
	<circle cx="38" cy="28.5" r="1"/>
	<circle cx="40" cy="31.5" r="1"/>
	<circle cx="34" cy="28.5" r="1"/>
	<circle cx="36" cy="31.5" r="1"/>
	<path d="M6,49c0,2.481,2.019,4.5,4.5,4.5S15,51.481,15,49s-2.019-4.5-4.5-4.5S6,46.519,6,49z M13,49c0,1.379-1.121,2.5-2.5,2.5
		S8,50.379,8,49s1.121-2.5,2.5-2.5S13,47.621,13,49z"/>
</g>
<g>
</g>
<g>
</g>
<g>
</g>
<g>
</g>
<g>
</g>
<g>
</g>
<g>
</g>
<g>
</g>
<g>
</g>
<g>
</g>
<g>
</g>
<g>
</g>
<g>
</g>
<g>
</g>
<g>
</g>
</svg>
