<?xml version="1.0" encoding="iso-8859-1"?>
<!-- Generator: Adobe Illustrator 18.0.0, SVG Export Plug-In . SVG Version: 6.00 Build 0)  -->
<!DOCTYPE svg PUBLIC "-//W3C//DTD SVG 1.1//EN" "http://www.w3.org/Graphics/SVG/1.1/DTD/svg11.dtd">
<svg version="1.1" id="Capa_1" xmlns="http://www.w3.org/2000/svg" xmlns:xlink="http://www.w3.org/1999/xlink" x="0px" y="0px"
	 viewBox="0 0 60 60" style="enable-background:new 0 0 60 60;" xml:space="preserve">
<g>
	<path d="M47,41c0-3.859-3.14-7-7-7s-7,3.141-7,7v1h-4v18h22V42h-4V41z M35,41c0-2.757,2.243-5,5-5s5,2.243,5,5v1H35V41z M49,44v14
		H31V44h2h14H49z"/>
	<path d="M39,54.858V56c0,0.553,0.448,1,1,1s1-0.447,1-1v-1.142c1.72-0.447,3-1.999,3-3.858c0-2.206-1.794-4-4-4s-4,1.794-4,4
		C36,52.859,37.28,54.411,39,54.858z M40,49c1.103,0,2,0.897,2,2s-0.897,2-2,2s-2-0.897-2-2S38.897,49,40,49z"/>
	<path d="M29,26.021c-1.44,0.374-2.567,1.521-2.896,2.979H19c-0.552,0-1,0.447-1,1s0.448,1,1,1h7.18
		c0.488,1.658,2.006,2.879,3.82,2.879c2.206,0,4-1.794,4-4c0-1.859-1.28-3.411-3-3.858V15.879c0-0.553-0.448-1-1-1s-1,0.447-1,1
		V26.021z M32,29.879c0,1.103-0.897,2-2,2s-2-0.897-2-2s0.897-2,2-2S32,28.776,32,29.879z"/>
	<path d="M30,9.879c0.552,0,1-0.447,1-1v-1c0-0.553-0.448-1-1-1s-1,0.447-1,1v1C29,9.432,29.448,9.879,30,9.879z"/>
	<path d="M52,28.879h-1c-0.552,0-1,0.447-1,1s0.448,1,1,1h1c0.552,0,1-0.447,1-1S52.552,28.879,52,28.879z"/>
	<path d="M8,28.879c-0.552,0-1,0.447-1,1s0.448,1,1,1h1c0.552,0,1-0.447,1-1s-0.448-1-1-1H8z"/>
	<path d="M45.556,15.736l0.707-0.707c0.391-0.391,0.391-1.023,0-1.414s-1.023-0.391-1.414,0l-0.707,0.707
		c-0.391,0.391-0.391,1.023,0,1.414c0.195,0.195,0.451,0.293,0.707,0.293S45.361,15.932,45.556,15.736z"/>
	<path d="M14.444,44.021l-0.707,0.707c-0.391,0.391-0.391,1.023,0,1.414c0.195,0.195,0.451,0.293,0.707,0.293
		s0.512-0.098,0.707-0.293l0.707-0.707c0.391-0.391,0.391-1.023,0-1.414S14.834,43.63,14.444,44.021z"/>
	<path d="M15.858,14.322l-0.707-0.707c-0.391-0.391-1.023-0.391-1.414,0s-0.391,1.023,0,1.414l0.707,0.707
		c0.195,0.195,0.451,0.293,0.707,0.293s0.512-0.098,0.707-0.293C16.249,15.346,16.249,14.713,15.858,14.322z"/>
	<path d="M30,0C13.458,0,0,13.458,0,30c0,13.825,9.36,25.801,22.762,29.121c0.081,0.02,0.162,0.029,0.242,0.029
		c0.449,0,0.857-0.305,0.97-0.76c0.133-0.536-0.194-1.078-0.73-1.211C10.735,54.081,2,42.904,2,30C2,14.561,14.561,2,30,2
		s28,12.561,28,28c0,3.468-0.633,6.863-1.883,10.094c-0.199,0.515,0.057,1.094,0.572,1.293c0.516,0.201,1.095-0.057,1.293-0.572
		C59.321,37.354,60,33.715,60,30C60,13.458,46.542,0,30,0z"/>
</g>
<g>
</g>
<g>
</g>
<g>
</g>
<g>
</g>
<g>
</g>
<g>
</g>
<g>
</g>
<g>
</g>
<g>
</g>
<g>
</g>
<g>
</g>
<g>
</g>
<g>
</g>
<g>
</g>
<g>
</g>
</svg>
