<?xml version="1.0" encoding="iso-8859-1"?>
<!-- Generator: Adobe Illustrator 18.0.0, SVG Export Plug-In . SVG Version: 6.00 Build 0)  -->
<!DOCTYPE svg PUBLIC "-//W3C//DTD SVG 1.1//EN" "http://www.w3.org/Graphics/SVG/1.1/DTD/svg11.dtd">
<svg version="1.1" id="Capa_1" xmlns="http://www.w3.org/2000/svg" xmlns:xlink="http://www.w3.org/1999/xlink" x="0px" y="0px"
	 viewBox="0 0 60 60" style="enable-background:new 0 0 60 60;" xml:space="preserve">
<g>
	<path d="M42,34c-1.034,0-2.035,0.134-3,0.363V4.405C39,1.977,37.024,0,34.595,0H9.405C6.976,0,5,1.977,5,4.405v51.189
		C5,58.023,6.976,60,9.405,60h25.189c0.975,0,1.889-0.328,2.651-0.913C38.721,59.669,40.321,60,42,60c7.168,0,13-5.832,13-13
		S49.168,34,42,34z M36.263,35.353c-0.062,0.03-0.125,0.059-0.186,0.09c-0.219,0.112-0.432,0.233-0.643,0.357
		c-0.111,0.064-0.22,0.131-0.328,0.199c-0.192,0.121-0.383,0.243-0.568,0.374c-0.12,0.084-0.235,0.175-0.352,0.264
		c-0.289,0.218-0.568,0.448-0.837,0.689c-0.129,0.116-0.26,0.229-0.385,0.35c-0.143,0.139-0.28,0.284-0.416,0.429
		c-0.115,0.122-0.228,0.245-0.338,0.372c-0.132,0.152-0.263,0.305-0.388,0.462c-0.103,0.13-0.199,0.264-0.297,0.397
		c-0.208,0.284-0.404,0.576-0.59,0.877c-0.087,0.141-0.177,0.28-0.258,0.424c-0.101,0.178-0.192,0.361-0.284,0.544
		c-0.075,0.148-0.147,0.297-0.217,0.449c-0.083,0.182-0.164,0.364-0.238,0.55c-0.074,0.183-0.139,0.369-0.204,0.556
		c-0.076,0.217-0.149,0.436-0.213,0.658c-0.08,0.276-0.153,0.554-0.215,0.836c-0.031,0.143-0.056,0.289-0.082,0.434
		c-0.047,0.255-0.086,0.512-0.118,0.771c-0.016,0.13-0.032,0.258-0.044,0.389c-0.005,0.059-0.016,0.118-0.02,0.177H7V8h30v27.003
		C36.748,35.108,36.506,35.232,36.263,35.353z M9.405,2h25.189C35.921,2,37,3.079,37,4.405V6H7V4.405C7,3.079,8.079,2,9.405,2z
		 M35.027,57.961C34.886,57.986,34.741,58,34.595,58H9.405C8.079,58,7,56.921,7,55.595V48h22.051
		c0.014,0.179,0.027,0.356,0.048,0.533c0.016,0.13,0.04,0.258,0.059,0.388c0.058,0.391,0.132,0.775,0.225,1.154
		c0.029,0.12,0.059,0.238,0.092,0.357c0.118,0.429,0.255,0.848,0.415,1.258c0.02,0.052,0.037,0.106,0.058,0.158
		c0.388,0.96,0.888,1.86,1.483,2.691c0.054,0.076,0.111,0.148,0.167,0.223c0.253,0.338,0.521,0.662,0.804,0.974
		c0.067,0.074,0.132,0.148,0.2,0.22c0.707,0.742,1.498,1.399,2.362,1.958C34.986,57.929,35.005,57.947,35.027,57.961z M42,58
		c-1.494,0-2.919-0.302-4.219-0.844l-0.225-0.102c-0.083-0.037-0.163-0.079-0.244-0.118c-0.351-0.166-0.69-0.35-1.018-0.55
		c-0.09-0.055-0.181-0.106-0.269-0.164c-0.151-0.098-0.297-0.202-0.442-0.307c-0.108-0.078-0.215-0.158-0.32-0.24
		c-0.135-0.105-0.27-0.211-0.399-0.322c-0.113-0.097-0.221-0.199-0.33-0.3c-0.205-0.19-0.402-0.387-0.591-0.592
		c-0.098-0.105-0.197-0.21-0.291-0.32c-0.113-0.132-0.22-0.268-0.326-0.404c-0.08-0.103-0.158-0.208-0.235-0.313
		c-0.104-0.144-0.208-0.289-0.305-0.438c-0.064-0.099-0.123-0.202-0.184-0.303c-0.165-0.272-0.319-0.552-0.461-0.838
		c-0.057-0.116-0.115-0.23-0.168-0.348c-0.071-0.158-0.138-0.318-0.201-0.48c-0.054-0.138-0.105-0.278-0.154-0.418
		c-0.052-0.149-0.106-0.297-0.152-0.448c-0.082-0.273-0.154-0.551-0.214-0.832c-0.025-0.115-0.043-0.231-0.064-0.347
		c-0.04-0.219-0.075-0.438-0.101-0.661c-0.013-0.107-0.026-0.214-0.036-0.322C31.021,47.663,31,47.334,31,47
		c0-0.339,0.021-0.674,0.051-1.005c0.011-0.118,0.027-0.235,0.042-0.352c0.026-0.209,0.058-0.417,0.095-0.624
		c0.026-0.139,0.052-0.278,0.083-0.416c0.04-0.18,0.088-0.355,0.137-0.532c0.041-0.146,0.077-0.294,0.124-0.438
		c0.086-0.268,0.183-0.53,0.289-0.789c0.072-0.175,0.154-0.345,0.235-0.516c0.053-0.112,0.105-0.225,0.162-0.335
		c0.087-0.17,0.18-0.337,0.276-0.502c0.06-0.103,0.122-0.204,0.185-0.305c0.103-0.165,0.207-0.33,0.319-0.489
		c0.057-0.081,0.119-0.158,0.178-0.238c0.234-0.314,0.484-0.617,0.75-0.905c0.061-0.066,0.119-0.135,0.182-0.2
		c0.137-0.142,0.281-0.276,0.426-0.41c0.083-0.078,0.167-0.155,0.253-0.23c0.15-0.131,0.304-0.258,0.461-0.381
		c0.08-0.062,0.162-0.122,0.243-0.182c0.174-0.128,0.349-0.256,0.532-0.374c0.013-0.008,0.026-0.016,0.039-0.024
		c0.685-0.44,1.426-0.808,2.214-1.092c0.066-0.024,0.131-0.05,0.198-0.072l0.295-0.104C39.791,36.171,40.876,36,42,36
		c6.065,0,11,4.935,11,11S48.065,58,42,58z"/>
	<path d="M46.95,42.051c-0.391-0.391-1.023-0.391-1.414,0L42,45.586l-3.536-3.535c-0.391-0.391-1.023-0.391-1.414,0
		s-0.391,1.023,0,1.414L40.586,47l-3.536,3.535c-0.391,0.391-0.391,1.023,0,1.414c0.195,0.195,0.451,0.293,0.707,0.293
		s0.512-0.098,0.707-0.293L42,48.414l3.536,3.535c0.195,0.195,0.451,0.293,0.707,0.293s0.512-0.098,0.707-0.293
		c0.391-0.391,0.391-1.023,0-1.414L43.414,47l3.536-3.535C47.34,43.074,47.34,42.441,46.95,42.051z"/>
	<path d="M22,49c-2.206,0-4,1.794-4,4s1.794,4,4,4s4-1.794,4-4S24.206,49,22,49z M22,55c-1.103,0-2-0.897-2-2s0.897-2,2-2
		s2,0.897,2,2S23.103,55,22,55z"/>
	<path d="M18,5h4c0.552,0,1-0.447,1-1s-0.448-1-1-1h-4c-0.552,0-1,0.447-1,1S17.448,5,18,5z"/>
	<path d="M25,5h1c0.552,0,1-0.447,1-1s-0.448-1-1-1h-1c-0.552,0-1,0.447-1,1S24.448,5,25,5z"/>
</g>
<g>
</g>
<g>
</g>
<g>
</g>
<g>
</g>
<g>
</g>
<g>
</g>
<g>
</g>
<g>
</g>
<g>
</g>
<g>
</g>
<g>
</g>
<g>
</g>
<g>
</g>
<g>
</g>
<g>
</g>
</svg>
