<?xml version="1.0" encoding="iso-8859-1"?>
<!-- Generator: Adobe Illustrator 18.0.0, SVG Export Plug-In . SVG Version: 6.00 Build 0)  -->
<!DOCTYPE svg PUBLIC "-//W3C//DTD SVG 1.1//EN" "http://www.w3.org/Graphics/SVG/1.1/DTD/svg11.dtd">
<svg version="1.1" id="Capa_1" xmlns="http://www.w3.org/2000/svg" xmlns:xlink="http://www.w3.org/1999/xlink" x="0px" y="0px"
	 viewBox="0 0 60 60" style="enable-background:new 0 0 60 60;" xml:space="preserve">
<g>
	<path d="M54.536,40.644c-3.513-5.366-8.206-8.395-13.26-8.591C41.009,32.021,40.739,32,40.463,32c-0.489,0-0.965,0.053-1.425,0.149
		c-4.597,0.592-8.833,3.552-12.07,8.495l-0.464,0.711l0.358,0.547c3.635,5.552,8.529,8.609,13.783,8.609
		c5.254,0,10.148-3.058,13.783-8.609l0.466-0.711L54.536,40.644z M39.411,34.12c0.445-0.053,0.892-0.087,1.342-0.087
		c0.02,0,0.04,0.002,0.06,0.002c2.541,0.184,4.559,2.287,4.559,4.874c0,2.707-2.202,4.909-4.909,4.909
		c-2.707,0-4.909-2.202-4.909-4.909C35.554,36.564,37.209,34.604,39.411,34.12z M40.646,48.512c-4.387,0-8.538-2.537-11.744-7.161
		c1.56-2.287,3.349-4.07,5.281-5.306c-0.4,0.874-0.63,1.842-0.63,2.864c0,3.81,3.1,6.909,6.909,6.909s6.909-3.1,6.909-6.909
		c0-1.216-0.318-2.358-0.872-3.352c2.204,1.207,4.242,3.108,5.997,5.638C49.276,45.918,45.083,48.512,40.646,48.512z"/>
	<path d="M18.105,53c0,2.206,1.794,4,4,4s4-1.794,4-4s-1.794-4-4-4S18.105,50.794,18.105,53z M24.105,53c0,1.103-0.897,2-2,2
		s-2-0.897-2-2s0.897-2,2-2S24.105,51.897,24.105,53z"/>
	<path d="M34.7,58H9.51c-1.326,0-2.405-1.079-2.405-2.405V48h21c0.552,0,1-0.447,1-1s-0.448-1-1-1h-21V8h30v22c0,0.553,0.448,1,1,1
		s1-0.447,1-1V4.405C39.105,1.977,37.129,0,34.7,0H9.51C7.081,0,5.105,1.977,5.105,4.405v51.189C5.105,58.023,7.081,60,9.51,60H34.7
		c0.552,0,1-0.447,1-1S35.252,58,34.7,58z M7.105,4.405C7.105,3.079,8.184,2,9.51,2H34.7c1.326,0,2.405,1.079,2.405,2.405V6h-30
		V4.405z"/>
	<path d="M22.105,3h-4c-0.552,0-1,0.447-1,1s0.448,1,1,1h4c0.552,0,1-0.447,1-1S22.657,3,22.105,3z"/>
	<path d="M26.105,3h-1c-0.552,0-1,0.447-1,1s0.448,1,1,1h1c0.552,0,1-0.447,1-1S26.657,3,26.105,3z"/>
</g>
<g>
</g>
<g>
</g>
<g>
</g>
<g>
</g>
<g>
</g>
<g>
</g>
<g>
</g>
<g>
</g>
<g>
</g>
<g>
</g>
<g>
</g>
<g>
</g>
<g>
</g>
<g>
</g>
<g>
</g>
</svg>
