<?xml version="1.0" encoding="iso-8859-1"?>
<!-- Generator: Adobe Illustrator 18.0.0, SVG Export Plug-In . SVG Version: 6.00 Build 0)  -->
<!DOCTYPE svg PUBLIC "-//W3C//DTD SVG 1.1//EN" "http://www.w3.org/Graphics/SVG/1.1/DTD/svg11.dtd">
<svg version="1.1" id="Capa_1" xmlns="http://www.w3.org/2000/svg" xmlns:xlink="http://www.w3.org/1999/xlink" x="0px" y="0px"
	 viewBox="0 0 60.015 60.015" style="enable-background:new 0 0 60.015 60.015;" xml:space="preserve">
<g>
	<path d="M54.196,41.878l-1.444-0.277c-0.677-0.13-1.21-0.573-1.462-1.216c-0.253-0.642-0.163-1.329,0.245-1.885l0.907-1.236
		c0.292-0.398,0.25-0.95-0.1-1.299l-1.959-1.958c-0.339-0.338-0.872-0.388-1.268-0.121l-1.217,0.824
		c-0.571,0.389-1.261,0.451-1.895,0.175c-0.632-0.275-1.055-0.825-1.16-1.508l-0.233-1.515c-0.075-0.487-0.495-0.848-0.988-0.848
		h-2.77c-0.479,0-0.892,0.341-0.982,0.812l-0.358,1.865c-0.127,0.662-0.558,1.19-1.181,1.448c-0.624,0.261-1.301,0.189-1.86-0.189
		l-1.572-1.064c-0.396-0.267-0.928-0.217-1.268,0.121l-1.959,1.958c-0.35,0.349-0.392,0.9-0.1,1.299L32.48,38.5
		c0.408,0.556,0.498,1.243,0.245,1.885c-0.252,0.643-0.785,1.086-1.462,1.216l-1.444,0.277c-0.471,0.091-0.812,0.503-0.812,0.982
		v2.77c0,0.493,0.36,0.913,0.848,0.988l1.515,0.233c0.683,0.105,1.232,0.528,1.508,1.16c0.276,0.633,0.212,1.323-0.175,1.895
		l-0.824,1.217C31.61,51.52,31.661,52.052,32,52.391l1.958,1.959c0.349,0.349,0.899,0.39,1.299,0.1l1.236-0.907
		c0.555-0.407,1.245-0.497,1.885-0.245c0.643,0.252,1.086,0.785,1.216,1.462l0.277,1.444c0.091,0.471,0.503,0.812,0.982,0.812h2.77
		c0.493,0,0.913-0.36,0.988-0.848l0.164-1.065c0.105-0.688,0.552-1.256,1.193-1.522c0.644-0.266,1.361-0.179,1.921,0.232
		l0.869,0.638c0.399,0.292,0.95,0.25,1.299-0.1l1.958-1.959c0.339-0.339,0.39-0.871,0.121-1.268l-0.824-1.217
		c-0.387-0.571-0.451-1.262-0.175-1.895c0.275-0.632,0.825-1.055,1.508-1.16l1.515-0.233c0.487-0.075,0.848-0.495,0.848-0.988v-2.77
		C55.007,42.381,54.667,41.969,54.196,41.878z M53.007,44.772l-0.667,0.103c-1.354,0.208-2.489,1.082-3.036,2.337
		c-0.548,1.256-0.416,2.682,0.352,3.815l0.361,0.533l-0.768,0.768l-0.177-0.13c-1.13-0.827-2.575-1.002-3.869-0.467
		c-1.294,0.536-2.192,1.682-2.405,3.065l-0.033,0.218h-1.086l-0.121-0.633c-0.259-1.346-1.175-2.447-2.449-2.947
		c-1.276-0.499-2.696-0.313-3.8,0.494l-0.544,0.399l-0.768-0.768l0.361-0.533c0.768-1.134,0.899-2.56,0.352-3.815
		c-0.547-1.255-1.683-2.129-3.036-2.337l-0.667-0.103v-1.086l0.633-0.121c1.346-0.259,2.447-1.175,2.947-2.449
		c0.5-1.275,0.315-2.695-0.494-3.8l-0.399-0.544l0.768-0.768l0.889,0.602c1.108,0.752,2.511,0.893,3.747,0.381
		c1.237-0.513,2.127-1.604,2.38-2.919l0.202-1.054h1.086l0.103,0.667c0.208,1.354,1.082,2.489,2.337,3.036s2.682,0.416,3.815-0.352
		l0.533-0.361l0.768,0.768l-0.399,0.544c-0.81,1.104-0.994,2.524-0.494,3.8c0.5,1.274,1.602,2.19,2.947,2.449l0.633,0.121V44.772z"
		/>
	<path d="M42.007,39.015c-2.757,0-5,2.243-5,5s2.243,5,5,5s5-2.243,5-5S44.764,39.015,42.007,39.015z M42.007,47.015
		c-1.654,0-3-1.346-3-3s1.346-3,3-3s3,1.346,3,3S43.662,47.015,42.007,47.015z"/>
	<path d="M42.007,0h-24c-9.925,0-18,8.075-18,18v14c0,9.59,7.538,17.452,17,17.973v8.344c0,0.688,0.411,1.304,1.047,1.567
		c0.211,0.088,0.433,0.131,0.652,0.131c0.44,0,0.872-0.173,1.198-0.498l1.876-1.877c1.91-1.909,4.094-3.502,6.491-4.735
		c0.491-0.253,0.685-0.856,0.433-1.347c-0.253-0.491-0.857-0.684-1.347-0.433c-2.582,1.329-4.935,3.045-6.991,5.101l-1.359,1.36V48
		h-1c-8.822,0-16-7.178-16-16V18c0-8.822,7.178-16,16-16h24c8.822,0,16,7.178,16,16v14c0,2.307-0.496,4.554-1.476,6.68
		c-0.231,0.501-0.012,1.095,0.49,1.326c0.499,0.229,1.095,0.01,1.326-0.49c1.101-2.39,1.659-4.918,1.659-7.516V18
		C60.007,8.075,51.932,0,42.007,0z"/>
</g>
<g>
</g>
<g>
</g>
<g>
</g>
<g>
</g>
<g>
</g>
<g>
</g>
<g>
</g>
<g>
</g>
<g>
</g>
<g>
</g>
<g>
</g>
<g>
</g>
<g>
</g>
<g>
</g>
<g>
</g>
</svg>
