<?xml version="1.0" encoding="iso-8859-1"?>
<!-- Generator: Adobe Illustrator 18.0.0, SVG Export Plug-In . SVG Version: 6.00 Build 0)  -->
<!DOCTYPE svg PUBLIC "-//W3C//DTD SVG 1.1//EN" "http://www.w3.org/Graphics/SVG/1.1/DTD/svg11.dtd">
<svg version="1.1" id="Capa_1" xmlns="http://www.w3.org/2000/svg" xmlns:xlink="http://www.w3.org/1999/xlink" x="0px" y="0px"
	 viewBox="0 0 60 60" style="enable-background:new 0 0 60 60;" xml:space="preserve">
<g>
	<path d="M50.772,51.65c1.745-1.918,2.82-4.458,2.82-7.25c0-5.953-4.843-10.796-10.796-10.796S32,38.447,32,44.4
		s4.843,10.796,10.796,10.796c2.442,0,4.689-0.824,6.5-2.196l6,6.276c0.196,0.205,0.459,0.309,0.723,0.309
		c0.249,0,0.497-0.092,0.691-0.277c0.398-0.382,0.413-1.015,0.031-1.414L50.772,51.65z M34,44.4c0-4.85,3.946-8.796,8.796-8.796
		s8.796,3.946,8.796,8.796s-3.946,8.796-8.796,8.796S34,49.25,34,44.4z"/>
	<path d="M34.989,31.574c-0.081-1.041-0.612-1.99-1.459-2.606l-12.944-9.363c-0.396-0.285-0.945-0.243-1.293,0.104
		c-0.348,0.348-0.391,0.896-0.104,1.293l9.365,12.947c0.614,0.844,1.563,1.375,2.604,1.456c0.094,0.007,0.187,0.011,0.279,0.011
		c0.941,0,1.847-0.372,2.518-1.044C34.693,33.634,35.07,32.615,34.989,31.574z M32.542,32.957c-0.324,0.324-0.777,0.485-1.227,0.453
		c-0.457-0.035-0.874-0.269-1.142-0.637l-5.713-7.897l7.895,5.711c0.371,0.27,0.604,0.687,0.64,1.144
		C33.031,32.187,32.865,32.634,32.542,32.957z"/>
	<path d="M30,0.415c-0.553,0-1,0.447-1,1v13.291c0,0.553,0.447,1,1,1s1-0.447,1-1V2.433c14.979,0.528,27,12.878,27,27.982
		c0,3.468-0.634,6.863-1.883,10.094c-0.199,0.515,0.057,1.094,0.572,1.293c0.118,0.046,0.24,0.067,0.36,0.067
		c0.4,0,0.779-0.243,0.933-0.64C59.321,37.769,60,34.13,60,30.415C60,13.873,46.542,0.415,30,0.415z"/>
	<path d="M23.243,57.595C10.735,54.496,2,43.319,2,30.415c0-7.46,2.9-14.479,8.166-19.765c0.391-0.392,0.389-1.024-0.002-1.414
		C9.772,8.845,9.14,8.849,8.75,9.238C3.107,14.902,0,22.423,0,30.415c0,13.825,9.36,25.8,22.763,29.121
		c0.08,0.02,0.161,0.029,0.241,0.029c0.448,0,0.856-0.305,0.97-0.76C24.106,58.27,23.779,57.728,23.243,57.595z"/>
</g>
<g>
</g>
<g>
</g>
<g>
</g>
<g>
</g>
<g>
</g>
<g>
</g>
<g>
</g>
<g>
</g>
<g>
</g>
<g>
</g>
<g>
</g>
<g>
</g>
<g>
</g>
<g>
</g>
<g>
</g>
</svg>
