<?xml version="1.0" encoding="iso-8859-1"?>
<!-- Generator: Adobe Illustrator 18.0.0, SVG Export Plug-In . SVG Version: 6.00 Build 0)  -->
<!DOCTYPE svg PUBLIC "-//W3C//DTD SVG 1.1//EN" "http://www.w3.org/Graphics/SVG/1.1/DTD/svg11.dtd">
<svg version="1.1" id="Capa_1" xmlns="http://www.w3.org/2000/svg" xmlns:xlink="http://www.w3.org/1999/xlink" x="0px" y="0px"
	 viewBox="0 0 60 60" style="enable-background:new 0 0 60 60;" xml:space="preserve">
<g>
	<path d="M55.188,44.288l-1.444-0.277c-0.677-0.13-1.21-0.573-1.462-1.216c-0.253-0.642-0.163-1.329,0.245-1.885l0.907-1.236
		c0.292-0.398,0.25-0.95-0.1-1.299l-1.959-1.958c-0.338-0.338-0.872-0.389-1.268-0.121l-1.217,0.824
		c-0.571,0.389-1.262,0.452-1.895,0.175c-0.632-0.275-1.055-0.825-1.16-1.508l-0.233-1.515c-0.075-0.487-0.495-0.848-0.988-0.848
		h-2.77c-0.479,0-0.892,0.341-0.982,0.812l-0.358,1.865c-0.127,0.662-0.558,1.19-1.181,1.448c-0.624,0.262-1.301,0.189-1.86-0.189
		l-1.572-1.064c-0.397-0.268-0.928-0.217-1.268,0.121l-1.959,1.958c-0.35,0.349-0.392,0.9-0.1,1.299l0.907,1.236
		c0.408,0.556,0.498,1.243,0.245,1.885c-0.252,0.643-0.785,1.086-1.462,1.216l-1.444,0.277C30.341,44.379,30,44.791,30,45.271v2.77
		c0,0.493,0.36,0.913,0.848,0.988l1.515,0.233c0.683,0.105,1.232,0.528,1.508,1.16c0.276,0.633,0.212,1.323-0.175,1.895
		l-0.824,1.217c-0.269,0.396-0.218,0.929,0.121,1.268l1.958,1.959c0.349,0.348,0.898,0.39,1.299,0.1l1.236-0.907
		c0.555-0.406,1.244-0.499,1.885-0.245c0.643,0.252,1.086,0.785,1.216,1.462l0.277,1.444c0.091,0.471,0.503,0.812,0.982,0.812h2.77
		c0.493,0,0.913-0.36,0.988-0.848l0.164-1.065c0.105-0.688,0.552-1.256,1.193-1.522c0.644-0.266,1.361-0.179,1.921,0.232
		l0.869,0.638c0.399,0.293,0.951,0.25,1.299-0.1l1.958-1.959c0.339-0.339,0.39-0.871,0.121-1.268l-0.824-1.217
		c-0.387-0.571-0.451-1.262-0.175-1.895c0.275-0.632,0.825-1.055,1.508-1.16l1.515-0.233C55.64,48.953,56,48.533,56,48.04v-2.77
		C56,44.791,55.659,44.379,55.188,44.288z M54,47.183l-0.667,0.103c-1.354,0.208-2.489,1.082-3.036,2.337
		c-0.548,1.256-0.416,2.682,0.352,3.815l0.361,0.533l-0.768,0.768l-0.177-0.13c-1.13-0.827-2.575-1.002-3.869-0.467
		c-1.294,0.536-2.192,1.682-2.405,3.065l-0.033,0.218h-1.086l-0.121-0.633c-0.259-1.346-1.175-2.447-2.449-2.947
		c-1.276-0.499-2.696-0.313-3.8,0.494l-0.544,0.399l-0.768-0.768l0.361-0.533c0.768-1.134,0.899-2.56,0.352-3.815
		c-0.547-1.255-1.683-2.129-3.036-2.337L32,47.183v-1.086l0.633-0.121c1.346-0.259,2.447-1.175,2.947-2.449
		c0.5-1.275,0.315-2.695-0.494-3.8l-0.399-0.544l0.768-0.768l0.889,0.602c1.108,0.751,2.511,0.892,3.747,0.381
		c1.237-0.513,2.127-1.604,2.38-2.919l0.202-1.054h1.086l0.103,0.667c0.208,1.354,1.082,2.489,2.337,3.036
		c1.256,0.548,2.682,0.417,3.815-0.352l0.533-0.361l0.768,0.768l-0.399,0.544c-0.81,1.104-0.994,2.524-0.494,3.8
		c0.5,1.274,1.602,2.19,2.947,2.449L54,46.097V47.183z"/>
	<path d="M43,41.425c-2.757,0-5,2.243-5,5s2.243,5,5,5s5-2.243,5-5S45.757,41.425,43,41.425z M43,49.425c-1.654,0-3-1.346-3-3
		s1.346-3,3-3s3,1.346,3,3S44.654,49.425,43,49.425z"/>
	<path d="M31.438,35.425c0.941,0,1.847-0.372,2.518-1.044c0.737-0.737,1.114-1.756,1.033-2.797s-0.612-1.99-1.459-2.606
		l-12.944-9.363c-0.396-0.285-0.945-0.243-1.293,0.104c-0.348,0.348-0.391,0.896-0.104,1.293l9.365,12.947
		c0.614,0.844,1.563,1.375,2.604,1.456C31.253,35.421,31.346,35.425,31.438,35.425z M30.174,32.783l-5.713-7.897l7.895,5.711
		c0.371,0.27,0.604,0.687,0.64,1.144c0.036,0.456-0.13,0.903-0.453,1.227c-0.325,0.324-0.775,0.485-1.227,0.453
		C30.858,33.385,30.441,33.151,30.174,32.783z"/>
	<path d="M30,0.425c-0.553,0-1,0.447-1,1v13.291c0,0.553,0.447,1,1,1s1-0.447,1-1V2.442C45.979,2.971,58,15.32,58,30.425
		c0,3.468-0.634,6.863-1.883,10.094c-0.199,0.515,0.057,1.094,0.572,1.293c0.118,0.046,0.24,0.067,0.36,0.067
		c0.4,0,0.779-0.243,0.933-0.64C59.321,37.778,60,34.14,60,30.425C60,13.883,46.542,0.425,30,0.425z"/>
	<path d="M23.243,57.604C10.735,54.506,2,43.329,2,30.425c0-7.46,2.9-14.479,8.166-19.765c0.391-0.392,0.389-1.024-0.002-1.414
		C9.772,8.854,9.14,8.858,8.75,9.248C3.107,14.912,0,22.433,0,30.425c0,13.825,9.36,25.8,22.763,29.121
		c0.08,0.02,0.161,0.029,0.241,0.029c0.448,0,0.856-0.305,0.97-0.76C24.106,58.279,23.779,57.737,23.243,57.604z"/>
</g>
<g>
</g>
<g>
</g>
<g>
</g>
<g>
</g>
<g>
</g>
<g>
</g>
<g>
</g>
<g>
</g>
<g>
</g>
<g>
</g>
<g>
</g>
<g>
</g>
<g>
</g>
<g>
</g>
<g>
</g>
</svg>
