<?xml version="1.0" encoding="iso-8859-1"?>
<!-- Generator: Adobe Illustrator 18.0.0, SVG Export Plug-In . SVG Version: 6.00 Build 0)  -->
<!DOCTYPE svg PUBLIC "-//W3C//DTD SVG 1.1//EN" "http://www.w3.org/Graphics/SVG/1.1/DTD/svg11.dtd">
<svg version="1.1" id="Capa_1" xmlns="http://www.w3.org/2000/svg" xmlns:xlink="http://www.w3.org/1999/xlink" x="0px" y="0px"
	 viewBox="0 0 59 59" style="enable-background:new 0 0 59 59;" xml:space="preserve">
<g>
	<path d="M55,44.332C54.57,40.225,51.147,37,47.046,37c-2.565,0-4.984,1.286-6.479,3.402c-0.292-0.051-0.588-0.076-0.884-0.076
		c-2.32,0-4.381,1.577-5.066,3.813C32.709,45.27,31.5,47.38,31.5,49.642c0,3.506,2.785,6.358,6.208,6.358h10.774
		c0.063,0,0.124-0.004,0.172-0.008C48.716,55.996,48.778,56,48.842,56h4.31C56.376,56,59,53.313,59,50.011
		C59,47.411,57.358,45.138,55,44.332z M53.151,54L48.8,53.997l-0.186-0.006L37.708,54c-2.32,0-4.208-1.955-4.208-4.358
		c0-1.666,0.948-3.21,2.417-3.935l0.435-0.214l0.102-0.475c0.331-1.56,1.689-2.692,3.229-2.692c0.344,0,0.687,0.057,1.019,0.169
		l0.777,0.261l0.409-0.711C42.983,40.139,44.911,39,47.046,39c3.265,0,5.955,2.747,5.999,6.123l0.011,0.813l0.799,0.155
		C55.677,46.446,57,48.094,57,50.011C57,52.21,55.273,54,53.151,54z"/>
	<path d="M30.704,33.279c-0.23-0.292-1.078-1.412-1.901-3.049l-0.046-0.092c-0.005-0.009-0.009-0.019-0.014-0.028
		c-0.109-0.219-0.216-0.451-0.324-0.691l-0.05-0.113c-0.056-0.127-0.112-0.258-0.168-0.395c-0.019-0.047-0.038-0.094-0.057-0.142
		c-0.053-0.132-0.106-0.266-0.163-0.42c-0.103-0.272-0.197-0.556-0.289-0.847l-0.072-0.236c-0.094-0.31-0.181-0.627-0.257-0.954
		c-0.002-0.007-0.004-0.013-0.005-0.02l-0.017-0.073l-0.073-0.323l-0.342-0.221C26.346,25.302,26,24.676,26,24v-4
		c0-0.561,0.238-1.085,0.67-1.475L27,18.228V12v-0.354l-0.027-0.021c-0.035-0.721,0.009-2.935,1.623-4.777
		C30.253,4.958,33.081,4,37,4c3.905,0,6.727,0.951,8.386,2.828c1.947,2.201,1.626,5.017,1.623,5.041L47,18.228l0.33,0.298
		C47.762,18.915,48,19.439,48,20v4c0,0.873-0.571,1.637-1.422,1.899c-0.527,0.162-0.823,0.723-0.66,1.25
		c0.162,0.527,0.722,0.821,1.25,0.66C48.862,27.287,50,25.756,50,24v-4c0-0.963-0.359-1.897-1-2.625v-5.319
		c0.057-0.55,0.276-3.824-2.092-6.525C44.854,3.188,41.521,2,37,2s-7.854,1.188-9.908,3.53c-1.435,1.637-1.917,3.481-2.064,4.805
		C23.313,9.449,21.294,9,19,9C8.611,9,8.007,17.855,8,18v4.579c-0.648,0.707-1,1.521-1,2.33v3.454c0,1.079,0.483,2.085,1.311,2.765
		c0.824,3.11,2.854,5.46,3.644,6.285v2.743c0,0.787-0.429,1.509-1.171,1.915l-6.651,4.173C1.583,47.634,0,50.301,0,53.203V57h14h2
		h11c0.553,0,1-0.447,1-1s-0.447-1-1-1H16v-2.238c0-2.571,1.402-4.934,3.658-6.164l8.923-4.866C30.073,40.917,31,39.354,31,37.655
		v-4.019l-0.232-0.278C30.765,33.356,30.74,33.324,30.704,33.279z M29,37.655c0,0.968-0.528,1.856-1.377,2.32l-2.646,1.443
		l-0.649,0.354l-5.627,3.069c-2.9,1.582-4.701,4.616-4.701,7.92V55H2v-1.797c0-2.17,1.184-4.164,3.142-5.233l6.651-4.173
		c1.333-0.727,2.161-2.121,2.161-3.641l-0.001-3.59l-0.315-0.297c-0.027-0.024-2.688-2.556-3.469-5.956l-0.091-0.396l-0.342-0.22
		C9.275,29.399,9,28.9,9,28.363v-3.454c0-0.359,0.244-0.788,0.671-1.174L10,23.438l-0.002-5.379C10.017,17.771,10.536,11,19,11
		c2.394,0,4.409,0.553,6,1.644v4.731c-0.641,0.728-1,1.662-1,2.625v4c0,0.716,0.211,1.393,0.561,1.992
		c0.245,0.419,0.547,0.805,0.936,1.117c0.007,0.026,0.015,0.05,0.022,0.075c0.058,0.221,0.118,0.439,0.182,0.649l0.083,0.272
		c0.016,0.05,0.034,0.102,0.05,0.152c0.033,0.102,0.065,0.203,0.1,0.303c0.06,0.177,0.124,0.359,0.198,0.557
		c0.03,0.079,0.062,0.148,0.092,0.225c0.085,0.218,0.171,0.429,0.261,0.637c0.017,0.039,0.033,0.084,0.05,0.123l0.06,0.136
		c0.027,0.061,0.055,0.115,0.082,0.175c0.094,0.205,0.187,0.405,0.282,0.598c0.018,0.036,0.035,0.077,0.053,0.113l0.075,0.146
		c0.019,0.037,0.037,0.066,0.056,0.102c0.162,0.312,0.321,0.604,0.479,0.877c0.021,0.037,0.042,0.074,0.063,0.111
		c0.171,0.292,0.335,0.56,0.491,0.801c0.007,0.011,0.015,0.023,0.022,0.035c0.33,0.509,0.616,0.908,0.802,1.151V37.655z"/>
</g>
<g>
</g>
<g>
</g>
<g>
</g>
<g>
</g>
<g>
</g>
<g>
</g>
<g>
</g>
<g>
</g>
<g>
</g>
<g>
</g>
<g>
</g>
<g>
</g>
<g>
</g>
<g>
</g>
<g>
</g>
</svg>
