<?xml version="1.0" encoding="iso-8859-1"?>
<!-- Generator: Adobe Illustrator 18.0.0, SVG Export Plug-In . SVG Version: 6.00 Build 0)  -->
<!DOCTYPE svg PUBLIC "-//W3C//DTD SVG 1.1//EN" "http://www.w3.org/Graphics/SVG/1.1/DTD/svg11.dtd">
<svg version="1.1" id="Capa_1" xmlns="http://www.w3.org/2000/svg" xmlns:xlink="http://www.w3.org/1999/xlink" x="0px" y="0px"
	 viewBox="0 0 60.001 60.001" style="enable-background:new 0 0 60.001 60.001;" xml:space="preserve">
<g>
	<path d="M59.693,55.636L47.849,35.33c-0.405-0.695-1.128-1.11-1.934-1.11c-0.805,0-1.527,0.415-1.933,1.11L32.137,55.636
		c-0.409,0.7-0.412,1.539-0.008,2.242c0.404,0.703,1.129,1.123,1.94,1.123h23.691c0.811,0,1.536-0.42,1.939-1.123
		C60.104,57.175,60.102,56.337,59.693,55.636z M57.966,56.882c-0.03,0.055-0.092,0.119-0.205,0.119H34.07
		c-0.114,0-0.175-0.064-0.206-0.119s-0.056-0.14,0.001-0.238L45.71,36.338c0.057-0.098,0.143-0.118,0.205-0.118
		c0.063,0,0.148,0.021,0.206,0.118l11.845,20.306C58.022,56.742,57.998,56.827,57.966,56.882z"/>
	<path d="M46,41.001c-0.552,0-1,0.447-1,1v8c0,0.553,0.448,1,1,1s1-0.447,1-1v-8C47,41.448,46.552,41.001,46,41.001z"/>
	<path d="M45.29,53.291C45.11,53.48,45,53.73,45,54.001c0,0.26,0.11,0.52,0.29,0.71c0.19,0.18,0.44,0.29,0.71,0.29
		c0.26,0,0.52-0.11,0.71-0.29c0.18-0.19,0.29-0.45,0.29-0.71s-0.11-0.521-0.29-0.71C46.34,52.921,45.66,52.921,45.29,53.291z"/>
	<path d="M27.5,54.001c-0.118,0-0.235-0.007-0.353-0.009c-0.479-0.004-0.955-0.03-1.431-0.06c-5.298-0.368-10.153-2.36-14.074-5.483
		c0.382-0.364,0.798-0.667,1.239-0.888l9.165-3.933c0.739-0.368,1.191-1.186,1.628-2.063c0.274-0.552,0.243-1.195-0.083-1.721
		c-0.327-0.527-0.893-0.843-1.513-0.843l-6.347,0.005c-0.022-0.002-2.195-0.222-3.83-0.924c-0.145-0.062-0.235-0.155-0.27-0.276
		c-0.04-0.137-0.002-0.303,0.103-0.454c2.204-3.187,5.92-9.526,6.049-16.171c0.008-0.379,0.303-9.287,9.332-9.361
		c5.366,0.044,7.903,3.189,9.086,5.82c0.591,1.313,0.939,2.879,1.065,4.785c0.124,1.874,0.495,3.85,1.102,5.871
		c0.159,0.53,0.717,0.827,1.246,0.671c0.529-0.159,0.829-0.717,0.67-1.245c-0.564-1.879-0.908-3.705-1.021-5.43
		c-0.143-2.147-0.547-3.938-1.237-5.473c-1.424-3.164-4.469-6.947-10.911-7c-10.963,0.09-11.329,11.206-11.332,11.32
		c-0.118,6.122-3.618,12.072-5.694,15.075c-0.447,0.646-0.585,1.429-0.379,2.145c0.2,0.694,0.711,1.264,1.403,1.561
		c1.917,0.823,4.322,1.066,4.521,1.081h6.084c-0.167,0.324-0.395,0.735-0.512,0.813l-9.166,3.933
		c-0.713,0.356-1.349,0.83-1.914,1.395C5.132,42.484,2,35.853,2,28.501c0-14.061,11.439-25.5,25.5-25.5S53,14.44,53,28.501
		c0,0.553,0.447,1,1,1s1-0.447,1-1c0-15.163-12.336-27.5-27.5-27.5S0,13.338,0,28.501c0,7.976,3.417,15.167,8.86,20.195
		l-0.072,0.098l0.705,0.604c3.904,3.342,8.655,5.483,13.681,6.26c0.356,0.056,0.715,0.102,1.075,0.145
		c0.391,0.045,0.782,0.084,1.176,0.112c0.579,0.043,1.162,0.071,1.75,0.078c0.062,0,0.123,0.008,0.185,0.008
		c0.006,0,0.01-0.003,0.016-0.003c0.042,0,0.083,0.003,0.125,0.003c0.552,0,1-0.447,1-1S28.052,54.001,27.5,54.001z"/>
</g>
<g>
</g>
<g>
</g>
<g>
</g>
<g>
</g>
<g>
</g>
<g>
</g>
<g>
</g>
<g>
</g>
<g>
</g>
<g>
</g>
<g>
</g>
<g>
</g>
<g>
</g>
<g>
</g>
<g>
</g>
</svg>
