<?xml version="1.0" encoding="iso-8859-1"?>
<!-- Generator: Adobe Illustrator 18.0.0, SVG Export Plug-In . SVG Version: 6.00 Build 0)  -->
<!DOCTYPE svg PUBLIC "-//W3C//DTD SVG 1.1//EN" "http://www.w3.org/Graphics/SVG/1.1/DTD/svg11.dtd">
<svg version="1.1" id="Capa_1" xmlns="http://www.w3.org/2000/svg" xmlns:xlink="http://www.w3.org/1999/xlink" x="0px" y="0px"
	 viewBox="0 0 59.018 59.018" style="enable-background:new 0 0 59.018 59.018;" xml:space="preserve">
<g>
	<path d="M58.741,56.809l-5.969-6.244c1.746-1.919,2.82-4.458,2.82-7.25c0-5.953-4.843-10.796-10.796-10.796S34,37.361,34,43.314
		S38.843,54.11,44.796,54.11c2.441,0,4.688-0.824,6.499-2.196l6.001,6.277c0.196,0.205,0.459,0.309,0.723,0.309
		c0.249,0,0.497-0.092,0.691-0.277C59.108,57.841,59.123,57.208,58.741,56.809z M36,43.314c0-4.85,3.946-8.796,8.796-8.796
		s8.796,3.946,8.796,8.796s-3.946,8.796-8.796,8.796S36,48.164,36,43.314z"/>
	<path d="M27.5,53.518c-0.118,0-0.235-0.007-0.353-0.009c-0.478-0.004-0.954-0.03-1.429-0.06c-5.299-0.368-10.155-2.36-14.075-5.483
		c0.382-0.364,0.798-0.667,1.239-0.888l9.163-3.932c0.742-0.37,1.212-1.223,1.629-2.063c0.274-0.552,0.244-1.195-0.082-1.721
		c-0.327-0.528-0.894-0.844-1.514-0.844l-6.346,0.005c-0.022-0.002-2.203-0.225-3.831-0.924c-0.144-0.062-0.234-0.154-0.27-0.276
		c-0.04-0.137-0.002-0.302,0.103-0.454c2.204-3.188,5.92-9.527,6.049-16.171c0.008-0.379,0.304-9.287,9.332-9.361
		c5.365,0.044,7.902,3.189,9.086,5.82c0.592,1.315,0.94,2.88,1.065,4.785c0.124,1.874,0.495,3.85,1.102,5.871
		c0.158,0.529,0.714,0.827,1.245,0.671c0.529-0.159,0.829-0.717,0.671-1.245c-0.564-1.879-0.907-3.705-1.021-5.429
		c-0.142-2.146-0.547-3.938-1.237-5.474c-1.424-3.164-4.47-6.947-10.91-7c-10.964,0.09-11.329,11.206-11.332,11.32
		c-0.119,6.122-3.618,12.072-5.693,15.075c-0.447,0.646-0.586,1.428-0.38,2.144c0.199,0.695,0.711,1.265,1.402,1.562
		c1.917,0.823,4.322,1.066,4.521,1.081h6.085c-0.167,0.323-0.395,0.734-0.514,0.813l-9.165,3.933
		c-0.702,0.351-1.344,0.831-1.912,1.397C5.132,42.003,2,35.371,2,28.018c0-14.061,11.439-25.5,25.5-25.5S53,13.958,53,28.018
		c0,0.553,0.447,1,1,1s1-0.447,1-1c0-15.163-12.337-27.5-27.5-27.5S0,12.855,0,28.018c0,7.977,3.417,15.168,8.861,20.196
		l-0.072,0.098l0.704,0.603c3.905,3.341,8.655,5.483,13.68,6.26c0.356,0.056,0.717,0.102,1.078,0.145
		c0.391,0.045,0.781,0.084,1.174,0.112c0.579,0.043,1.162,0.071,1.75,0.078c0.062,0,0.123,0.008,0.185,0.008
		c0.006,0,0.01-0.003,0.016-0.003c0.042,0,0.083,0.003,0.125,0.003c0.553,0,1-0.447,1-1S28.053,53.518,27.5,53.518z"/>
</g>
<g>
</g>
<g>
</g>
<g>
</g>
<g>
</g>
<g>
</g>
<g>
</g>
<g>
</g>
<g>
</g>
<g>
</g>
<g>
</g>
<g>
</g>
<g>
</g>
<g>
</g>
<g>
</g>
<g>
</g>
</svg>
