<?xml version="1.0" encoding="iso-8859-1"?>
<!-- Generator: Adobe Illustrator 18.0.0, SVG Export Plug-In . SVG Version: 6.00 Build 0)  -->
<!DOCTYPE svg PUBLIC "-//W3C//DTD SVG 1.1//EN" "http://www.w3.org/Graphics/SVG/1.1/DTD/svg11.dtd">
<svg version="1.1" id="Capa_1" xmlns="http://www.w3.org/2000/svg" xmlns:xlink="http://www.w3.org/1999/xlink" x="0px" y="0px"
	 viewBox="0 0 60 60" style="enable-background:new 0 0 60 60;" xml:space="preserve">
<g>
	<path d="M58,37.104V37V26V15V4c0-0.553-0.448-1-1-1H47H11H1C0.448,3,0,3.447,0,4v11v11v11v11c0,0.553,0.448,1,1,1h10h24.003
		c1.963,4.693,6.6,8,11.997,8c7.168,0,13-5.832,13-13C60,41.465,59.26,39.105,58,37.104z M48,31.039V27h8v7.622
		c-0.17-0.164-0.354-0.311-0.532-0.465c-0.088-0.075-0.171-0.155-0.261-0.228c-0.235-0.192-0.48-0.37-0.728-0.545
		c-0.092-0.065-0.181-0.135-0.275-0.198c-0.245-0.163-0.498-0.312-0.754-0.458c-0.109-0.063-0.214-0.13-0.325-0.189
		c-0.236-0.126-0.479-0.237-0.722-0.349c-0.039-0.018-0.077-0.038-0.116-0.056c-0.102-0.046-0.202-0.096-0.305-0.139
		c-0.187-0.078-0.378-0.142-0.568-0.211c-0.081-0.029-0.161-0.059-0.243-0.087c-0.128-0.043-0.253-0.093-0.382-0.132
		c-0.139-0.042-0.281-0.074-0.422-0.112c-0.127-0.034-0.255-0.065-0.383-0.095c-0.143-0.034-0.282-0.075-0.427-0.104
		c-0.095-0.019-0.191-0.03-0.286-0.047c-0.185-0.033-0.373-0.057-0.56-0.082c-0.14-0.018-0.276-0.046-0.417-0.06
		c-0.056-0.005-0.112-0.006-0.168-0.011C48.084,31.051,48.042,31.042,48,31.039z M56,25h-8v-9h8V25z M56,5v9h-8V5H56z M10,25H2v-9h8
		V25z M2,27h8v9H2V27z M2,5h8v9H2V5z M2,47v-9h8v9H2z M34.359,47H12V37V26V15V5h34v10v11v5.051C39.299,31.564,34,37.17,34,44
		c0,0.493,0.033,0.977,0.087,1.456c0.009,0.075,0.024,0.149,0.034,0.224c0.056,0.428,0.131,0.849,0.227,1.262
		C34.353,46.961,34.354,46.981,34.359,47z M47,55c-4.787,0-8.859-3.08-10.367-7.358c-0.094-0.267-0.176-0.536-0.249-0.806
		c-0.015-0.058-0.03-0.115-0.045-0.173c-0.06-0.238-0.112-0.476-0.156-0.716c-0.024-0.133-0.042-0.267-0.061-0.401
		c-0.026-0.18-0.054-0.36-0.071-0.54C36.021,44.674,36,44.339,36,44c0-6.065,4.935-11,11-11c0.426,0,0.848,0.031,1.265,0.079
		c0.084,0.01,0.166,0.027,0.25,0.038c0.26,0.037,0.517,0.086,0.773,0.141c0.071,0.015,0.144,0.024,0.215,0.041
		c0.078,0.018,0.155,0.04,0.233,0.06c0.334,0.087,0.665,0.187,0.989,0.305c0.058,0.021,0.117,0.042,0.175,0.064
		c0.369,0.141,0.731,0.299,1.083,0.479c0.01,0.005,0.02,0.009,0.03,0.014c0.36,0.185,0.709,0.394,1.047,0.618
		c0.023,0.015,0.047,0.028,0.07,0.043c0.313,0.21,0.611,0.443,0.901,0.685c0.049,0.041,0.102,0.079,0.15,0.121
		c0.26,0.224,0.504,0.468,0.743,0.717c0.066,0.069,0.135,0.135,0.2,0.206c0.009,0.01,0.018,0.02,0.027,0.03
		c0.208,0.23,0.402,0.476,0.591,0.725c0.134,0.176,0.277,0.344,0.401,0.53C57.315,39.643,58,41.743,58,44C58,50.065,53.065,55,47,55
		z"/>
	<path d="M53,43h-5v-5c0-0.553-0.448-1-1-1s-1,0.447-1,1v5h-5c-0.552,0-1,0.447-1,1s0.448,1,1,1h5v5c0,0.553,0.448,1,1,1
		s1-0.447,1-1v-5h5c0.552,0,1-0.447,1-1S53.552,43,53,43z"/>
	<path d="M37,26c0-0.342-0.175-0.66-0.463-0.844l-11-7c-0.309-0.195-0.698-0.208-1.019-0.033C24.199,18.299,24,18.635,24,19v14
		c0,0.365,0.199,0.701,0.519,0.877C24.669,33.959,24.834,34,25,34c0.187,0,0.374-0.053,0.537-0.156l11-7
		C36.825,26.66,37,26.342,37,26z M26,31.179V20.821L34.137,26L26,31.179z"/>
</g>
<g>
</g>
<g>
</g>
<g>
</g>
<g>
</g>
<g>
</g>
<g>
</g>
<g>
</g>
<g>
</g>
<g>
</g>
<g>
</g>
<g>
</g>
<g>
</g>
<g>
</g>
<g>
</g>
<g>
</g>
</svg>
